<?xml version="1.0" encoding="UTF-8"?>
<svg xmlns="http://www.w3.org/2000/svg" xmlns:xlink="http://www.w3.org/1999/xlink" width="577pt" height="191pt" viewBox="0 0 577 191" version="1.1">
<defs>
<g>
<symbol overflow="visible" id="glyph0-0">
<path style="stroke:none;" d=""/>
</symbol>
<symbol overflow="visible" id="glyph0-1">
<path style="stroke:none;" d="M 2.984375 -6.765625 L 2.78125 -6.765625 C 2.1875 -6.15625 1.359375 -6.125 0.890625 -6.09375 L 0.890625 -5.515625 C 1.21875 -5.53125 1.6875 -5.546875 2.1875 -5.765625 L 2.1875 -0.578125 L 0.953125 -0.578125 L 0.953125 0 L 4.234375 0 L 4.234375 -0.578125 L 2.984375 -0.578125 Z M 2.984375 -6.765625 "/>
</symbol>
<symbol overflow="visible" id="glyph0-2">
<path style="stroke:none;" d="M 1.734375 -1.875 L 0.5 -0.640625 L 0.5 0 L 4.46875 0 L 4.46875 -0.703125 L 2.65625 -0.703125 C 2.546875 -0.703125 2.421875 -0.703125 2.296875 -0.703125 L 1.21875 -0.703125 C 1.53125 -0.984375 2.296875 -1.71875 2.609375 -2.015625 C 2.796875 -2.1875 3.296875 -2.609375 3.484375 -2.796875 C 3.9375 -3.234375 4.46875 -3.765625 4.46875 -4.609375 C 4.46875 -5.765625 3.671875 -6.765625 2.359375 -6.765625 C 1.21875 -6.765625 0.65625 -5.984375 0.421875 -5.125 C 0.53125 -4.953125 0.59375 -4.890625 0.609375 -4.859375 C 0.625 -4.84375 0.734375 -4.71875 0.828125 -4.578125 C 1.03125 -5.34375 1.3125 -6.125 2.21875 -6.125 C 3.15625 -6.125 3.65625 -5.375 3.65625 -4.59375 C 3.65625 -3.75 3.09375 -3.1875 2.5 -2.578125 Z M 1.734375 -1.875 "/>
</symbol>
<symbol overflow="visible" id="glyph0-3">
<path style="stroke:none;" d="M 0.921875 -5.125 C 1.203125 -5.828125 1.859375 -6.1875 2.46875 -6.1875 C 2.984375 -6.1875 3.46875 -5.875 3.46875 -5.25 C 3.46875 -4.640625 3.0625 -4.046875 2.453125 -3.90625 C 2.390625 -3.890625 2.375 -3.890625 1.671875 -3.84375 L 1.671875 -3.234375 L 2.375 -3.234375 C 3.453125 -3.234375 3.671875 -2.296875 3.671875 -1.796875 C 3.671875 -1.03125 3.203125 -0.390625 2.4375 -0.390625 C 1.75 -0.390625 0.96875 -0.734375 0.53125 -1.421875 L 0.421875 -0.8125 C 1.140625 0.125 2.0625 0.21875 2.46875 0.21875 C 3.671875 0.21875 4.5625 -0.75 4.5625 -1.796875 C 4.5625 -2.703125 3.859375 -3.3125 3.1875 -3.53125 C 3.9375 -3.9375 4.28125 -4.609375 4.28125 -5.25 C 4.28125 -6.09375 3.453125 -6.765625 2.46875 -6.765625 C 1.703125 -6.765625 0.984375 -6.359375 0.5625 -5.65625 Z M 0.921875 -5.125 "/>
</symbol>
<symbol overflow="visible" id="glyph0-4">
<path style="stroke:none;" d="M 3.703125 -1.703125 L 4.6875 -1.703125 L 4.6875 -2.3125 L 3.703125 -2.3125 L 3.703125 -6.546875 L 2.796875 -6.546875 L 0.28125 -2.3125 L 0.28125 -1.703125 L 2.921875 -1.703125 L 2.921875 0 L 3.703125 0 Z M 1.0625 -2.3125 C 1.578125 -3.171875 2.984375 -5.53125 2.984375 -6.09375 L 2.984375 -2.3125 Z M 1.0625 -2.3125 "/>
</symbol>
<symbol overflow="visible" id="glyph0-5">
<path style="stroke:none;" d="M 4.140625 -6.5625 C 3.625 -6.765625 3.21875 -6.765625 3.078125 -6.765625 C 1.671875 -6.765625 0.421875 -5.359375 0.421875 -3.203125 C 0.421875 -0.390625 1.65625 0.21875 2.5 0.21875 C 3.09375 0.21875 3.53125 -0.015625 3.921875 -0.453125 C 4.359375 -0.96875 4.5625 -1.421875 4.5625 -2.21875 C 4.5625 -3.484375 3.890625 -4.609375 2.9375 -4.609375 C 2.625 -4.609375 1.859375 -4.53125 1.25 -3.78125 C 1.390625 -5.390625 2.171875 -6.1875 3.09375 -6.1875 C 3.46875 -6.1875 3.78125 -6.109375 4.140625 -5.96875 Z M 1.265625 -2.1875 C 1.265625 -2.328125 1.265625 -2.34375 1.28125 -2.46875 C 1.28125 -3.203125 1.71875 -4 2.546875 -4 C 3.03125 -4 3.3125 -3.75 3.515625 -3.375 C 3.71875 -3.015625 3.734375 -2.65625 3.734375 -2.21875 C 3.734375 -1.875 3.734375 -1.421875 3.5 -1 C 3.328125 -0.734375 3.078125 -0.390625 2.5 -0.390625 C 1.453125 -0.390625 1.296875 -1.859375 1.265625 -2.1875 Z M 1.265625 -2.1875 "/>
</symbol>
<symbol overflow="visible" id="glyph0-6">
<path style="stroke:none;" d="M 2.3125 -5.828125 C 2.4375 -5.828125 2.546875 -5.84375 2.671875 -5.84375 L 3.875 -5.84375 C 2.40625 -4.21875 1.515625 -2.21875 1.515625 0.109375 L 2.359375 0.109375 C 2.359375 -2.875 3.78125 -5.015625 4.5625 -5.890625 L 4.5625 -6.546875 L 0.421875 -6.546875 L 0.421875 -5.828125 Z M 2.3125 -5.828125 "/>
</symbol>
<symbol overflow="visible" id="glyph0-7">
<path style="stroke:none;" d="M 3.1875 -3.53125 C 4.078125 -3.828125 4.421875 -4.484375 4.421875 -5.015625 C 4.421875 -5.953125 3.5625 -6.765625 2.5 -6.765625 C 1.375 -6.765625 0.5625 -5.9375 0.5625 -5.015625 C 0.5625 -4.484375 0.890625 -3.828125 1.78125 -3.53125 C 1.0625 -3.296875 0.421875 -2.65625 0.421875 -1.796875 C 0.421875 -0.703125 1.328125 0.21875 2.484375 0.21875 C 3.671875 0.21875 4.5625 -0.734375 4.5625 -1.796875 C 4.5625 -2.703125 3.859375 -3.3125 3.1875 -3.53125 Z M 2.5 -3.84375 C 1.71875 -3.84375 1.25 -4.328125 1.25 -5.015625 C 1.25 -5.703125 1.75 -6.1875 2.484375 -6.1875 C 3.265625 -6.1875 3.71875 -5.65625 3.71875 -5.015625 C 3.71875 -4.296875 3.203125 -3.84375 2.5 -3.84375 Z M 2.5 -0.390625 C 1.796875 -0.390625 1.21875 -0.875 1.21875 -1.796875 C 1.21875 -2.84375 1.9375 -3.234375 2.484375 -3.234375 C 3.0625 -3.234375 3.75 -2.828125 3.75 -1.796875 C 3.75 -0.84375 3.125 -0.390625 2.5 -0.390625 Z M 2.5 -0.390625 "/>
</symbol>
<symbol overflow="visible" id="glyph0-8">
<path style="stroke:none;" d="M 0.71875 -0.234375 C 1.0625 0.015625 1.421875 0.21875 2.046875 0.21875 C 3.34375 0.21875 4.5625 -1.171875 4.5625 -3.34375 C 4.5625 -6.125 3.375 -6.765625 2.515625 -6.765625 C 1.828125 -6.765625 1.421875 -6.453125 1.0625 -6.09375 C 0.4375 -5.40625 0.421875 -4.75 0.421875 -4.328125 C 0.421875 -3.046875 1.078125 -1.9375 2.03125 -1.9375 C 2.65625 -1.9375 3.296875 -2.21875 3.71875 -2.765625 C 3.609375 -1.15625 2.84375 -0.390625 2.046875 -0.390625 C 1.71875 -0.390625 1.390625 -0.46875 1.03125 -0.765625 Z M 3.6875 -4.34375 C 3.703125 -4.265625 3.703125 -4.171875 3.703125 -4.09375 C 3.703125 -3.28125 3.203125 -2.546875 2.421875 -2.546875 C 1.953125 -2.546875 1.671875 -2.765625 1.46875 -3.140625 C 1.25 -3.53125 1.234375 -3.890625 1.234375 -4.328125 C 1.234375 -4.765625 1.25 -5.171875 1.53125 -5.609375 C 1.71875 -5.90625 2 -6.1875 2.515625 -6.1875 C 3.5 -6.1875 3.671875 -4.828125 3.6875 -4.34375 Z M 3.6875 -4.34375 "/>
</symbol>
<symbol overflow="visible" id="glyph0-9">
<path style="stroke:none;" d="M 4.5625 -3.25 C 4.5625 -4.03125 4.515625 -4.96875 4.09375 -5.765625 C 3.6875 -6.515625 3 -6.765625 2.5 -6.765625 C 1.90625 -6.765625 1.203125 -6.484375 0.796875 -5.609375 C 0.46875 -4.875 0.421875 -4.046875 0.421875 -3.25 C 0.421875 -2.46875 0.453125 -1.734375 0.75 -1 C 1.15625 -0.046875 1.90625 0.21875 2.484375 0.21875 C 3.203125 0.21875 3.84375 -0.1875 4.15625 -0.875 C 4.453125 -1.53125 4.5625 -2.1875 4.5625 -3.25 Z M 2.5 -0.390625 C 1.96875 -0.390625 1.5625 -0.765625 1.359375 -1.484375 C 1.203125 -2.046875 1.203125 -2.59375 1.203125 -3.375 C 1.203125 -4 1.203125 -4.59375 1.359375 -5.140625 C 1.421875 -5.328125 1.671875 -6.15625 2.484375 -6.15625 C 3.265625 -6.15625 3.515625 -5.390625 3.59375 -5.21875 C 3.78125 -4.65625 3.78125 -3.984375 3.78125 -3.375 C 3.78125 -2.71875 3.78125 -2.078125 3.59375 -1.453125 C 3.34375 -0.546875 2.8125 -0.390625 2.5 -0.390625 Z M 2.5 -0.390625 "/>
</symbol>
<symbol overflow="visible" id="glyph0-10">
<path style="stroke:none;" d="M 1.53125 -5.90625 L 4.140625 -5.90625 L 4.140625 -6.546875 L 0.8125 -6.546875 L 0.8125 -2.859375 L 1.46875 -2.859375 C 1.640625 -3.265625 2 -3.65625 2.578125 -3.65625 C 3.046875 -3.65625 3.59375 -3.234375 3.59375 -2.046875 C 3.59375 -0.390625 2.375 -0.390625 2.28125 -0.390625 C 1.609375 -0.390625 1 -0.78125 0.71875 -1.3125 L 0.390625 -0.75 C 0.796875 -0.1875 1.484375 0.21875 2.296875 0.21875 C 3.484375 0.21875 4.46875 -0.765625 4.46875 -2.03125 C 4.46875 -3.265625 3.625 -4.25 2.59375 -4.25 C 2.1875 -4.25 1.8125 -4.109375 1.53125 -3.84375 Z M 1.53125 -5.90625 "/>
</symbol>
</g>
</defs>
<g id="surface1">
<path style="fill:none;stroke-width:1.2;stroke-linecap:butt;stroke-linejoin:round;stroke:rgb(0%,0%,0%);stroke-opacity:1;stroke-miterlimit:10;" d="M 14.609675 690.007919 L 14.742488 672.83995 " transform="matrix(1,0,0,-1,-2.0003,838.9337)"/>
<path style="fill:none;stroke-width:1.2;stroke-linecap:butt;stroke-linejoin:round;stroke:rgb(0%,0%,0%);stroke-opacity:1;stroke-miterlimit:10;" d="M 38.715144 689.793075 L 38.847956 672.625106 " transform="matrix(1,0,0,-1,-2.0003,838.9337)"/>
<path style="fill:none;stroke-width:1.2;stroke-linecap:butt;stroke-linejoin:round;stroke:rgb(0%,0%,0%);stroke-opacity:1;stroke-miterlimit:10;" d="M 86.414362 690.007919 L 86.414362 672.632919 " transform="matrix(1,0,0,-1,-2.0003,838.9337)"/>
<path style="fill:none;stroke-width:1.2;stroke-linecap:butt;stroke-linejoin:round;stroke:rgb(0%,0%,0%);stroke-opacity:1;stroke-miterlimit:10;" d="M 62.53155 690.007919 L 62.465144 672.632919 " transform="matrix(1,0,0,-1,-2.0003,838.9337)"/>
<path style="fill:none;stroke-width:1.2;stroke-linecap:butt;stroke-linejoin:round;stroke:rgb(0%,0%,0%);stroke-opacity:1;stroke-miterlimit:10;" d="M 110.3128 690.007919 L 110.2503 672.632919 " transform="matrix(1,0,0,-1,-2.0003,838.9337)"/>
<path style="fill:none;stroke-width:1.2;stroke-linecap:butt;stroke-linejoin:round;stroke:rgb(0%,0%,0%);stroke-opacity:1;stroke-miterlimit:10;" d="M 134.527644 690.007919 L 134.53155 672.632919 " transform="matrix(1,0,0,-1,-2.0003,838.9337)"/>
<path style="fill:none;stroke-width:1.2;stroke-linecap:butt;stroke-linejoin:round;stroke:rgb(0%,0%,0%);stroke-opacity:1;stroke-miterlimit:10;" d="M 25.742487 730.02745 L 14.273738 712.632919 " transform="matrix(1,0,0,-1,-2.0003,838.9337)"/>
<path style="fill:none;stroke-width:1.2;stroke-linecap:butt;stroke-linejoin:round;stroke:rgb(0%,0%,0%);stroke-opacity:1;stroke-miterlimit:10;" d="M 25.519831 729.687606 L 38.043269 712.629013 " transform="matrix(1,0,0,-1,-2.0003,838.9337)"/>
<path style="fill:none;stroke-width:1.2;stroke-linecap:butt;stroke-linejoin:round;stroke:rgb(0%,0%,0%);stroke-opacity:1;stroke-miterlimit:10;" d="M 74.09405 730.011825 L 62.429988 712.632919 " transform="matrix(1,0,0,-1,-2.0003,838.9337)"/>
<path style="fill:none;stroke-width:1.2;stroke-linecap:butt;stroke-linejoin:round;stroke:rgb(0%,0%,0%);stroke-opacity:1;stroke-miterlimit:10;" d="M 74.523737 730.007919 L 86.629206 712.632919 " transform="matrix(1,0,0,-1,-2.0003,838.9337)"/>
<path style="fill:none;stroke-width:1.2;stroke-linecap:butt;stroke-linejoin:round;stroke:rgb(0%,0%,0%);stroke-opacity:1;stroke-miterlimit:10;" d="M 121.629206 730.035263 L 110.129206 712.629013 " transform="matrix(1,0,0,-1,-2.0003,838.9337)"/>
<path style="fill:none;stroke-width:1.2;stroke-linecap:butt;stroke-linejoin:round;stroke:rgb(0%,0%,0%);stroke-opacity:1;stroke-miterlimit:10;" d="M 121.422175 729.726669 L 134.527644 712.632919 " transform="matrix(1,0,0,-1,-2.0003,838.9337)"/>
<path style="fill:none;stroke-width:1.2;stroke-linecap:butt;stroke-linejoin:round;stroke:rgb(0%,0%,0%);stroke-opacity:1;stroke-miterlimit:10;" d="M 74.304987 770.007919 L 74.304987 752.632919 " transform="matrix(1,0,0,-1,-2.0003,838.9337)"/>
<path style="fill:none;stroke-width:1.2;stroke-linecap:butt;stroke-linejoin:round;stroke:rgb(0%,0%,0%);stroke-opacity:1;stroke-miterlimit:10;" d="M 73.863581 770.019638 L 25.984675 752.625106 " transform="matrix(1,0,0,-1,-2.0003,838.9337)"/>
<path style="fill:none;stroke-width:1.2;stroke-linecap:butt;stroke-linejoin:round;stroke:rgb(0%,0%,0%);stroke-opacity:1;stroke-miterlimit:10;" d="M 74.758112 770.011825 L 122.672175 752.632919 " transform="matrix(1,0,0,-1,-2.0003,838.9337)"/>
<path style="fill:none;stroke-width:1.2;stroke-linecap:butt;stroke-linejoin:round;stroke:rgb(0%,0%,0%);stroke-opacity:1;stroke-miterlimit:10;" d="M 158.609675 690.007919 L 158.742488 672.83995 " transform="matrix(1,0,0,-1,-2.0003,838.9337)"/>
<path style="fill:none;stroke-width:1.2;stroke-linecap:butt;stroke-linejoin:round;stroke:rgb(0%,0%,0%);stroke-opacity:1;stroke-miterlimit:10;" d="M 182.715144 689.793075 L 182.847956 672.625106 " transform="matrix(1,0,0,-1,-2.0003,838.9337)"/>
<path style="fill:none;stroke-width:1.2;stroke-linecap:butt;stroke-linejoin:round;stroke:rgb(0%,0%,0%);stroke-opacity:1;stroke-miterlimit:10;" d="M 230.414363 690.007919 L 230.414363 672.632919 " transform="matrix(1,0,0,-1,-2.0003,838.9337)"/>
<path style="fill:none;stroke-width:1.2;stroke-linecap:butt;stroke-linejoin:round;stroke:rgb(0%,0%,0%);stroke-opacity:1;stroke-miterlimit:10;" d="M 206.53155 690.007919 L 206.465144 672.632919 " transform="matrix(1,0,0,-1,-2.0003,838.9337)"/>
<path style="fill:none;stroke-width:1.2;stroke-linecap:butt;stroke-linejoin:round;stroke:rgb(0%,0%,0%);stroke-opacity:1;stroke-miterlimit:10;" d="M 254.3128 690.007919 L 254.2503 672.632919 " transform="matrix(1,0,0,-1,-2.0003,838.9337)"/>
<path style="fill:none;stroke-width:1.2;stroke-linecap:butt;stroke-linejoin:round;stroke:rgb(0%,0%,0%);stroke-opacity:1;stroke-miterlimit:10;" d="M 278.527644 690.007919 L 278.53155 672.632919 " transform="matrix(1,0,0,-1,-2.0003,838.9337)"/>
<path style="fill:none;stroke-width:1.2;stroke-linecap:butt;stroke-linejoin:round;stroke:rgb(0%,0%,0%);stroke-opacity:1;stroke-miterlimit:10;" d="M 169.742488 730.02745 L 158.273738 712.632919 " transform="matrix(1,0,0,-1,-2.0003,838.9337)"/>
<path style="fill:none;stroke-width:1.2;stroke-linecap:butt;stroke-linejoin:round;stroke:rgb(0%,0%,0%);stroke-opacity:1;stroke-miterlimit:10;" d="M 169.519831 729.687606 L 182.043269 712.629013 " transform="matrix(1,0,0,-1,-2.0003,838.9337)"/>
<path style="fill:none;stroke-width:1.2;stroke-linecap:butt;stroke-linejoin:round;stroke:rgb(0%,0%,0%);stroke-opacity:1;stroke-miterlimit:10;" d="M 218.09405 730.011825 L 206.429988 712.632919 " transform="matrix(1,0,0,-1,-2.0003,838.9337)"/>
<path style="fill:none;stroke-width:1.2;stroke-linecap:butt;stroke-linejoin:round;stroke:rgb(0%,0%,0%);stroke-opacity:1;stroke-miterlimit:10;" d="M 218.523738 730.007919 L 230.629206 712.632919 " transform="matrix(1,0,0,-1,-2.0003,838.9337)"/>
<path style="fill:none;stroke-width:1.2;stroke-linecap:butt;stroke-linejoin:round;stroke:rgb(0%,0%,0%);stroke-opacity:1;stroke-miterlimit:10;" d="M 265.629206 730.035263 L 254.129206 712.629013 " transform="matrix(1,0,0,-1,-2.0003,838.9337)"/>
<path style="fill:none;stroke-width:1.2;stroke-linecap:butt;stroke-linejoin:round;stroke:rgb(0%,0%,0%);stroke-opacity:1;stroke-miterlimit:10;" d="M 265.422175 729.726669 L 278.527644 712.632919 " transform="matrix(1,0,0,-1,-2.0003,838.9337)"/>
<path style="fill:none;stroke-width:1.2;stroke-linecap:butt;stroke-linejoin:round;stroke:rgb(0%,0%,0%);stroke-opacity:1;stroke-miterlimit:10;" d="M 218.304988 770.007919 L 218.304988 752.632919 " transform="matrix(1,0,0,-1,-2.0003,838.9337)"/>
<path style="fill:none;stroke-width:1.2;stroke-linecap:butt;stroke-linejoin:round;stroke:rgb(0%,0%,0%);stroke-opacity:1;stroke-miterlimit:10;" d="M 217.863581 770.019638 L 169.984675 752.625106 " transform="matrix(1,0,0,-1,-2.0003,838.9337)"/>
<path style="fill:none;stroke-width:1.2;stroke-linecap:butt;stroke-linejoin:round;stroke:rgb(0%,0%,0%);stroke-opacity:1;stroke-miterlimit:10;" d="M 218.758113 770.011825 L 266.672175 752.632919 " transform="matrix(1,0,0,-1,-2.0003,838.9337)"/>
<path style="fill:none;stroke-width:1.2;stroke-linecap:butt;stroke-linejoin:round;stroke:rgb(0%,0%,0%);stroke-opacity:1;stroke-miterlimit:10;" d="M 302.609675 690.007919 L 302.742487 672.83995 " transform="matrix(1,0,0,-1,-2.0003,838.9337)"/>
<path style="fill:none;stroke-width:1.2;stroke-linecap:butt;stroke-linejoin:round;stroke:rgb(0%,0%,0%);stroke-opacity:1;stroke-miterlimit:10;" d="M 326.715144 689.793075 L 326.847956 672.625106 " transform="matrix(1,0,0,-1,-2.0003,838.9337)"/>
<path style="fill:none;stroke-width:1.2;stroke-linecap:butt;stroke-linejoin:round;stroke:rgb(0%,0%,0%);stroke-opacity:1;stroke-miterlimit:10;" d="M 374.414362 690.007919 L 374.414362 672.632919 " transform="matrix(1,0,0,-1,-2.0003,838.9337)"/>
<path style="fill:none;stroke-width:1.2;stroke-linecap:butt;stroke-linejoin:round;stroke:rgb(0%,0%,0%);stroke-opacity:1;stroke-miterlimit:10;" d="M 350.53155 690.007919 L 350.465144 672.632919 " transform="matrix(1,0,0,-1,-2.0003,838.9337)"/>
<path style="fill:none;stroke-width:1.2;stroke-linecap:butt;stroke-linejoin:round;stroke:rgb(0%,0%,0%);stroke-opacity:1;stroke-miterlimit:10;" d="M 398.3128 690.007919 L 398.2503 672.632919 " transform="matrix(1,0,0,-1,-2.0003,838.9337)"/>
<path style="fill:none;stroke-width:1.2;stroke-linecap:butt;stroke-linejoin:round;stroke:rgb(0%,0%,0%);stroke-opacity:1;stroke-miterlimit:10;" d="M 422.527644 690.007919 L 422.53155 672.632919 " transform="matrix(1,0,0,-1,-2.0003,838.9337)"/>
<path style="fill:none;stroke-width:1.2;stroke-linecap:butt;stroke-linejoin:round;stroke:rgb(0%,0%,0%);stroke-opacity:1;stroke-miterlimit:10;" d="M 313.742487 730.02745 L 302.273737 712.632919 " transform="matrix(1,0,0,-1,-2.0003,838.9337)"/>
<path style="fill:none;stroke-width:1.2;stroke-linecap:butt;stroke-linejoin:round;stroke:rgb(0%,0%,0%);stroke-opacity:1;stroke-miterlimit:10;" d="M 313.519831 729.687606 L 326.043269 712.629013 " transform="matrix(1,0,0,-1,-2.0003,838.9337)"/>
<path style="fill:none;stroke-width:1.2;stroke-linecap:butt;stroke-linejoin:round;stroke:rgb(0%,0%,0%);stroke-opacity:1;stroke-miterlimit:10;" d="M 362.09405 730.011825 L 350.429987 712.632919 " transform="matrix(1,0,0,-1,-2.0003,838.9337)"/>
<path style="fill:none;stroke-width:1.2;stroke-linecap:butt;stroke-linejoin:round;stroke:rgb(0%,0%,0%);stroke-opacity:1;stroke-miterlimit:10;" d="M 362.523737 730.007919 L 374.629206 712.632919 " transform="matrix(1,0,0,-1,-2.0003,838.9337)"/>
<path style="fill:none;stroke-width:1.2;stroke-linecap:butt;stroke-linejoin:round;stroke:rgb(0%,0%,0%);stroke-opacity:1;stroke-miterlimit:10;" d="M 409.629206 730.035263 L 398.129206 712.629013 " transform="matrix(1,0,0,-1,-2.0003,838.9337)"/>
<path style="fill:none;stroke-width:1.2;stroke-linecap:butt;stroke-linejoin:round;stroke:rgb(0%,0%,0%);stroke-opacity:1;stroke-miterlimit:10;" d="M 409.422175 729.726669 L 422.527644 712.632919 " transform="matrix(1,0,0,-1,-2.0003,838.9337)"/>
<path style="fill:none;stroke-width:1.2;stroke-linecap:butt;stroke-linejoin:round;stroke:rgb(0%,0%,0%);stroke-opacity:1;stroke-miterlimit:10;" d="M 362.304987 770.007919 L 362.304987 752.632919 " transform="matrix(1,0,0,-1,-2.0003,838.9337)"/>
<path style="fill:none;stroke-width:1.2;stroke-linecap:butt;stroke-linejoin:round;stroke:rgb(0%,0%,0%);stroke-opacity:1;stroke-miterlimit:10;" d="M 361.863581 770.019638 L 313.984675 752.625106 " transform="matrix(1,0,0,-1,-2.0003,838.9337)"/>
<path style="fill:none;stroke-width:1.2;stroke-linecap:butt;stroke-linejoin:round;stroke:rgb(0%,0%,0%);stroke-opacity:1;stroke-miterlimit:10;" d="M 362.758112 770.011825 L 410.672175 752.632919 " transform="matrix(1,0,0,-1,-2.0003,838.9337)"/>
<path style="fill:none;stroke-width:1.2;stroke-linecap:butt;stroke-linejoin:round;stroke:rgb(0%,0%,0%);stroke-opacity:1;stroke-miterlimit:10;" d="M 446.609675 690.007919 L 446.742487 672.83995 " transform="matrix(1,0,0,-1,-2.0003,838.9337)"/>
<path style="fill:none;stroke-width:1.2;stroke-linecap:butt;stroke-linejoin:round;stroke:rgb(0%,0%,0%);stroke-opacity:1;stroke-miterlimit:10;" d="M 470.715144 689.793075 L 470.847956 672.625106 " transform="matrix(1,0,0,-1,-2.0003,838.9337)"/>
<path style="fill:none;stroke-width:1.2;stroke-linecap:butt;stroke-linejoin:round;stroke:rgb(0%,0%,0%);stroke-opacity:1;stroke-miterlimit:10;" d="M 518.414363 690.007919 L 518.414363 672.632919 " transform="matrix(1,0,0,-1,-2.0003,838.9337)"/>
<path style="fill:none;stroke-width:1.2;stroke-linecap:butt;stroke-linejoin:round;stroke:rgb(0%,0%,0%);stroke-opacity:1;stroke-miterlimit:10;" d="M 494.53155 690.007919 L 494.465144 672.632919 " transform="matrix(1,0,0,-1,-2.0003,838.9337)"/>
<path style="fill:none;stroke-width:1.2;stroke-linecap:butt;stroke-linejoin:round;stroke:rgb(0%,0%,0%);stroke-opacity:1;stroke-miterlimit:10;" d="M 542.3128 690.007919 L 542.2503 672.632919 " transform="matrix(1,0,0,-1,-2.0003,838.9337)"/>
<path style="fill:none;stroke-width:1.2;stroke-linecap:butt;stroke-linejoin:round;stroke:rgb(0%,0%,0%);stroke-opacity:1;stroke-miterlimit:10;" d="M 566.527644 690.007919 L 566.53155 672.632919 " transform="matrix(1,0,0,-1,-2.0003,838.9337)"/>
<path style="fill:none;stroke-width:1.2;stroke-linecap:butt;stroke-linejoin:round;stroke:rgb(0%,0%,0%);stroke-opacity:1;stroke-miterlimit:10;" d="M 457.742487 730.02745 L 446.273737 712.632919 " transform="matrix(1,0,0,-1,-2.0003,838.9337)"/>
<path style="fill:none;stroke-width:1.2;stroke-linecap:butt;stroke-linejoin:round;stroke:rgb(0%,0%,0%);stroke-opacity:1;stroke-miterlimit:10;" d="M 457.519831 729.687606 L 470.043269 712.629013 " transform="matrix(1,0,0,-1,-2.0003,838.9337)"/>
<path style="fill:none;stroke-width:1.2;stroke-linecap:butt;stroke-linejoin:round;stroke:rgb(0%,0%,0%);stroke-opacity:1;stroke-miterlimit:10;" d="M 506.09405 730.011825 L 494.429987 712.632919 " transform="matrix(1,0,0,-1,-2.0003,838.9337)"/>
<path style="fill:none;stroke-width:1.2;stroke-linecap:butt;stroke-linejoin:round;stroke:rgb(0%,0%,0%);stroke-opacity:1;stroke-miterlimit:10;" d="M 506.523737 730.007919 L 518.629206 712.632919 " transform="matrix(1,0,0,-1,-2.0003,838.9337)"/>
<path style="fill:none;stroke-width:1.2;stroke-linecap:butt;stroke-linejoin:round;stroke:rgb(0%,0%,0%);stroke-opacity:1;stroke-miterlimit:10;" d="M 553.629206 730.035263 L 542.129206 712.629013 " transform="matrix(1,0,0,-1,-2.0003,838.9337)"/>
<path style="fill:none;stroke-width:1.2;stroke-linecap:butt;stroke-linejoin:round;stroke:rgb(0%,0%,0%);stroke-opacity:1;stroke-miterlimit:10;" d="M 553.422175 729.726669 L 566.527644 712.632919 " transform="matrix(1,0,0,-1,-2.0003,838.9337)"/>
<path style="fill:none;stroke-width:1.2;stroke-linecap:butt;stroke-linejoin:round;stroke:rgb(0%,0%,0%);stroke-opacity:1;stroke-miterlimit:10;" d="M 506.304987 770.007919 L 506.304987 752.632919 " transform="matrix(1,0,0,-1,-2.0003,838.9337)"/>
<path style="fill:none;stroke-width:1.2;stroke-linecap:butt;stroke-linejoin:round;stroke:rgb(0%,0%,0%);stroke-opacity:1;stroke-miterlimit:10;" d="M 505.863581 770.019638 L 457.984675 752.625106 " transform="matrix(1,0,0,-1,-2.0003,838.9337)"/>
<path style="fill:none;stroke-width:1.2;stroke-linecap:butt;stroke-linejoin:round;stroke:rgb(0%,0%,0%);stroke-opacity:1;stroke-miterlimit:10;" d="M 506.758112 770.011825 L 554.672175 752.632919 " transform="matrix(1,0,0,-1,-2.0003,838.9337)"/>
<path style="fill:none;stroke-width:1.2;stroke-linecap:butt;stroke-linejoin:round;stroke:rgb(0%,0%,0%);stroke-opacity:1;stroke-miterlimit:10;" d="M 286.613581 815.21495 L 220.820613 792.375106 " transform="matrix(1,0,0,-1,-2.0003,838.9337)"/>
<path style="fill:none;stroke-width:1.2;stroke-linecap:butt;stroke-linejoin:round;stroke:rgb(0%,0%,0%);stroke-opacity:1;stroke-miterlimit:10;" d="M 286.504206 815.175888 L 76.492487 792.441513 " transform="matrix(1,0,0,-1,-2.0003,838.9337)"/>
<path style="fill:none;stroke-width:1.2;stroke-linecap:butt;stroke-linejoin:round;stroke:rgb(0%,0%,0%);stroke-opacity:1;stroke-miterlimit:10;" d="M 285.883112 815.265731 L 362.472956 792.632919 " transform="matrix(1,0,0,-1,-2.0003,838.9337)"/>
<path style="fill:none;stroke-width:1.2;stroke-linecap:butt;stroke-linejoin:round;stroke:rgb(0%,0%,0%);stroke-opacity:1;stroke-miterlimit:10;" d="M 287.039362 815.207138 L 506.965144 792.6212 " transform="matrix(1,0,0,-1,-2.0003,838.9337)"/>
<path style="fill:none;stroke-width:1.2;stroke-linecap:butt;stroke-linejoin:round;stroke:rgb(0%,0%,0%);stroke-opacity:1;stroke-miterlimit:10;" d="M 298.355769 826.519638 C 298.355769 832.769638 293.293269 837.832138 287.043269 837.832138 C 280.797175 837.832138 275.730769 832.769638 275.730769 826.519638 C 275.730769 820.273544 280.797175 815.207138 287.043269 815.207138 C 293.293269 815.207138 298.355769 820.273544 298.355769 826.519638 Z M 298.355769 826.519638 " transform="matrix(1,0,0,-1,-2.0003,838.9337)"/>
<g style="fill:rgb(0%,0%,0%);fill-opacity:1;">
  <use xlink:href="#glyph0-1" x="282.5527" y="15.6237"/>
</g>
<path style="fill:none;stroke-width:1.2;stroke-linecap:butt;stroke-linejoin:round;stroke:rgb(0%,0%,0%);stroke-opacity:1;stroke-miterlimit:10;" d="M 85.726862 781.320419 C 85.726862 787.566513 80.660456 792.632919 74.414362 792.632919 C 68.164362 792.632919 63.101863 787.566513 63.101863 781.320419 C 63.101863 775.070419 68.164362 770.007919 74.414362 770.007919 C 80.660456 770.007919 85.726862 775.070419 85.726862 781.320419 Z M 85.726862 781.320419 " transform="matrix(1,0,0,-1,-2.0003,838.9337)"/>
<g style="fill:rgb(0%,0%,0%);fill-opacity:1;">
  <use xlink:href="#glyph0-2" x="69.9232" y="60.8237"/>
</g>
<path style="fill:none;stroke-width:1.2;stroke-linecap:butt;stroke-linejoin:round;stroke:rgb(0%,0%,0%);stroke-opacity:1;stroke-miterlimit:10;" d="M 37.726863 741.320419 C 37.726863 747.566513 32.660456 752.632919 26.414362 752.632919 C 20.164362 752.632919 15.101863 747.566513 15.101863 741.320419 C 15.101863 735.070419 20.164362 730.007919 26.414362 730.007919 C 32.660456 730.007919 37.726863 735.070419 37.726863 741.320419 Z M 37.726863 741.320419 " transform="matrix(1,0,0,-1,-2.0003,838.9337)"/>
<g style="fill:rgb(0%,0%,0%);fill-opacity:1;">
  <use xlink:href="#glyph0-3" x="21.92318" y="100.8797"/>
</g>
<path style="fill:none;stroke-width:1.2;stroke-linecap:butt;stroke-linejoin:round;stroke:rgb(0%,0%,0%);stroke-opacity:1;stroke-miterlimit:10;" d="M 25.726862 701.320419 C 25.726862 707.566513 20.660456 712.632919 14.414363 712.632919 C 8.164363 712.632919 3.101863 707.566513 3.101863 701.320419 C 3.101863 695.070419 8.164363 690.007919 14.414363 690.007919 C 20.660456 690.007919 25.726862 695.070419 25.726862 701.320419 Z M 25.726862 701.320419 " transform="matrix(1,0,0,-1,-2.0003,838.9337)"/>
<g style="fill:rgb(0%,0%,0%);fill-opacity:1;">
  <use xlink:href="#glyph0-4" x="9.9232" y="140.8797"/>
</g>
<path style="fill:none;stroke-width:1.2;stroke-linecap:butt;stroke-linejoin:round;stroke:rgb(0%,0%,0%);stroke-opacity:1;stroke-miterlimit:10;" d="M 49.726863 701.320419 C 49.726863 707.566513 44.660456 712.632919 38.414363 712.632919 C 32.164363 712.632919 27.101862 707.566513 27.101862 701.320419 C 27.101862 695.070419 32.164363 690.007919 38.414363 690.007919 C 44.660456 690.007919 49.726863 695.070419 49.726863 701.320419 Z M 49.726863 701.320419 " transform="matrix(1,0,0,-1,-2.0003,838.9337)"/>
<g style="fill:rgb(0%,0%,0%);fill-opacity:1;">
  <use xlink:href="#glyph0-5" x="33.92318" y="140.8797"/>
</g>
<path style="fill:none;stroke-width:1.2;stroke-linecap:butt;stroke-linejoin:round;stroke:rgb(0%,0%,0%);stroke-opacity:1;stroke-miterlimit:10;" d="M 49.726863 661.320419 C 49.726863 667.566513 44.660456 672.632919 38.414363 672.632919 C 32.164363 672.632919 27.101862 667.566513 27.101862 661.320419 C 27.101862 655.070419 32.164363 650.007919 38.414363 650.007919 C 44.660456 650.007919 49.726863 655.070419 49.726863 661.320419 Z M 49.726863 661.320419 " transform="matrix(1,0,0,-1,-2.0003,838.9337)"/>
<g style="fill:rgb(0%,0%,0%);fill-opacity:1;">
  <use xlink:href="#glyph0-6" x="33.92318" y="180.8797"/>
</g>
<path style="fill:none;stroke-width:1.2;stroke-linecap:butt;stroke-linejoin:round;stroke:rgb(0%,0%,0%);stroke-opacity:1;stroke-miterlimit:10;" d="M 85.726862 741.320419 C 85.726862 747.566513 80.660456 752.632919 74.414362 752.632919 C 68.164362 752.632919 63.101863 747.566513 63.101863 741.320419 C 63.101863 735.070419 68.164362 730.007919 74.414362 730.007919 C 80.660456 730.007919 85.726862 735.070419 85.726862 741.320419 Z M 85.726862 741.320419 " transform="matrix(1,0,0,-1,-2.0003,838.9337)"/>
<g style="fill:rgb(0%,0%,0%);fill-opacity:1;">
  <use xlink:href="#glyph0-7" x="69.9232" y="100.8797"/>
</g>
<path style="fill:none;stroke-width:1.2;stroke-linecap:butt;stroke-linejoin:round;stroke:rgb(0%,0%,0%);stroke-opacity:1;stroke-miterlimit:10;" d="M 73.726862 701.320419 C 73.726862 707.566513 68.660456 712.632919 62.414363 712.632919 C 56.164363 712.632919 51.101863 707.566513 51.101863 701.320419 C 51.101863 695.070419 56.164363 690.007919 62.414363 690.007919 C 68.660456 690.007919 73.726862 695.070419 73.726862 701.320419 Z M 73.726862 701.320419 " transform="matrix(1,0,0,-1,-2.0003,838.9337)"/>
<g style="fill:rgb(0%,0%,0%);fill-opacity:1;">
  <use xlink:href="#glyph0-8" x="57.9232" y="140.8797"/>
</g>
<path style="fill:none;stroke-width:1.2;stroke-linecap:butt;stroke-linejoin:round;stroke:rgb(0%,0%,0%);stroke-opacity:1;stroke-miterlimit:10;" d="M 73.726862 661.320419 C 73.726862 667.566513 68.660456 672.632919 62.414363 672.632919 C 56.164363 672.632919 51.101863 667.566513 51.101863 661.320419 C 51.101863 655.070419 56.164363 650.007919 62.414363 650.007919 C 68.660456 650.007919 73.726862 655.070419 73.726862 661.320419 Z M 73.726862 661.320419 " transform="matrix(1,0,0,-1,-2.0003,838.9337)"/>
<g style="fill:rgb(0%,0%,0%);fill-opacity:1;">
  <use xlink:href="#glyph0-1" x="55.4322" y="180.8797"/>
  <use xlink:href="#glyph0-9" x="60.4135" y="180.8797"/>
</g>
<path style="fill:none;stroke-width:1.2;stroke-linecap:butt;stroke-linejoin:round;stroke:rgb(0%,0%,0%);stroke-opacity:1;stroke-miterlimit:10;" d="M 97.726862 701.320419 C 97.726862 707.566513 92.660456 712.632919 86.414362 712.632919 C 80.164362 712.632919 75.101862 707.566513 75.101862 701.320419 C 75.101862 695.070419 80.164362 690.007919 86.414362 690.007919 C 92.660456 690.007919 97.726862 695.070419 97.726862 701.320419 Z M 97.726862 701.320419 " transform="matrix(1,0,0,-1,-2.0003,838.9337)"/>
<g style="fill:rgb(0%,0%,0%);fill-opacity:1;">
  <use xlink:href="#glyph0-1" x="79.4322" y="140.8797"/>
  <use xlink:href="#glyph0-1" x="84.4135" y="140.8797"/>
</g>
<path style="fill:none;stroke-width:1.2;stroke-linecap:butt;stroke-linejoin:round;stroke:rgb(0%,0%,0%);stroke-opacity:1;stroke-miterlimit:10;" d="M 97.726862 661.320419 C 97.726862 667.566513 92.660456 672.632919 86.414362 672.632919 C 80.164362 672.632919 75.101862 667.566513 75.101862 661.320419 C 75.101862 655.070419 80.164362 650.007919 86.414362 650.007919 C 92.660456 650.007919 97.726862 655.070419 97.726862 661.320419 Z M 97.726862 661.320419 " transform="matrix(1,0,0,-1,-2.0003,838.9337)"/>
<g style="fill:rgb(0%,0%,0%);fill-opacity:1;">
  <use xlink:href="#glyph0-1" x="79.4322" y="180.8797"/>
  <use xlink:href="#glyph0-2" x="84.4135" y="180.8797"/>
</g>
<path style="fill:none;stroke-width:1.2;stroke-linecap:butt;stroke-linejoin:round;stroke:rgb(0%,0%,0%);stroke-opacity:1;stroke-miterlimit:10;" d="M 133.726863 741.320419 C 133.726863 747.566513 128.660456 752.632919 122.414362 752.632919 C 116.164362 752.632919 111.101862 747.566513 111.101862 741.320419 C 111.101862 735.070419 116.164362 730.007919 122.414362 730.007919 C 128.660456 730.007919 133.726863 735.070419 133.726863 741.320419 Z M 133.726863 741.320419 " transform="matrix(1,0,0,-1,-2.0003,838.9337)"/>
<g style="fill:rgb(0%,0%,0%);fill-opacity:1;">
  <use xlink:href="#glyph0-1" x="115.4322" y="100.8797"/>
  <use xlink:href="#glyph0-3" x="120.4135" y="100.8797"/>
</g>
<path style="fill:none;stroke-width:1.2;stroke-linecap:butt;stroke-linejoin:round;stroke:rgb(0%,0%,0%);stroke-opacity:1;stroke-miterlimit:10;" d="M 121.726862 701.320419 C 121.726862 707.566513 116.660456 712.632919 110.414362 712.632919 C 104.164362 712.632919 99.101862 707.566513 99.101862 701.320419 C 99.101862 695.070419 104.164362 690.007919 110.414362 690.007919 C 116.660456 690.007919 121.726862 695.070419 121.726862 701.320419 Z M 121.726862 701.320419 " transform="matrix(1,0,0,-1,-2.0003,838.9337)"/>
<g style="fill:rgb(0%,0%,0%);fill-opacity:1;">
  <use xlink:href="#glyph0-1" x="103.4322" y="140.8797"/>
  <use xlink:href="#glyph0-4" x="108.4135" y="140.8797"/>
</g>
<path style="fill:none;stroke-width:1.2;stroke-linecap:butt;stroke-linejoin:round;stroke:rgb(0%,0%,0%);stroke-opacity:1;stroke-miterlimit:10;" d="M 121.726862 661.320419 C 121.726862 667.566513 116.660456 672.632919 110.414362 672.632919 C 104.164362 672.632919 99.101862 667.566513 99.101862 661.320419 C 99.101862 655.070419 104.164362 650.007919 110.414362 650.007919 C 116.660456 650.007919 121.726862 655.070419 121.726862 661.320419 Z M 121.726862 661.320419 " transform="matrix(1,0,0,-1,-2.0003,838.9337)"/>
<g style="fill:rgb(0%,0%,0%);fill-opacity:1;">
  <use xlink:href="#glyph0-1" x="103.4322" y="180.8797"/>
  <use xlink:href="#glyph0-10" x="108.4135" y="180.8797"/>
</g>
<path style="fill:none;stroke-width:1.2;stroke-linecap:butt;stroke-linejoin:round;stroke:rgb(0%,0%,0%);stroke-opacity:1;stroke-miterlimit:10;" d="M 145.726863 701.320419 C 145.726863 707.566513 140.660456 712.632919 134.414363 712.632919 C 128.164363 712.632919 123.101862 707.566513 123.101862 701.320419 C 123.101862 695.070419 128.164363 690.007919 134.414363 690.007919 C 140.660456 690.007919 145.726863 695.070419 145.726863 701.320419 Z M 145.726863 701.320419 " transform="matrix(1,0,0,-1,-2.0003,838.9337)"/>
<g style="fill:rgb(0%,0%,0%);fill-opacity:1;">
  <use xlink:href="#glyph0-1" x="127.4322" y="140.8797"/>
  <use xlink:href="#glyph0-5" x="132.4135" y="140.8797"/>
</g>
<path style="fill:none;stroke-width:1.2;stroke-linecap:butt;stroke-linejoin:round;stroke:rgb(0%,0%,0%);stroke-opacity:1;stroke-miterlimit:10;" d="M 145.726863 661.320419 C 145.726863 667.566513 140.660456 672.632919 134.414363 672.632919 C 128.164363 672.632919 123.101862 667.566513 123.101862 661.320419 C 123.101862 655.070419 128.164363 650.007919 134.414363 650.007919 C 140.660456 650.007919 145.726863 655.070419 145.726863 661.320419 Z M 145.726863 661.320419 " transform="matrix(1,0,0,-1,-2.0003,838.9337)"/>
<g style="fill:rgb(0%,0%,0%);fill-opacity:1;">
  <use xlink:href="#glyph0-1" x="127.4322" y="180.8797"/>
  <use xlink:href="#glyph0-6" x="132.4135" y="180.8797"/>
</g>
<path style="fill:none;stroke-width:1.2;stroke-linecap:butt;stroke-linejoin:round;stroke:rgb(0%,0%,0%);stroke-opacity:1;stroke-miterlimit:10;" d="M 229.726863 781.320419 C 229.726863 787.566513 224.660456 792.632919 218.414363 792.632919 C 212.164363 792.632919 207.101863 787.566513 207.101863 781.320419 C 207.101863 775.070419 212.164363 770.007919 218.414363 770.007919 C 224.660456 770.007919 229.726863 775.070419 229.726863 781.320419 Z M 229.726863 781.320419 " transform="matrix(1,0,0,-1,-2.0003,838.9337)"/>
<g style="fill:rgb(0%,0%,0%);fill-opacity:1;">
  <use xlink:href="#glyph0-1" x="211.4327" y="60.8237"/>
  <use xlink:href="#glyph0-7" x="216.414" y="60.8237"/>
</g>
<path style="fill:none;stroke-width:1.2;stroke-linecap:butt;stroke-linejoin:round;stroke:rgb(0%,0%,0%);stroke-opacity:1;stroke-miterlimit:10;" d="M 181.726863 741.320419 C 181.726863 747.566513 176.660456 752.632919 170.414363 752.632919 C 164.164363 752.632919 159.101863 747.566513 159.101863 741.320419 C 159.101863 735.070419 164.164363 730.007919 170.414363 730.007919 C 176.660456 730.007919 181.726863 735.070419 181.726863 741.320419 Z M 181.726863 741.320419 " transform="matrix(1,0,0,-1,-2.0003,838.9337)"/>
<g style="fill:rgb(0%,0%,0%);fill-opacity:1;">
  <use xlink:href="#glyph0-1" x="163.4327" y="100.8797"/>
  <use xlink:href="#glyph0-8" x="168.414" y="100.8797"/>
</g>
<path style="fill:none;stroke-width:1.2;stroke-linecap:butt;stroke-linejoin:round;stroke:rgb(0%,0%,0%);stroke-opacity:1;stroke-miterlimit:10;" d="M 169.726863 701.320419 C 169.726863 707.566513 164.660456 712.632919 158.414363 712.632919 C 152.164363 712.632919 147.101863 707.566513 147.101863 701.320419 C 147.101863 695.070419 152.164363 690.007919 158.414363 690.007919 C 164.660456 690.007919 169.726863 695.070419 169.726863 701.320419 Z M 169.726863 701.320419 " transform="matrix(1,0,0,-1,-2.0003,838.9337)"/>
<g style="fill:rgb(0%,0%,0%);fill-opacity:1;">
  <use xlink:href="#glyph0-2" x="151.4327" y="140.8797"/>
  <use xlink:href="#glyph0-9" x="156.414" y="140.8797"/>
</g>
<path style="fill:none;stroke-width:1.2;stroke-linecap:butt;stroke-linejoin:round;stroke:rgb(0%,0%,0%);stroke-opacity:1;stroke-miterlimit:10;" d="M 169.726863 661.320419 C 169.726863 667.566513 164.660456 672.632919 158.414363 672.632919 C 152.164363 672.632919 147.101863 667.566513 147.101863 661.320419 C 147.101863 655.070419 152.164363 650.007919 158.414363 650.007919 C 164.660456 650.007919 169.726863 655.070419 169.726863 661.320419 Z M 169.726863 661.320419 " transform="matrix(1,0,0,-1,-2.0003,838.9337)"/>
<g style="fill:rgb(0%,0%,0%);fill-opacity:1;">
  <use xlink:href="#glyph0-2" x="151.4327" y="180.8797"/>
  <use xlink:href="#glyph0-1" x="156.414" y="180.8797"/>
</g>
<path style="fill:none;stroke-width:1.2;stroke-linecap:butt;stroke-linejoin:round;stroke:rgb(0%,0%,0%);stroke-opacity:1;stroke-miterlimit:10;" d="M 193.726863 701.320419 C 193.726863 707.566513 188.660456 712.632919 182.414363 712.632919 C 176.164363 712.632919 171.101863 707.566513 171.101863 701.320419 C 171.101863 695.070419 176.164363 690.007919 182.414363 690.007919 C 188.660456 690.007919 193.726863 695.070419 193.726863 701.320419 Z M 193.726863 701.320419 " transform="matrix(1,0,0,-1,-2.0003,838.9337)"/>
<g style="fill:rgb(0%,0%,0%);fill-opacity:1;">
  <use xlink:href="#glyph0-2" x="175.4327" y="140.8797"/>
  <use xlink:href="#glyph0-2" x="180.414" y="140.8797"/>
</g>
<path style="fill:none;stroke-width:1.2;stroke-linecap:butt;stroke-linejoin:round;stroke:rgb(0%,0%,0%);stroke-opacity:1;stroke-miterlimit:10;" d="M 193.726863 661.320419 C 193.726863 667.566513 188.660456 672.632919 182.414363 672.632919 C 176.164363 672.632919 171.101863 667.566513 171.101863 661.320419 C 171.101863 655.070419 176.164363 650.007919 182.414363 650.007919 C 188.660456 650.007919 193.726863 655.070419 193.726863 661.320419 Z M 193.726863 661.320419 " transform="matrix(1,0,0,-1,-2.0003,838.9337)"/>
<g style="fill:rgb(0%,0%,0%);fill-opacity:1;">
  <use xlink:href="#glyph0-2" x="175.4327" y="180.8797"/>
  <use xlink:href="#glyph0-3" x="180.414" y="180.8797"/>
</g>
<path style="fill:none;stroke-width:1.2;stroke-linecap:butt;stroke-linejoin:round;stroke:rgb(0%,0%,0%);stroke-opacity:1;stroke-miterlimit:10;" d="M 229.726863 741.320419 C 229.726863 747.566513 224.660456 752.632919 218.414363 752.632919 C 212.164363 752.632919 207.101863 747.566513 207.101863 741.320419 C 207.101863 735.070419 212.164363 730.007919 218.414363 730.007919 C 224.660456 730.007919 229.726863 735.070419 229.726863 741.320419 Z M 229.726863 741.320419 " transform="matrix(1,0,0,-1,-2.0003,838.9337)"/>
<g style="fill:rgb(0%,0%,0%);fill-opacity:1;">
  <use xlink:href="#glyph0-2" x="211.4327" y="100.8797"/>
  <use xlink:href="#glyph0-4" x="216.414" y="100.8797"/>
</g>
<path style="fill:none;stroke-width:1.2;stroke-linecap:butt;stroke-linejoin:round;stroke:rgb(0%,0%,0%);stroke-opacity:1;stroke-miterlimit:10;" d="M 217.726863 701.320419 C 217.726863 707.566513 212.660456 712.632919 206.414363 712.632919 C 200.164363 712.632919 195.101863 707.566513 195.101863 701.320419 C 195.101863 695.070419 200.164363 690.007919 206.414363 690.007919 C 212.660456 690.007919 217.726863 695.070419 217.726863 701.320419 Z M 217.726863 701.320419 " transform="matrix(1,0,0,-1,-2.0003,838.9337)"/>
<g style="fill:rgb(0%,0%,0%);fill-opacity:1;">
  <use xlink:href="#glyph0-2" x="199.4327" y="140.8797"/>
  <use xlink:href="#glyph0-10" x="204.414" y="140.8797"/>
</g>
<path style="fill:none;stroke-width:1.2;stroke-linecap:butt;stroke-linejoin:round;stroke:rgb(0%,0%,0%);stroke-opacity:1;stroke-miterlimit:10;" d="M 217.726863 661.320419 C 217.726863 667.566513 212.660456 672.632919 206.414363 672.632919 C 200.164363 672.632919 195.101863 667.566513 195.101863 661.320419 C 195.101863 655.070419 200.164363 650.007919 206.414363 650.007919 C 212.660456 650.007919 217.726863 655.070419 217.726863 661.320419 Z M 217.726863 661.320419 " transform="matrix(1,0,0,-1,-2.0003,838.9337)"/>
<g style="fill:rgb(0%,0%,0%);fill-opacity:1;">
  <use xlink:href="#glyph0-2" x="199.4327" y="180.8797"/>
  <use xlink:href="#glyph0-5" x="204.414" y="180.8797"/>
</g>
<path style="fill:none;stroke-width:1.2;stroke-linecap:butt;stroke-linejoin:round;stroke:rgb(0%,0%,0%);stroke-opacity:1;stroke-miterlimit:10;" d="M 241.726863 701.320419 C 241.726863 707.566513 236.660456 712.632919 230.414363 712.632919 C 224.164363 712.632919 219.101863 707.566513 219.101863 701.320419 C 219.101863 695.070419 224.164363 690.007919 230.414363 690.007919 C 236.660456 690.007919 241.726863 695.070419 241.726863 701.320419 Z M 241.726863 701.320419 " transform="matrix(1,0,0,-1,-2.0003,838.9337)"/>
<g style="fill:rgb(0%,0%,0%);fill-opacity:1;">
  <use xlink:href="#glyph0-2" x="223.4327" y="140.8797"/>
  <use xlink:href="#glyph0-6" x="228.414" y="140.8797"/>
</g>
<path style="fill:none;stroke-width:1.2;stroke-linecap:butt;stroke-linejoin:round;stroke:rgb(0%,0%,0%);stroke-opacity:1;stroke-miterlimit:10;" d="M 241.726863 661.320419 C 241.726863 667.566513 236.660456 672.632919 230.414363 672.632919 C 224.164363 672.632919 219.101863 667.566513 219.101863 661.320419 C 219.101863 655.070419 224.164363 650.007919 230.414363 650.007919 C 236.660456 650.007919 241.726863 655.070419 241.726863 661.320419 Z M 241.726863 661.320419 " transform="matrix(1,0,0,-1,-2.0003,838.9337)"/>
<g style="fill:rgb(0%,0%,0%);fill-opacity:1;">
  <use xlink:href="#glyph0-2" x="223.4327" y="180.8797"/>
  <use xlink:href="#glyph0-7" x="228.414" y="180.8797"/>
</g>
<path style="fill:none;stroke-width:1.2;stroke-linecap:butt;stroke-linejoin:round;stroke:rgb(0%,0%,0%);stroke-opacity:1;stroke-miterlimit:10;" d="M 277.726862 741.320419 C 277.726862 747.566513 272.660456 752.632919 266.414362 752.632919 C 260.164362 752.632919 255.101863 747.566513 255.101863 741.320419 C 255.101863 735.070419 260.164362 730.007919 266.414362 730.007919 C 272.660456 730.007919 277.726862 735.070419 277.726862 741.320419 Z M 277.726862 741.320419 " transform="matrix(1,0,0,-1,-2.0003,838.9337)"/>
<g style="fill:rgb(0%,0%,0%);fill-opacity:1;">
  <use xlink:href="#glyph0-2" x="259.4327" y="100.8797"/>
  <use xlink:href="#glyph0-8" x="264.414" y="100.8797"/>
</g>
<path style="fill:none;stroke-width:1.2;stroke-linecap:butt;stroke-linejoin:round;stroke:rgb(0%,0%,0%);stroke-opacity:1;stroke-miterlimit:10;" d="M 265.726862 701.320419 C 265.726862 707.566513 260.660456 712.632919 254.414363 712.632919 C 248.164363 712.632919 243.101863 707.566513 243.101863 701.320419 C 243.101863 695.070419 248.164363 690.007919 254.414363 690.007919 C 260.660456 690.007919 265.726862 695.070419 265.726862 701.320419 Z M 265.726862 701.320419 " transform="matrix(1,0,0,-1,-2.0003,838.9337)"/>
<g style="fill:rgb(0%,0%,0%);fill-opacity:1;">
  <use xlink:href="#glyph0-3" x="247.4327" y="140.8797"/>
  <use xlink:href="#glyph0-9" x="252.414" y="140.8797"/>
</g>
<path style="fill:none;stroke-width:1.2;stroke-linecap:butt;stroke-linejoin:round;stroke:rgb(0%,0%,0%);stroke-opacity:1;stroke-miterlimit:10;" d="M 265.726862 661.320419 C 265.726862 667.566513 260.660456 672.632919 254.414363 672.632919 C 248.164363 672.632919 243.101863 667.566513 243.101863 661.320419 C 243.101863 655.070419 248.164363 650.007919 254.414363 650.007919 C 260.660456 650.007919 265.726862 655.070419 265.726862 661.320419 Z M 265.726862 661.320419 " transform="matrix(1,0,0,-1,-2.0003,838.9337)"/>
<g style="fill:rgb(0%,0%,0%);fill-opacity:1;">
  <use xlink:href="#glyph0-3" x="247.4327" y="180.8797"/>
  <use xlink:href="#glyph0-1" x="252.414" y="180.8797"/>
</g>
<path style="fill:none;stroke-width:1.2;stroke-linecap:butt;stroke-linejoin:round;stroke:rgb(0%,0%,0%);stroke-opacity:1;stroke-miterlimit:10;" d="M 289.726862 701.320419 C 289.726862 707.566513 284.660456 712.632919 278.414362 712.632919 C 272.164362 712.632919 267.101862 707.566513 267.101862 701.320419 C 267.101862 695.070419 272.164362 690.007919 278.414362 690.007919 C 284.660456 690.007919 289.726862 695.070419 289.726862 701.320419 Z M 289.726862 701.320419 " transform="matrix(1,0,0,-1,-2.0003,838.9337)"/>
<g style="fill:rgb(0%,0%,0%);fill-opacity:1;">
  <use xlink:href="#glyph0-3" x="271.4327" y="140.8797"/>
  <use xlink:href="#glyph0-2" x="276.414" y="140.8797"/>
</g>
<path style="fill:none;stroke-width:1.2;stroke-linecap:butt;stroke-linejoin:round;stroke:rgb(0%,0%,0%);stroke-opacity:1;stroke-miterlimit:10;" d="M 289.726862 661.320419 C 289.726862 667.566513 284.660456 672.632919 278.414362 672.632919 C 272.164362 672.632919 267.101862 667.566513 267.101862 661.320419 C 267.101862 655.070419 272.164362 650.007919 278.414362 650.007919 C 284.660456 650.007919 289.726862 655.070419 289.726862 661.320419 Z M 289.726862 661.320419 " transform="matrix(1,0,0,-1,-2.0003,838.9337)"/>
<g style="fill:rgb(0%,0%,0%);fill-opacity:1;">
  <use xlink:href="#glyph0-3" x="271.4327" y="180.8797"/>
  <use xlink:href="#glyph0-3" x="276.414" y="180.8797"/>
</g>
<path style="fill:none;stroke-width:1.2;stroke-linecap:butt;stroke-linejoin:round;stroke:rgb(0%,0%,0%);stroke-opacity:1;stroke-miterlimit:10;" d="M 373.726862 781.320419 C 373.726862 787.566513 368.660456 792.632919 362.414362 792.632919 C 356.164362 792.632919 351.101862 787.566513 351.101862 781.320419 C 351.101862 775.070419 356.164362 770.007919 362.414362 770.007919 C 368.660456 770.007919 373.726862 775.070419 373.726862 781.320419 Z M 373.726862 781.320419 " transform="matrix(1,0,0,-1,-2.0003,838.9337)"/>
<g style="fill:rgb(0%,0%,0%);fill-opacity:1;">
  <use xlink:href="#glyph0-3" x="355.4327" y="60.8797"/>
  <use xlink:href="#glyph0-4" x="360.414" y="60.8797"/>
</g>
<path style="fill:none;stroke-width:1.2;stroke-linecap:butt;stroke-linejoin:round;stroke:rgb(0%,0%,0%);stroke-opacity:1;stroke-miterlimit:10;" d="M 325.726862 741.320419 C 325.726862 747.566513 320.660456 752.632919 314.414362 752.632919 C 308.164362 752.632919 303.101862 747.566513 303.101862 741.320419 C 303.101862 735.070419 308.164362 730.007919 314.414362 730.007919 C 320.660456 730.007919 325.726862 735.070419 325.726862 741.320419 Z M 325.726862 741.320419 " transform="matrix(1,0,0,-1,-2.0003,838.9337)"/>
<g style="fill:rgb(0%,0%,0%);fill-opacity:1;">
  <use xlink:href="#glyph0-3" x="307.4327" y="100.8797"/>
  <use xlink:href="#glyph0-10" x="312.414" y="100.8797"/>
</g>
<path style="fill:none;stroke-width:1.2;stroke-linecap:butt;stroke-linejoin:round;stroke:rgb(0%,0%,0%);stroke-opacity:1;stroke-miterlimit:10;" d="M 313.726862 701.320419 C 313.726862 707.566513 308.660456 712.632919 302.414362 712.632919 C 296.164362 712.632919 291.101862 707.566513 291.101862 701.320419 C 291.101862 695.070419 296.164362 690.007919 302.414362 690.007919 C 308.660456 690.007919 313.726862 695.070419 313.726862 701.320419 Z M 313.726862 701.320419 " transform="matrix(1,0,0,-1,-2.0003,838.9337)"/>
<g style="fill:rgb(0%,0%,0%);fill-opacity:1;">
  <use xlink:href="#glyph0-3" x="295.4327" y="140.8797"/>
  <use xlink:href="#glyph0-5" x="300.414" y="140.8797"/>
</g>
<path style="fill:none;stroke-width:1.2;stroke-linecap:butt;stroke-linejoin:round;stroke:rgb(0%,0%,0%);stroke-opacity:1;stroke-miterlimit:10;" d="M 313.726862 661.320419 C 313.726862 667.566513 308.660456 672.632919 302.414362 672.632919 C 296.164362 672.632919 291.101862 667.566513 291.101862 661.320419 C 291.101862 655.070419 296.164362 650.007919 302.414362 650.007919 C 308.660456 650.007919 313.726862 655.070419 313.726862 661.320419 Z M 313.726862 661.320419 " transform="matrix(1,0,0,-1,-2.0003,838.9337)"/>
<g style="fill:rgb(0%,0%,0%);fill-opacity:1;">
  <use xlink:href="#glyph0-3" x="295.4327" y="180.8797"/>
  <use xlink:href="#glyph0-6" x="300.414" y="180.8797"/>
</g>
<path style="fill:none;stroke-width:1.2;stroke-linecap:butt;stroke-linejoin:round;stroke:rgb(0%,0%,0%);stroke-opacity:1;stroke-miterlimit:10;" d="M 337.726862 701.320419 C 337.726862 707.566513 332.660456 712.632919 326.414362 712.632919 C 320.164362 712.632919 315.101862 707.566513 315.101862 701.320419 C 315.101862 695.070419 320.164362 690.007919 326.414362 690.007919 C 332.660456 690.007919 337.726862 695.070419 337.726862 701.320419 Z M 337.726862 701.320419 " transform="matrix(1,0,0,-1,-2.0003,838.9337)"/>
<g style="fill:rgb(0%,0%,0%);fill-opacity:1;">
  <use xlink:href="#glyph0-3" x="319.4327" y="140.8797"/>
  <use xlink:href="#glyph0-7" x="324.414" y="140.8797"/>
</g>
<path style="fill:none;stroke-width:1.2;stroke-linecap:butt;stroke-linejoin:round;stroke:rgb(0%,0%,0%);stroke-opacity:1;stroke-miterlimit:10;" d="M 337.726862 661.320419 C 337.726862 667.566513 332.660456 672.632919 326.414362 672.632919 C 320.164362 672.632919 315.101862 667.566513 315.101862 661.320419 C 315.101862 655.070419 320.164362 650.007919 326.414362 650.007919 C 332.660456 650.007919 337.726862 655.070419 337.726862 661.320419 Z M 337.726862 661.320419 " transform="matrix(1,0,0,-1,-2.0003,838.9337)"/>
<g style="fill:rgb(0%,0%,0%);fill-opacity:1;">
  <use xlink:href="#glyph0-3" x="319.4327" y="180.8797"/>
  <use xlink:href="#glyph0-8" x="324.414" y="180.8797"/>
</g>
<path style="fill:none;stroke-width:1.2;stroke-linecap:butt;stroke-linejoin:round;stroke:rgb(0%,0%,0%);stroke-opacity:1;stroke-miterlimit:10;" d="M 373.726862 741.320419 C 373.726862 747.566513 368.660456 752.632919 362.414362 752.632919 C 356.164362 752.632919 351.101862 747.566513 351.101862 741.320419 C 351.101862 735.070419 356.164362 730.007919 362.414362 730.007919 C 368.660456 730.007919 373.726862 735.070419 373.726862 741.320419 Z M 373.726862 741.320419 " transform="matrix(1,0,0,-1,-2.0003,838.9337)"/>
<g style="fill:rgb(0%,0%,0%);fill-opacity:1;">
  <use xlink:href="#glyph0-4" x="355.4327" y="100.8797"/>
  <use xlink:href="#glyph0-9" x="360.414" y="100.8797"/>
</g>
<path style="fill:none;stroke-width:1.2;stroke-linecap:butt;stroke-linejoin:round;stroke:rgb(0%,0%,0%);stroke-opacity:1;stroke-miterlimit:10;" d="M 361.726862 701.320419 C 361.726862 707.566513 356.660456 712.632919 350.414362 712.632919 C 344.164362 712.632919 339.101862 707.566513 339.101862 701.320419 C 339.101862 695.070419 344.164362 690.007919 350.414362 690.007919 C 356.660456 690.007919 361.726862 695.070419 361.726862 701.320419 Z M 361.726862 701.320419 " transform="matrix(1,0,0,-1,-2.0003,838.9337)"/>
<g style="fill:rgb(0%,0%,0%);fill-opacity:1;">
  <use xlink:href="#glyph0-4" x="343.4327" y="140.8797"/>
  <use xlink:href="#glyph0-1" x="348.414" y="140.8797"/>
</g>
<path style="fill:none;stroke-width:1.2;stroke-linecap:butt;stroke-linejoin:round;stroke:rgb(0%,0%,0%);stroke-opacity:1;stroke-miterlimit:10;" d="M 361.726862 661.320419 C 361.726862 667.566513 356.660456 672.632919 350.414362 672.632919 C 344.164362 672.632919 339.101862 667.566513 339.101862 661.320419 C 339.101862 655.070419 344.164362 650.007919 350.414362 650.007919 C 356.660456 650.007919 361.726862 655.070419 361.726862 661.320419 Z M 361.726862 661.320419 " transform="matrix(1,0,0,-1,-2.0003,838.9337)"/>
<g style="fill:rgb(0%,0%,0%);fill-opacity:1;">
  <use xlink:href="#glyph0-4" x="343.4327" y="180.8797"/>
  <use xlink:href="#glyph0-2" x="348.414" y="180.8797"/>
</g>
<path style="fill:none;stroke-width:1.2;stroke-linecap:butt;stroke-linejoin:round;stroke:rgb(0%,0%,0%);stroke-opacity:1;stroke-miterlimit:10;" d="M 385.726862 701.320419 C 385.726862 707.566513 380.660456 712.632919 374.414362 712.632919 C 368.164362 712.632919 363.101862 707.566513 363.101862 701.320419 C 363.101862 695.070419 368.164362 690.007919 374.414362 690.007919 C 380.660456 690.007919 385.726862 695.070419 385.726862 701.320419 Z M 385.726862 701.320419 " transform="matrix(1,0,0,-1,-2.0003,838.9337)"/>
<g style="fill:rgb(0%,0%,0%);fill-opacity:1;">
  <use xlink:href="#glyph0-4" x="367.4327" y="140.8797"/>
  <use xlink:href="#glyph0-3" x="372.414" y="140.8797"/>
</g>
<path style="fill:none;stroke-width:1.2;stroke-linecap:butt;stroke-linejoin:round;stroke:rgb(0%,0%,0%);stroke-opacity:1;stroke-miterlimit:10;" d="M 385.726862 661.320419 C 385.726862 667.566513 380.660456 672.632919 374.414362 672.632919 C 368.164362 672.632919 363.101862 667.566513 363.101862 661.320419 C 363.101862 655.070419 368.164362 650.007919 374.414362 650.007919 C 380.660456 650.007919 385.726862 655.070419 385.726862 661.320419 Z M 385.726862 661.320419 " transform="matrix(1,0,0,-1,-2.0003,838.9337)"/>
<g style="fill:rgb(0%,0%,0%);fill-opacity:1;">
  <use xlink:href="#glyph0-4" x="367.4327" y="180.8797"/>
  <use xlink:href="#glyph0-4" x="372.414" y="180.8797"/>
</g>
<path style="fill:none;stroke-width:1.2;stroke-linecap:butt;stroke-linejoin:round;stroke:rgb(0%,0%,0%);stroke-opacity:1;stroke-miterlimit:10;" d="M 421.726862 741.320419 C 421.726862 747.566513 416.660456 752.632919 410.414362 752.632919 C 404.164362 752.632919 399.101862 747.566513 399.101862 741.320419 C 399.101862 735.070419 404.164362 730.007919 410.414362 730.007919 C 416.660456 730.007919 421.726862 735.070419 421.726862 741.320419 Z M 421.726862 741.320419 " transform="matrix(1,0,0,-1,-2.0003,838.9337)"/>
<g style="fill:rgb(0%,0%,0%);fill-opacity:1;">
  <use xlink:href="#glyph0-4" x="403.4327" y="100.8797"/>
  <use xlink:href="#glyph0-10" x="408.414" y="100.8797"/>
</g>
<path style="fill:none;stroke-width:1.2;stroke-linecap:butt;stroke-linejoin:round;stroke:rgb(0%,0%,0%);stroke-opacity:1;stroke-miterlimit:10;" d="M 409.726862 701.320419 C 409.726862 707.566513 404.660456 712.632919 398.414362 712.632919 C 392.164362 712.632919 387.101862 707.566513 387.101862 701.320419 C 387.101862 695.070419 392.164362 690.007919 398.414362 690.007919 C 404.660456 690.007919 409.726862 695.070419 409.726862 701.320419 Z M 409.726862 701.320419 " transform="matrix(1,0,0,-1,-2.0003,838.9337)"/>
<g style="fill:rgb(0%,0%,0%);fill-opacity:1;">
  <use xlink:href="#glyph0-4" x="391.4327" y="140.8797"/>
  <use xlink:href="#glyph0-5" x="396.414" y="140.8797"/>
</g>
<path style="fill:none;stroke-width:1.2;stroke-linecap:butt;stroke-linejoin:round;stroke:rgb(0%,0%,0%);stroke-opacity:1;stroke-miterlimit:10;" d="M 409.726862 661.320419 C 409.726862 667.566513 404.660456 672.632919 398.414362 672.632919 C 392.164362 672.632919 387.101862 667.566513 387.101862 661.320419 C 387.101862 655.070419 392.164362 650.007919 398.414362 650.007919 C 404.660456 650.007919 409.726862 655.070419 409.726862 661.320419 Z M 409.726862 661.320419 " transform="matrix(1,0,0,-1,-2.0003,838.9337)"/>
<g style="fill:rgb(0%,0%,0%);fill-opacity:1;">
  <use xlink:href="#glyph0-4" x="391.4327" y="180.8797"/>
  <use xlink:href="#glyph0-6" x="396.414" y="180.8797"/>
</g>
<path style="fill:none;stroke-width:1.2;stroke-linecap:butt;stroke-linejoin:round;stroke:rgb(0%,0%,0%);stroke-opacity:1;stroke-miterlimit:10;" d="M 433.726862 701.320419 C 433.726862 707.566513 428.660456 712.632919 422.414362 712.632919 C 416.164362 712.632919 411.101862 707.566513 411.101862 701.320419 C 411.101862 695.070419 416.164362 690.007919 422.414362 690.007919 C 428.660456 690.007919 433.726862 695.070419 433.726862 701.320419 Z M 433.726862 701.320419 " transform="matrix(1,0,0,-1,-2.0003,838.9337)"/>
<g style="fill:rgb(0%,0%,0%);fill-opacity:1;">
  <use xlink:href="#glyph0-4" x="415.4327" y="140.8797"/>
  <use xlink:href="#glyph0-7" x="420.414" y="140.8797"/>
</g>
<path style="fill:none;stroke-width:1.2;stroke-linecap:butt;stroke-linejoin:round;stroke:rgb(0%,0%,0%);stroke-opacity:1;stroke-miterlimit:10;" d="M 433.726862 661.320419 C 433.726862 667.566513 428.660456 672.632919 422.414362 672.632919 C 416.164362 672.632919 411.101862 667.566513 411.101862 661.320419 C 411.101862 655.070419 416.164362 650.007919 422.414362 650.007919 C 428.660456 650.007919 433.726862 655.070419 433.726862 661.320419 Z M 433.726862 661.320419 " transform="matrix(1,0,0,-1,-2.0003,838.9337)"/>
<g style="fill:rgb(0%,0%,0%);fill-opacity:1;">
  <use xlink:href="#glyph0-4" x="415.4327" y="180.8797"/>
  <use xlink:href="#glyph0-8" x="420.414" y="180.8797"/>
</g>
<path style="fill:none;stroke-width:1.2;stroke-linecap:butt;stroke-linejoin:round;stroke:rgb(0%,0%,0%);stroke-opacity:1;stroke-miterlimit:10;" d="M 469.726862 741.320419 C 469.726862 747.566513 464.660456 752.632919 458.414362 752.632919 C 452.164362 752.632919 447.101862 747.566513 447.101862 741.320419 C 447.101862 735.070419 452.164362 730.007919 458.414362 730.007919 C 464.660456 730.007919 469.726862 735.070419 469.726862 741.320419 Z M 469.726862 741.320419 " transform="matrix(1,0,0,-1,-2.0003,838.9337)"/>
<g style="fill:rgb(0%,0%,0%);fill-opacity:1;">
  <use xlink:href="#glyph0-10" x="451.4327" y="100.8797"/>
  <use xlink:href="#glyph0-1" x="456.414" y="100.8797"/>
</g>
<path style="fill:none;stroke-width:1.2;stroke-linecap:butt;stroke-linejoin:round;stroke:rgb(0%,0%,0%);stroke-opacity:1;stroke-miterlimit:10;" d="M 457.726862 701.320419 C 457.726862 707.566513 452.660456 712.632919 446.414362 712.632919 C 440.164362 712.632919 435.101862 707.566513 435.101862 701.320419 C 435.101862 695.070419 440.164362 690.007919 446.414362 690.007919 C 452.660456 690.007919 457.726862 695.070419 457.726862 701.320419 Z M 457.726862 701.320419 " transform="matrix(1,0,0,-1,-2.0003,838.9337)"/>
<g style="fill:rgb(0%,0%,0%);fill-opacity:1;">
  <use xlink:href="#glyph0-10" x="439.4327" y="140.8797"/>
  <use xlink:href="#glyph0-2" x="444.414" y="140.8797"/>
</g>
<path style="fill:none;stroke-width:1.2;stroke-linecap:butt;stroke-linejoin:round;stroke:rgb(0%,0%,0%);stroke-opacity:1;stroke-miterlimit:10;" d="M 457.726862 661.320419 C 457.726862 667.566513 452.660456 672.632919 446.414362 672.632919 C 440.164362 672.632919 435.101862 667.566513 435.101862 661.320419 C 435.101862 655.070419 440.164362 650.007919 446.414362 650.007919 C 452.660456 650.007919 457.726862 655.070419 457.726862 661.320419 Z M 457.726862 661.320419 " transform="matrix(1,0,0,-1,-2.0003,838.9337)"/>
<g style="fill:rgb(0%,0%,0%);fill-opacity:1;">
  <use xlink:href="#glyph0-10" x="439.4327" y="180.8797"/>
  <use xlink:href="#glyph0-3" x="444.414" y="180.8797"/>
</g>
<path style="fill:none;stroke-width:1.2;stroke-linecap:butt;stroke-linejoin:round;stroke:rgb(0%,0%,0%);stroke-opacity:1;stroke-miterlimit:10;" d="M 481.726862 701.320419 C 481.726862 707.566513 476.660456 712.632919 470.414362 712.632919 C 464.164362 712.632919 459.101862 707.566513 459.101862 701.320419 C 459.101862 695.070419 464.164362 690.007919 470.414362 690.007919 C 476.660456 690.007919 481.726862 695.070419 481.726862 701.320419 Z M 481.726862 701.320419 " transform="matrix(1,0,0,-1,-2.0003,838.9337)"/>
<g style="fill:rgb(0%,0%,0%);fill-opacity:1;">
  <use xlink:href="#glyph0-10" x="463.4327" y="140.8797"/>
  <use xlink:href="#glyph0-4" x="468.414" y="140.8797"/>
</g>
<path style="fill:none;stroke-width:1.2;stroke-linecap:butt;stroke-linejoin:round;stroke:rgb(0%,0%,0%);stroke-opacity:1;stroke-miterlimit:10;" d="M 481.726862 661.320419 C 481.726862 667.566513 476.660456 672.632919 470.414362 672.632919 C 464.164362 672.632919 459.101862 667.566513 459.101862 661.320419 C 459.101862 655.070419 464.164362 650.007919 470.414362 650.007919 C 476.660456 650.007919 481.726862 655.070419 481.726862 661.320419 Z M 481.726862 661.320419 " transform="matrix(1,0,0,-1,-2.0003,838.9337)"/>
<g style="fill:rgb(0%,0%,0%);fill-opacity:1;">
  <use xlink:href="#glyph0-10" x="463.4327" y="180.8797"/>
  <use xlink:href="#glyph0-10" x="468.414" y="180.8797"/>
</g>
<path style="fill:none;stroke-width:1.2;stroke-linecap:butt;stroke-linejoin:round;stroke:rgb(0%,0%,0%);stroke-opacity:1;stroke-miterlimit:10;" d="M 517.726863 741.320419 C 517.726863 747.566513 512.660456 752.632919 506.414362 752.632919 C 500.164362 752.632919 495.101862 747.566513 495.101862 741.320419 C 495.101862 735.070419 500.164362 730.007919 506.414362 730.007919 C 512.660456 730.007919 517.726863 735.070419 517.726863 741.320419 Z M 517.726863 741.320419 " transform="matrix(1,0,0,-1,-2.0003,838.9337)"/>
<g style="fill:rgb(0%,0%,0%);fill-opacity:1;">
  <use xlink:href="#glyph0-10" x="499.4327" y="100.8797"/>
  <use xlink:href="#glyph0-5" x="504.414" y="100.8797"/>
</g>
<path style="fill:none;stroke-width:1.2;stroke-linecap:butt;stroke-linejoin:round;stroke:rgb(0%,0%,0%);stroke-opacity:1;stroke-miterlimit:10;" d="M 505.726862 701.320419 C 505.726862 707.566513 500.660456 712.632919 494.414362 712.632919 C 488.164362 712.632919 483.101862 707.566513 483.101862 701.320419 C 483.101862 695.070419 488.164362 690.007919 494.414362 690.007919 C 500.660456 690.007919 505.726862 695.070419 505.726862 701.320419 Z M 505.726862 701.320419 " transform="matrix(1,0,0,-1,-2.0003,838.9337)"/>
<g style="fill:rgb(0%,0%,0%);fill-opacity:1;">
  <use xlink:href="#glyph0-10" x="487.4327" y="140.8797"/>
  <use xlink:href="#glyph0-6" x="492.414" y="140.8797"/>
</g>
<path style="fill:none;stroke-width:1.2;stroke-linecap:butt;stroke-linejoin:round;stroke:rgb(0%,0%,0%);stroke-opacity:1;stroke-miterlimit:10;" d="M 505.726862 661.320419 C 505.726862 667.566513 500.660456 672.632919 494.414362 672.632919 C 488.164362 672.632919 483.101862 667.566513 483.101862 661.320419 C 483.101862 655.070419 488.164362 650.007919 494.414362 650.007919 C 500.660456 650.007919 505.726862 655.070419 505.726862 661.320419 Z M 505.726862 661.320419 " transform="matrix(1,0,0,-1,-2.0003,838.9337)"/>
<g style="fill:rgb(0%,0%,0%);fill-opacity:1;">
  <use xlink:href="#glyph0-10" x="487.4327" y="180.8797"/>
  <use xlink:href="#glyph0-7" x="492.414" y="180.8797"/>
</g>
<path style="fill:none;stroke-width:1.2;stroke-linecap:butt;stroke-linejoin:round;stroke:rgb(0%,0%,0%);stroke-opacity:1;stroke-miterlimit:10;" d="M 529.726863 701.320419 C 529.726863 707.566513 524.660456 712.632919 518.414363 712.632919 C 512.164363 712.632919 507.101862 707.566513 507.101862 701.320419 C 507.101862 695.070419 512.164363 690.007919 518.414363 690.007919 C 524.660456 690.007919 529.726863 695.070419 529.726863 701.320419 Z M 529.726863 701.320419 " transform="matrix(1,0,0,-1,-2.0003,838.9337)"/>
<g style="fill:rgb(0%,0%,0%);fill-opacity:1;">
  <use xlink:href="#glyph0-10" x="511.4327" y="140.8797"/>
  <use xlink:href="#glyph0-8" x="516.414" y="140.8797"/>
</g>
<path style="fill:none;stroke-width:1.2;stroke-linecap:butt;stroke-linejoin:round;stroke:rgb(0%,0%,0%);stroke-opacity:1;stroke-miterlimit:10;" d="M 529.726863 661.320419 C 529.726863 667.566513 524.660456 672.632919 518.414363 672.632919 C 512.164363 672.632919 507.101862 667.566513 507.101862 661.320419 C 507.101862 655.070419 512.164363 650.007919 518.414363 650.007919 C 524.660456 650.007919 529.726863 655.070419 529.726863 661.320419 Z M 529.726863 661.320419 " transform="matrix(1,0,0,-1,-2.0003,838.9337)"/>
<g style="fill:rgb(0%,0%,0%);fill-opacity:1;">
  <use xlink:href="#glyph0-5" x="511.4327" y="180.8797"/>
  <use xlink:href="#glyph0-9" x="516.414" y="180.8797"/>
</g>
<path style="fill:none;stroke-width:1.2;stroke-linecap:butt;stroke-linejoin:round;stroke:rgb(0%,0%,0%);stroke-opacity:1;stroke-miterlimit:10;" d="M 565.726863 741.320419 C 565.726863 747.566513 560.660456 752.632919 554.414363 752.632919 C 548.164363 752.632919 543.101863 747.566513 543.101863 741.320419 C 543.101863 735.070419 548.164363 730.007919 554.414363 730.007919 C 560.660456 730.007919 565.726863 735.070419 565.726863 741.320419 Z M 565.726863 741.320419 " transform="matrix(1,0,0,-1,-2.0003,838.9337)"/>
<g style="fill:rgb(0%,0%,0%);fill-opacity:1;">
  <use xlink:href="#glyph0-5" x="547.4327" y="100.8797"/>
  <use xlink:href="#glyph0-1" x="552.414" y="100.8797"/>
</g>
<path style="fill:none;stroke-width:1.2;stroke-linecap:butt;stroke-linejoin:round;stroke:rgb(0%,0%,0%);stroke-opacity:1;stroke-miterlimit:10;" d="M 517.726863 781.320419 C 517.726863 787.566513 512.660456 792.632919 506.414362 792.632919 C 500.164362 792.632919 495.101862 787.566513 495.101862 781.320419 C 495.101862 775.070419 500.164362 770.007919 506.414362 770.007919 C 512.660456 770.007919 517.726863 775.070419 517.726863 781.320419 Z M 517.726863 781.320419 " transform="matrix(1,0,0,-1,-2.0003,838.9337)"/>
<g style="fill:rgb(0%,0%,0%);fill-opacity:1;">
  <use xlink:href="#glyph0-10" x="499.4327" y="60.8797"/>
  <use xlink:href="#glyph0-9" x="504.414" y="60.8797"/>
</g>
<path style="fill:none;stroke-width:1.2;stroke-linecap:butt;stroke-linejoin:round;stroke:rgb(0%,0%,0%);stroke-opacity:1;stroke-miterlimit:10;" d="M 553.726863 701.320419 C 553.726863 707.566513 548.660456 712.632919 542.414363 712.632919 C 536.164363 712.632919 531.101863 707.566513 531.101863 701.320419 C 531.101863 695.070419 536.164363 690.007919 542.414363 690.007919 C 548.660456 690.007919 553.726863 695.070419 553.726863 701.320419 Z M 553.726863 701.320419 " transform="matrix(1,0,0,-1,-2.0003,838.9337)"/>
<g style="fill:rgb(0%,0%,0%);fill-opacity:1;">
  <use xlink:href="#glyph0-5" x="535.4327" y="140.8797"/>
  <use xlink:href="#glyph0-2" x="540.414" y="140.8797"/>
</g>
<path style="fill:none;stroke-width:1.2;stroke-linecap:butt;stroke-linejoin:round;stroke:rgb(0%,0%,0%);stroke-opacity:1;stroke-miterlimit:10;" d="M 553.726863 661.320419 C 553.726863 667.566513 548.660456 672.632919 542.414363 672.632919 C 536.164363 672.632919 531.101863 667.566513 531.101863 661.320419 C 531.101863 655.070419 536.164363 650.007919 542.414363 650.007919 C 548.660456 650.007919 553.726863 655.070419 553.726863 661.320419 Z M 553.726863 661.320419 " transform="matrix(1,0,0,-1,-2.0003,838.9337)"/>
<g style="fill:rgb(0%,0%,0%);fill-opacity:1;">
  <use xlink:href="#glyph0-5" x="535.4327" y="180.8797"/>
  <use xlink:href="#glyph0-3" x="540.414" y="180.8797"/>
</g>
<path style="fill:none;stroke-width:1.2;stroke-linecap:butt;stroke-linejoin:round;stroke:rgb(0%,0%,0%);stroke-opacity:1;stroke-miterlimit:10;" d="M 577.726863 701.320419 C 577.726863 707.566513 572.660456 712.632919 566.414363 712.632919 C 560.164363 712.632919 555.101863 707.566513 555.101863 701.320419 C 555.101863 695.070419 560.164363 690.007919 566.414363 690.007919 C 572.660456 690.007919 577.726863 695.070419 577.726863 701.320419 Z M 577.726863 701.320419 " transform="matrix(1,0,0,-1,-2.0003,838.9337)"/>
<g style="fill:rgb(0%,0%,0%);fill-opacity:1;">
  <use xlink:href="#glyph0-5" x="559.4327" y="140.8797"/>
  <use xlink:href="#glyph0-4" x="564.414" y="140.8797"/>
</g>
<path style="fill:none;stroke-width:1.2;stroke-linecap:butt;stroke-linejoin:round;stroke:rgb(0%,0%,0%);stroke-opacity:1;stroke-miterlimit:10;" d="M 577.726863 661.320419 C 577.726863 667.566513 572.660456 672.632919 566.414363 672.632919 C 560.164363 672.632919 555.101863 667.566513 555.101863 661.320419 C 555.101863 655.070419 560.164363 650.007919 566.414363 650.007919 C 572.660456 650.007919 577.726863 655.070419 577.726863 661.320419 Z M 577.726863 661.320419 " transform="matrix(1,0,0,-1,-2.0003,838.9337)"/>
<g style="fill:rgb(0%,0%,0%);fill-opacity:1;">
  <use xlink:href="#glyph0-5" x="559.4327" y="180.8797"/>
  <use xlink:href="#glyph0-10" x="564.414" y="180.8797"/>
</g>
<g style="fill:rgb(0%,0%,0%);fill-opacity:1;">
  <use xlink:href="#glyph0-2" x="253.9997" y="42.9337"/>
</g>
<g style="fill:rgb(0%,0%,0%);fill-opacity:1;">
  <use xlink:href="#glyph0-3" x="313.9997" y="42.9337"/>
</g>
<g style="fill:rgb(0%,0%,0%);fill-opacity:1;">
  <use xlink:href="#glyph0-4" x="477.9997" y="38.9337"/>
</g>
<g style="fill:rgb(0%,0%,0%);fill-opacity:1;">
  <use xlink:href="#glyph0-1" x="109.9997" y="38.9337"/>
</g>
<g style="fill:rgb(0%,0%,0%);fill-opacity:1;">
  <use xlink:href="#glyph0-2" x="29.9997" y="82.9337"/>
</g>
<g style="fill:rgb(0%,0%,0%);fill-opacity:1;">
  <use xlink:href="#glyph0-3" x="77.9997" y="82.9337"/>
</g>
<g style="fill:rgb(0%,0%,0%);fill-opacity:1;">
  <use xlink:href="#glyph0-4" x="117.9997" y="82.9337"/>
</g>
<g style="fill:rgb(0%,0%,0%);fill-opacity:1;">
  <use xlink:href="#glyph0-3" x="9.9997" y="118.9337"/>
</g>
<g style="fill:rgb(0%,0%,0%);fill-opacity:1;">
  <use xlink:href="#glyph0-4" x="33.9997" y="118.9337"/>
</g>
<g style="fill:rgb(0%,0%,0%);fill-opacity:1;">
  <use xlink:href="#glyph0-4" x="5.9997" y="158.9337"/>
</g>
<g style="fill:rgb(0%,0%,0%);fill-opacity:1;">
  <use xlink:href="#glyph0-3" x="29.9997" y="158.9337"/>
</g>
<g style="fill:rgb(0%,0%,0%);fill-opacity:1;">
  <use xlink:href="#glyph0-2" x="57.9997" y="118.9337"/>
</g>
<g style="fill:rgb(0%,0%,0%);fill-opacity:1;">
  <use xlink:href="#glyph0-4" x="85.9997" y="118.9337"/>
</g>
<g style="fill:rgb(0%,0%,0%);fill-opacity:1;">
  <use xlink:href="#glyph0-4" x="53.9997" y="158.9337"/>
</g>
<g style="fill:rgb(0%,0%,0%);fill-opacity:1;">
  <use xlink:href="#glyph0-2" x="77.9997" y="158.9337"/>
</g>
<g style="fill:rgb(0%,0%,0%);fill-opacity:1;">
  <use xlink:href="#glyph0-3" x="105.9997" y="118.9337"/>
</g>
<g style="fill:rgb(0%,0%,0%);fill-opacity:1;">
  <use xlink:href="#glyph0-2" x="133.9997" y="118.9337"/>
</g>
<g style="fill:rgb(0%,0%,0%);fill-opacity:1;">
  <use xlink:href="#glyph0-2" x="101.9997" y="158.9337"/>
</g>
<g style="fill:rgb(0%,0%,0%);fill-opacity:1;">
  <use xlink:href="#glyph0-3" x="125.9997" y="158.9337"/>
</g>
<path style="fill:none;stroke-width:1.2;stroke-linecap:butt;stroke-linejoin:round;stroke:rgb(0%,0%,0%);stroke-opacity:1;stroke-miterlimit:10;" d="M 25.726862 661.375106 C 25.726862 667.625106 20.660456 672.691513 14.414363 672.691513 C 8.164363 672.691513 3.101863 667.625106 3.101863 661.375106 C 3.101863 655.129013 8.164363 650.062606 14.414363 650.062606 C 20.660456 650.062606 25.726862 655.129013 25.726862 661.375106 Z M 25.726862 661.375106 " transform="matrix(1,0,0,-1,-2.0003,838.9337)"/>
<g style="fill:rgb(0%,0%,0%);fill-opacity:1;">
  <use xlink:href="#glyph0-10" x="9.9232" y="180.8237"/>
</g>
</g>
</svg>
