<?xml version="1.0" encoding="UTF-8"?>
<svg xmlns="http://www.w3.org/2000/svg" xmlns:xlink="http://www.w3.org/1999/xlink" width="640pt" height="294pt" viewBox="0 0 640 294" version="1.1">
<defs>
<g>
<symbol overflow="visible" id="glyph0-0">
<path style="stroke:none;" d=""/>
</symbol>
<symbol overflow="visible" id="glyph0-1">
<path style="stroke:none;" d="M 12.96875 -18.578125 C 11.4375 -19.5 9.90625 -19.96875 7.859375 -19.96875 C 3.984375 -19.96875 1.5625 -17.234375 1.5625 -14.46875 C 1.5625 -13.28125 1.953125 -12.109375 3.0625 -10.9375 C 4.234375 -9.671875 5.46875 -9.34375 7.109375 -8.953125 C 9.484375 -8.375 9.765625 -8.28125 10.546875 -7.59375 C 11.09375 -7.109375 11.71875 -6.1875 11.71875 -5 C 11.71875 -3.15625 10.1875 -1.3125 7.640625 -1.3125 C 6.5 -1.3125 3.984375 -1.59375 1.640625 -3.5625 L 1.234375 -1.3125 C 3.6875 0.21875 5.90625 0.609375 7.671875 0.609375 C 11.34375 0.609375 13.921875 -2.203125 13.921875 -5.265625 C 13.921875 -7.078125 13.046875 -8.421875 12.4375 -9.09375 C 11.125 -10.484375 10.203125 -10.734375 7.640625 -11.375 C 6.03125 -11.765625 5.578125 -11.875 4.734375 -12.609375 C 4.546875 -12.78125 3.765625 -13.578125 3.765625 -14.8125 C 3.765625 -16.453125 5.265625 -18.125 7.84375 -18.125 C 10.1875 -18.125 11.515625 -17.203125 12.546875 -16.34375 Z M 12.96875 -18.578125 "/>
</symbol>
<symbol overflow="visible" id="glyph0-2">
<path style="stroke:none;" d="M 10.515625 -19.359375 L 8.0625 -19.359375 L 0.78125 0 L 2.84375 0 L 5 -5.6875 L 13.109375 -5.6875 L 15.234375 0 L 17.796875 0 Z M 12.5 -7.25 L 5.578125 -7.25 L 7.390625 -12.296875 C 7.984375 -13.953125 8.84375 -16.3125 9.03125 -17.34375 L 9.0625 -17.34375 C 9.125 -16.953125 9.3125 -16.265625 9.953125 -14.421875 Z M 12.5 -7.25 "/>
</symbol>
<symbol overflow="visible" id="glyph0-3">
<path style="stroke:none;" d="M 2.703125 -19.359375 L 2.703125 0 L 10.0625 0 C 14.078125 0 17.015625 -2.515625 17.015625 -5.25 C 17.015625 -7.671875 14.59375 -9.65625 11.625 -10.125 C 14.171875 -10.765625 16.265625 -12.390625 16.265625 -14.5 C 16.265625 -17.0625 13.28125 -19.359375 9.3125 -19.359375 Z M 5.015625 -10.90625 L 5.015625 -17.796875 L 8.53125 -17.796875 C 11.625 -17.796875 14.078125 -16.3125 14.078125 -14.46875 C 14.078125 -12.796875 12.109375 -10.90625 8.25 -10.90625 Z M 5.015625 -1.5625 L 5.015625 -9.203125 L 9.0625 -9.203125 C 12.015625 -9.203125 14.75 -7.5 14.75 -5.265625 C 14.75 -3.171875 12.296875 -1.5625 9.28125 -1.5625 Z M 5.015625 -1.5625 "/>
</symbol>
<symbol overflow="visible" id="glyph0-4">
<path style="stroke:none;" d="M 16.234375 -3.171875 C 14.59375 -2.09375 13.640625 -1.5 10.875 -1.5 C 6.859375 -1.5 4.34375 -5.6875 4.34375 -9.703125 C 4.34375 -13.5 6.671875 -17.875 10.9375 -17.875 C 12.90625 -17.875 14.171875 -17.40625 15.703125 -16.421875 L 16.09375 -18.71875 C 14.890625 -19.296875 12.75 -19.65625 10.96875 -19.65625 C 5.796875 -19.65625 1.84375 -15.3125 1.84375 -9.453125 C 1.84375 -5.046875 5.15625 0.3125 10.96875 0.3125 C 13.53125 0.3125 14.59375 -0.140625 16.40625 -1.25 Z M 16.234375 -3.171875 "/>
</symbol>
<symbol overflow="visible" id="glyph0-5">
<path style="stroke:none;" d="M 14.3125 -9.171875 L 14.3125 -10.875 L 5.109375 -10.875 L 5.109375 -17.484375 L 8.953125 -17.484375 C 9.28125 -17.484375 9.625 -17.453125 9.953125 -17.453125 L 15.0625 -17.453125 L 15.0625 -19.265625 L 2.625 -19.265625 L 2.625 0 L 15.453125 0 L 15.453125 -1.984375 L 11.9375 -1.984375 C 11.609375 -1.984375 11.265625 -1.953125 10.9375 -1.953125 L 5.109375 -1.953125 L 5.109375 -9.171875 Z M 14.3125 -9.171875 "/>
</symbol>
<symbol overflow="visible" id="glyph0-6">
<path style="stroke:none;" d="M 2.671875 -19.359375 L 2.671875 0 L 10.015625 0 C 14.75 0 18.546875 -4.234375 18.546875 -9.515625 C 18.546875 -14.921875 14.78125 -19.359375 9.984375 -19.359375 Z M 5.078125 -1.5625 L 5.078125 -17.796875 L 9.34375 -17.796875 C 13.25 -17.796875 16.15625 -14.421875 16.15625 -9.515625 C 16.15625 -4.765625 13.25 -1.5625 9.34375 -1.5625 Z M 5.078125 -1.5625 "/>
</symbol>
<symbol overflow="visible" id="glyph0-7">
<path style="stroke:none;" d="M 16.734375 -8.34375 L 10.84375 -8.34375 L 10.84375 -6.609375 L 14.53125 -6.609375 L 14.53125 -2.0625 C 13.421875 -1.671875 12.078125 -1.484375 10.875 -1.484375 C 7.203125 -1.484375 4.34375 -5.1875 4.34375 -9.703125 C 4.34375 -14.078125 7.140625 -17.875 10.828125 -17.875 C 13.078125 -17.875 14.671875 -17.203125 16.09375 -16.03125 L 16.484375 -18.328125 C 14.921875 -19.296875 12.75 -19.6875 10.90625 -19.6875 C 5.515625 -19.6875 1.84375 -14.8125 1.84375 -9.703125 C 1.84375 -4.625 5.546875 0.3125 10.90625 0.3125 C 12.96875 0.3125 14.859375 -0.25 16.734375 -1.0625 Z M 16.734375 -8.34375 "/>
</symbol>
<symbol overflow="visible" id="glyph1-0">
<path style="stroke:none;" d=""/>
</symbol>
<symbol overflow="visible" id="glyph1-1">
<path style="stroke:none;" d="M 8.34375 -18.90625 L 7.78125 -18.90625 C 6.140625 -17.203125 3.828125 -17.125 2.484375 -17.0625 L 2.484375 -15.453125 C 3.40625 -15.484375 4.734375 -15.53125 6.140625 -16.125 L 6.140625 -1.625 L 2.65625 -1.625 L 2.65625 0 L 11.828125 0 L 11.828125 -1.625 L 8.34375 -1.625 Z M 8.34375 -18.90625 "/>
</symbol>
<symbol overflow="visible" id="glyph1-2">
<path style="stroke:none;" d="M 8.921875 -9.90625 C 11.40625 -10.703125 12.359375 -12.546875 12.359375 -14.03125 C 12.359375 -16.65625 9.984375 -18.90625 6.96875 -18.90625 C 3.84375 -18.90625 1.5625 -16.59375 1.5625 -14.03125 C 1.5625 -12.546875 2.515625 -10.703125 5 -9.90625 C 2.984375 -9.203125 1.171875 -7.453125 1.171875 -5.015625 C 1.171875 -1.984375 3.734375 0.609375 6.9375 0.609375 C 10.265625 0.609375 12.75 -2.0625 12.75 -5.015625 C 12.75 -7.5625 10.796875 -9.265625 8.921875 -9.90625 Z M 6.96875 -10.734375 C 4.828125 -10.734375 3.515625 -12.109375 3.515625 -14.03125 C 3.515625 -15.953125 4.875 -17.296875 6.9375 -17.296875 C 9.140625 -17.296875 10.40625 -15.84375 10.40625 -14.03125 C 10.40625 -12.015625 8.984375 -10.734375 6.96875 -10.734375 Z M 6.96875 -1.09375 C 5.046875 -1.09375 3.4375 -2.421875 3.4375 -5.046875 C 3.4375 -7.984375 5.4375 -9.03125 6.9375 -9.03125 C 8.5625 -9.03125 10.484375 -7.921875 10.484375 -5.046875 C 10.484375 -2.34375 8.75 -1.09375 6.96875 -1.09375 Z M 6.96875 -1.09375 "/>
</symbol>
<symbol overflow="visible" id="glyph1-3">
<path style="stroke:none;" d="M 2.5625 -14.328125 C 3.375 -16.28125 5.1875 -17.296875 6.890625 -17.296875 C 8.34375 -17.296875 9.703125 -16.453125 9.703125 -14.671875 C 9.703125 -12.96875 8.5625 -11.328125 6.859375 -10.9375 C 6.6875 -10.90625 6.640625 -10.90625 4.65625 -10.734375 L 4.65625 -9.03125 L 6.640625 -9.03125 C 9.65625 -9.03125 10.265625 -6.4375 10.265625 -5.046875 C 10.265625 -2.875 8.984375 -1.09375 6.828125 -1.09375 C 4.90625 -1.09375 2.703125 -2.0625 1.484375 -3.953125 L 1.171875 -2.28125 C 3.203125 0.328125 5.765625 0.609375 6.890625 0.609375 C 10.296875 0.609375 12.75 -2.09375 12.75 -5.015625 C 12.75 -7.5625 10.796875 -9.28125 8.890625 -9.875 C 11.015625 -11.015625 12 -12.90625 12 -14.671875 C 12 -17.0625 9.671875 -18.90625 6.921875 -18.90625 C 4.765625 -18.90625 2.734375 -17.796875 1.5625 -15.84375 Z M 2.5625 -14.328125 "/>
</symbol>
<symbol overflow="visible" id="glyph1-4">
<path style="stroke:none;" d="M 4.859375 -5.25 L 1.390625 -1.78125 L 1.390625 0 L 12.515625 0 L 12.515625 -1.984375 L 7.453125 -1.984375 C 7.109375 -1.984375 6.78125 -1.953125 6.4375 -1.953125 L 3.40625 -1.953125 C 4.296875 -2.734375 6.421875 -4.828125 7.28125 -5.640625 C 7.8125 -6.140625 9.234375 -7.3125 9.765625 -7.8125 C 11.015625 -9.0625 12.515625 -10.546875 12.515625 -12.90625 C 12.515625 -16.125 10.265625 -18.90625 6.578125 -18.90625 C 3.40625 -18.90625 1.84375 -16.734375 1.171875 -14.328125 C 1.5 -13.859375 1.640625 -13.6875 1.703125 -13.609375 C 1.75 -13.5625 2.03125 -13.1875 2.3125 -12.796875 C 2.875 -14.953125 3.65625 -17.125 6.1875 -17.125 C 8.8125 -17.125 10.234375 -15.03125 10.234375 -12.859375 C 10.234375 -10.484375 8.640625 -8.890625 7 -7.21875 Z M 4.859375 -5.25 "/>
</symbol>
<symbol overflow="visible" id="glyph2-0">
<path style="stroke:none;" d=""/>
</symbol>
<symbol overflow="visible" id="glyph2-1">
<path style="stroke:none;" d="M 8 -19.046875 C 8 -19.078125 8 -19.359375 7.640625 -19.359375 C 7 -19.359375 4.96875 -19.140625 4.234375 -19.078125 C 4.015625 -19.046875 3.703125 -19.015625 3.703125 -18.515625 C 3.703125 -18.1875 3.953125 -18.1875 4.375 -18.1875 C 5.71875 -18.1875 5.765625 -17.984375 5.765625 -17.703125 L 5.6875 -17.15625 L 1.640625 -1.09375 C 1.53125 -0.703125 1.53125 -0.640625 1.53125 -0.46875 C 1.53125 0.171875 2.09375 0.3125 2.34375 0.3125 C 2.796875 0.3125 3.234375 -0.03125 3.375 -0.421875 L 3.90625 -2.53125 L 4.515625 -5.046875 C 4.6875 -5.65625 4.859375 -6.28125 5 -6.921875 C 5.046875 -7.078125 5.265625 -8 5.296875 -8.171875 C 5.390625 -8.421875 6.25 -9.984375 7.203125 -10.734375 C 7.8125 -11.1875 8.671875 -11.71875 9.875 -11.71875 C 11.078125 -11.71875 11.375 -10.765625 11.375 -9.765625 C 11.375 -8.25 10.3125 -5.21875 9.65625 -3.515625 C 9.421875 -2.875 9.28125 -2.53125 9.28125 -1.984375 C 9.28125 -0.671875 10.265625 0.3125 11.578125 0.3125 C 14.203125 0.3125 15.234375 -3.765625 15.234375 -3.984375 C 15.234375 -4.265625 14.984375 -4.265625 14.890625 -4.265625 C 14.609375 -4.265625 14.609375 -4.1875 14.46875 -3.765625 C 14.0625 -2.28125 13.171875 -0.3125 11.625 -0.3125 C 11.15625 -0.3125 10.96875 -0.578125 10.96875 -1.234375 C 10.96875 -1.921875 11.21875 -2.59375 11.46875 -3.203125 C 11.90625 -4.40625 13.171875 -7.71875 13.171875 -9.34375 C 13.171875 -11.15625 12.046875 -12.328125 9.953125 -12.328125 C 8.203125 -12.328125 6.859375 -11.46875 5.828125 -10.1875 Z M 8 -19.046875 "/>
</symbol>
<symbol overflow="visible" id="glyph3-0">
<path style="stroke:none;" d=""/>
</symbol>
<symbol overflow="visible" id="glyph3-1">
<path style="stroke:none;" d="M 19.15625 -9.125 C 19.578125 -9.125 20.109375 -9.125 20.109375 -9.671875 C 20.109375 -10.234375 19.578125 -10.234375 19.1875 -10.234375 L 2.484375 -10.234375 C 2.09375 -10.234375 1.5625 -10.234375 1.5625 -9.671875 C 1.5625 -9.125 2.09375 -9.125 2.515625 -9.125 Z M 19.1875 -3.703125 C 19.578125 -3.703125 20.109375 -3.703125 20.109375 -4.265625 C 20.109375 -4.828125 19.578125 -4.828125 19.15625 -4.828125 L 2.515625 -4.828125 C 2.09375 -4.828125 1.5625 -4.828125 1.5625 -4.265625 C 1.5625 -3.703125 2.09375 -3.703125 2.484375 -3.703125 Z M 19.1875 -3.703125 "/>
</symbol>
<symbol overflow="visible" id="glyph3-2">
<path style="stroke:none;" d="M 3.6875 -9.140625 L 3.6875 -9.8125 C 3.6875 -16.875 7.140625 -17.875 8.5625 -17.875 C 9.234375 -17.875 10.40625 -17.703125 11.015625 -16.765625 C 10.59375 -16.765625 9.484375 -16.765625 9.484375 -15.5 C 9.484375 -14.640625 10.15625 -14.21875 10.765625 -14.21875 C 11.21875 -14.21875 12.046875 -14.46875 12.046875 -15.5625 C 12.046875 -17.234375 10.828125 -18.578125 8.5 -18.578125 C 4.9375 -18.578125 1.171875 -14.984375 1.171875 -8.8125 C 1.171875 -1.359375 4.40625 0.609375 7 0.609375 C 10.09375 0.609375 12.75 -2.015625 12.75 -5.6875 C 12.75 -9.234375 10.265625 -11.90625 7.171875 -11.90625 C 5.265625 -11.90625 4.234375 -10.484375 3.6875 -9.140625 Z M 7 -0.171875 C 5.25 -0.171875 4.40625 -1.84375 4.234375 -2.265625 C 3.734375 -3.5625 3.734375 -5.796875 3.734375 -6.296875 C 3.734375 -8.484375 4.625 -11.265625 7.140625 -11.265625 C 7.59375 -11.265625 8.875 -11.265625 9.734375 -9.53125 C 10.234375 -8.5 10.234375 -7.078125 10.234375 -5.71875 C 10.234375 -4.375 10.234375 -2.984375 9.765625 -1.984375 C 8.921875 -0.3125 7.640625 -0.171875 7 -0.171875 Z M 7 -0.171875 "/>
</symbol>
<symbol overflow="visible" id="glyph3-3">
<path style="stroke:none;" d="M 13.28125 -16.984375 C 13.53125 -17.3125 13.53125 -17.375 13.53125 -17.96875 L 6.75 -17.96875 C 3.34375 -17.96875 3.296875 -18.328125 3.171875 -18.859375 L 2.484375 -18.859375 L 1.5625 -13.109375 L 2.265625 -13.109375 C 2.34375 -13.5625 2.59375 -15.3125 2.953125 -15.640625 C 3.15625 -15.8125 5.328125 -15.8125 5.6875 -15.8125 L 11.46875 -15.8125 C 11.15625 -15.375 8.953125 -12.328125 8.34375 -11.40625 C 5.828125 -7.640625 4.90625 -3.765625 4.90625 -0.921875 C 4.90625 -0.640625 4.90625 0.609375 6.1875 0.609375 C 7.46875 0.609375 7.46875 -0.640625 7.46875 -0.921875 L 7.46875 -2.34375 C 7.46875 -3.875 7.5625 -5.40625 7.78125 -6.921875 C 7.890625 -7.5625 8.28125 -9.953125 9.515625 -11.6875 Z M 13.28125 -16.984375 "/>
</symbol>
<symbol overflow="visible" id="glyph3-4">
<path style="stroke:none;" d="M 12.515625 -5.609375 C 12.515625 -8.921875 10.234375 -11.71875 7.21875 -11.71875 C 5.890625 -11.71875 4.6875 -11.265625 3.6875 -10.296875 L 3.6875 -15.734375 C 4.234375 -15.5625 5.15625 -15.375 6.046875 -15.375 C 9.484375 -15.375 11.4375 -17.90625 11.4375 -18.265625 C 11.4375 -18.4375 11.34375 -18.578125 11.15625 -18.578125 C 11.125 -18.578125 11.078125 -18.578125 10.9375 -18.484375 C 10.375 -18.234375 9.015625 -17.6875 7.140625 -17.6875 C 6.03125 -17.6875 4.734375 -17.875 3.4375 -18.46875 C 3.203125 -18.546875 3.15625 -18.546875 3.09375 -18.546875 C 2.8125 -18.546875 2.8125 -18.328125 2.8125 -17.875 L 2.8125 -9.625 C 2.8125 -9.125 2.8125 -8.890625 3.203125 -8.890625 C 3.40625 -8.890625 3.453125 -8.984375 3.5625 -9.140625 C 3.875 -9.59375 4.90625 -11.09375 7.171875 -11.09375 C 8.625 -11.09375 9.3125 -9.8125 9.53125 -9.3125 C 9.984375 -8.28125 10.046875 -7.203125 10.046875 -5.796875 C 10.046875 -4.828125 10.046875 -3.15625 9.375 -1.984375 C 8.703125 -0.890625 7.671875 -0.171875 6.390625 -0.171875 C 4.34375 -0.171875 2.765625 -1.640625 2.28125 -3.296875 C 2.375 -3.265625 2.453125 -3.234375 2.765625 -3.234375 C 3.6875 -3.234375 4.15625 -3.9375 4.15625 -4.609375 C 4.15625 -5.265625 3.6875 -5.96875 2.765625 -5.96875 C 2.375 -5.96875 1.390625 -5.765625 1.390625 -4.484375 C 1.390625 -2.09375 3.3125 0.609375 6.4375 0.609375 C 9.671875 0.609375 12.515625 -2.0625 12.515625 -5.609375 Z M 12.515625 -5.609375 "/>
</symbol>
<symbol overflow="visible" id="glyph3-5">
<path style="stroke:none;" d="M 8.203125 -17.84375 C 8.203125 -18.515625 8.203125 -18.578125 7.5625 -18.578125 C 5.828125 -16.796875 3.375 -16.796875 2.484375 -16.796875 L 2.484375 -15.921875 C 3.046875 -15.921875 4.6875 -15.921875 6.140625 -16.65625 L 6.140625 -2.203125 C 6.140625 -1.203125 6.046875 -0.859375 3.546875 -0.859375 L 2.65625 -0.859375 L 2.65625 0 C 3.625 -0.078125 6.046875 -0.078125 7.171875 -0.078125 C 8.28125 -0.078125 10.703125 -0.078125 11.6875 0 L 11.6875 -0.859375 L 10.796875 -0.859375 C 8.28125 -0.859375 8.203125 -1.171875 8.203125 -2.203125 Z M 8.203125 -17.84375 "/>
</symbol>
<symbol overflow="visible" id="glyph3-6">
<path style="stroke:none;" d="M 3.546875 -2.140625 L 6.5 -5.015625 C 10.84375 -8.875 12.515625 -10.375 12.515625 -13.171875 C 12.515625 -16.34375 10.015625 -18.578125 6.609375 -18.578125 C 3.453125 -18.578125 1.390625 -16.015625 1.390625 -13.53125 C 1.390625 -11.96875 2.796875 -11.96875 2.875 -11.96875 C 3.34375 -11.96875 4.328125 -12.296875 4.328125 -13.4375 C 4.328125 -14.171875 3.828125 -14.890625 2.84375 -14.890625 C 2.625 -14.890625 2.5625 -14.890625 2.484375 -14.859375 C 3.125 -16.671875 4.625 -17.703125 6.25 -17.703125 C 8.78125 -17.703125 9.984375 -15.453125 9.984375 -13.171875 C 9.984375 -10.9375 8.59375 -8.734375 7.0625 -7 L 1.703125 -1.03125 C 1.390625 -0.71875 1.390625 -0.671875 1.390625 0 L 11.734375 0 L 12.515625 -4.859375 L 11.828125 -4.859375 C 11.6875 -4.015625 11.484375 -2.796875 11.21875 -2.375 C 11.015625 -2.140625 9.171875 -2.140625 8.5625 -2.140625 Z M 3.546875 -2.140625 "/>
</symbol>
<symbol overflow="visible" id="glyph3-7">
<path style="stroke:none;" d="M 12.828125 -8.921875 C 12.828125 -11.15625 12.6875 -13.390625 11.71875 -15.453125 C 10.4375 -18.125 8.140625 -18.578125 6.96875 -18.578125 C 5.296875 -18.578125 3.265625 -17.84375 2.125 -15.25 C 1.234375 -13.328125 1.09375 -11.15625 1.09375 -8.921875 C 1.09375 -6.828125 1.203125 -4.328125 2.34375 -2.203125 C 3.546875 0.0625 5.578125 0.609375 6.9375 0.609375 C 8.453125 0.609375 10.578125 0.03125 11.796875 -2.625 C 12.6875 -4.546875 12.828125 -6.71875 12.828125 -8.921875 Z M 6.9375 0 C 5.859375 0 4.21875 -0.703125 3.703125 -3.375 C 3.40625 -5.046875 3.40625 -7.609375 3.40625 -9.265625 C 3.40625 -11.046875 3.40625 -12.890625 3.625 -14.390625 C 4.15625 -17.703125 6.25 -17.96875 6.9375 -17.96875 C 7.859375 -17.96875 9.703125 -17.453125 10.234375 -14.703125 C 10.515625 -13.140625 10.515625 -11.015625 10.515625 -9.265625 C 10.515625 -7.171875 10.515625 -5.265625 10.203125 -3.484375 C 9.796875 -0.84375 8.203125 0 6.9375 0 Z M 6.9375 0 "/>
</symbol>
</g>
</defs>
<g id="surface1">
<path style="fill:none;stroke-width:1.2;stroke-linecap:butt;stroke-linejoin:round;stroke:rgb(0%,0%,0%);stroke-opacity:1;stroke-miterlimit:10;" d="M 49.886719 432.000219 C 49.886719 441.879125 41.878906 449.886938 32 449.886938 C 22.121094 449.886938 14.113281 441.879125 14.113281 432.000219 C 14.113281 422.121313 22.121094 414.109594 32 414.109594 C 41.878906 414.109594 49.886719 422.121313 49.886719 432.000219 Z M 49.886719 432.000219 " transform="matrix(1,0,0,-1,-3,514.9885)"/>
<g style="fill:rgb(0%,0%,0%);fill-opacity:1;">
  <use xlink:href="#glyph0-1" x="21.251" y="92.6737"/>
</g>
<path style="fill:none;stroke-width:1.2;stroke-linecap:butt;stroke-linejoin:round;stroke:rgb(0%,0%,0%);stroke-opacity:1;stroke-miterlimit:10;" d="M 145.886719 432.000219 C 145.886719 441.879125 137.878906 449.886938 128 449.886938 C 118.121094 449.886938 110.113281 441.879125 110.113281 432.000219 C 110.113281 422.121313 118.121094 414.109594 128 414.109594 C 137.878906 414.109594 145.886719 422.121313 145.886719 432.000219 Z M 145.886719 432.000219 " transform="matrix(1,0,0,-1,-3,514.9885)"/>
<g style="fill:rgb(0%,0%,0%);fill-opacity:1;">
  <use xlink:href="#glyph0-2" x="115.7012" y="92.6737"/>
</g>
<path style="fill:none;stroke-width:1.2;stroke-linecap:butt;stroke-linejoin:round;stroke:rgb(0%,0%,0%);stroke-opacity:1;stroke-miterlimit:10;" d="M 145.886719 336.000219 C 145.886719 345.879125 137.878906 353.886938 128 353.886938 C 118.121094 353.886938 110.113281 345.879125 110.113281 336.000219 C 110.113281 326.121313 118.121094 318.109594 128 318.109594 C 137.878906 318.109594 145.886719 326.121313 145.886719 336.000219 Z M 145.886719 336.000219 " transform="matrix(1,0,0,-1,-3,514.9885)"/>
<g style="fill:rgb(0%,0%,0%);fill-opacity:1;">
  <use xlink:href="#glyph0-3" x="115.7012" y="188.6737"/>
</g>
<path style="fill:none;stroke-width:1.2;stroke-linecap:butt;stroke-linejoin:round;stroke:rgb(0%,0%,0%);stroke-opacity:1;stroke-miterlimit:10;" d="M 49.886719 336.000219 C 49.886719 345.879125 41.878906 353.886938 32 353.886938 C 22.121094 353.886938 14.113281 345.879125 14.113281 336.000219 C 14.113281 326.121313 22.121094 318.109594 32 318.109594 C 41.878906 318.109594 49.886719 326.121313 49.886719 336.000219 Z M 49.886719 336.000219 " transform="matrix(1,0,0,-1,-3,514.9885)"/>
<g style="fill:rgb(0%,0%,0%);fill-opacity:1;">
  <use xlink:href="#glyph0-4" x="20.089" y="188.6737"/>
</g>
<path style="fill:none;stroke-width:1.2;stroke-linecap:butt;stroke-linejoin:round;stroke:rgb(0%,0%,0%);stroke-opacity:1;stroke-miterlimit:10;" d="M 241.886719 496.000219 C 241.886719 505.879125 233.878906 513.886938 224 513.886938 C 214.121094 513.886938 206.113281 505.879125 206.113281 496.000219 C 206.113281 486.121313 214.121094 478.109594 224 478.109594 C 233.878906 478.109594 241.886719 486.121313 241.886719 496.000219 Z M 241.886719 496.000219 " transform="matrix(1,0,0,-1,-3,514.9885)"/>
<g style="fill:rgb(0%,0%,0%);fill-opacity:1;">
  <use xlink:href="#glyph0-5" x="212.67" y="28.6735"/>
</g>
<path style="fill:none;stroke-width:1.2;stroke-linecap:butt;stroke-linejoin:round;stroke:rgb(0%,0%,0%);stroke-opacity:1;stroke-miterlimit:10;" d="M 337.886719 432.000219 C 337.886719 441.879125 329.878906 449.886938 320 449.886938 C 310.121094 449.886938 302.113281 441.879125 302.113281 432.000219 C 302.113281 422.121313 310.121094 414.109594 320 414.109594 C 329.878906 414.109594 337.886719 422.121313 337.886719 432.000219 Z M 337.886719 432.000219 " transform="matrix(1,0,0,-1,-3,514.9885)"/>
<g style="fill:rgb(0%,0%,0%);fill-opacity:1;">
  <use xlink:href="#glyph0-6" x="306.927" y="92.6737"/>
</g>
<path style="fill:none;stroke-width:1.2;stroke-linecap:butt;stroke-linejoin:round;stroke:rgb(0%,0%,0%);stroke-opacity:1;stroke-miterlimit:10;" d="M 337.886719 336.000219 C 337.886719 345.879125 329.878906 353.886938 320 353.886938 C 310.121094 353.886938 302.113281 345.879125 302.113281 336.000219 C 302.113281 326.121313 310.121094 318.109594 320 318.109594 C 329.878906 318.109594 337.886719 326.121313 337.886719 336.000219 Z M 337.886719 336.000219 " transform="matrix(1,0,0,-1,-3,514.9885)"/>
<g style="fill:rgb(0%,0%,0%);fill-opacity:1;">
  <use xlink:href="#glyph0-7" x="307.701" y="188.6737"/>
</g>
<path style="fill:none;stroke-width:1.2;stroke-linecap:butt;stroke-linejoin:round;stroke:rgb(0%,0%,100%);stroke-opacity:1;stroke-miterlimit:10;" d="M 50.703125 432.000219 L 109.433594 432.000219 " transform="matrix(1,0,0,-1,-3,514.9885)"/>
<path style="fill-rule:evenodd;fill:rgb(0%,0%,100%);fill-opacity:1;stroke-width:1.2;stroke-linecap:butt;stroke-linejoin:round;stroke:rgb(0%,0%,100%);stroke-opacity:1;stroke-miterlimit:10;" d="M 109.433594 432.000219 L 94.433594 436.996313 L 94.433594 427.004125 Z M 109.433594 432.000219 " transform="matrix(1,0,0,-1,-3,514.9885)"/>
<path style="fill:none;stroke-width:1.2;stroke-linecap:butt;stroke-linejoin:round;stroke:rgb(0%,0%,100%);stroke-opacity:1;stroke-miterlimit:10;" d="M 128.367188 414.1135 L 128.386719 353.883031 " transform="matrix(1,0,0,-1,-3,514.9885)"/>
<path style="fill-rule:evenodd;fill:rgb(0%,0%,100%);fill-opacity:1;stroke-width:1.2;stroke-linecap:butt;stroke-linejoin:round;stroke:rgb(0%,0%,100%);stroke-opacity:1;stroke-miterlimit:10;" d="M 128.386719 353.883031 L 133.378906 368.886938 L 123.386719 368.883031 Z M 128.386719 353.883031 " transform="matrix(1,0,0,-1,-3,514.9885)"/>
<path style="fill:none;stroke-width:1.2;stroke-linecap:butt;stroke-linejoin:round;stroke:rgb(0%,0%,100%);stroke-opacity:1;stroke-miterlimit:10;" d="M 110.113281 335.660375 L 49.886719 336.355688 " transform="matrix(1,0,0,-1,-3,514.9885)"/>
<path style="fill-rule:evenodd;fill:rgb(0%,0%,100%);fill-opacity:1;stroke-width:1.2;stroke-linecap:butt;stroke-linejoin:round;stroke:rgb(0%,0%,100%);stroke-opacity:1;stroke-miterlimit:10;" d="M 49.886719 336.355688 L 64.828125 331.187719 L 64.941406 341.176 Z M 49.886719 336.355688 " transform="matrix(1,0,0,-1,-3,514.9885)"/>
<path style="fill:none;stroke-width:1.2;stroke-linecap:butt;stroke-linejoin:round;stroke:rgb(0%,0%,0%);stroke-opacity:1;stroke-miterlimit:10;" d="M 141.128906 444.148656 L 208.785156 486.590063 " transform="matrix(1,0,0,-1,-3,514.9885)"/>
<path style="fill-rule:evenodd;fill:rgb(0%,0%,0%);fill-opacity:1;stroke-width:1.2;stroke-linecap:butt;stroke-linejoin:round;stroke:rgb(0%,0%,0%);stroke-opacity:1;stroke-miterlimit:10;" d="M 208.785156 486.590063 L 193.425781 482.851781 L 198.734375 474.390844 Z M 208.785156 486.590063 " transform="matrix(1,0,0,-1,-3,514.9885)"/>
<path style="fill:none;stroke-width:1.2;stroke-linecap:butt;stroke-linejoin:round;stroke:rgb(0%,0%,0%);stroke-opacity:1;stroke-miterlimit:10;" d="M 240.703125 489.601781 L 306.886719 444.164281 " transform="matrix(1,0,0,-1,-3,514.9885)"/>
<path style="fill-rule:evenodd;fill:rgb(0%,0%,0%);fill-opacity:1;stroke-width:1.2;stroke-linecap:butt;stroke-linejoin:round;stroke:rgb(0%,0%,0%);stroke-opacity:1;stroke-miterlimit:10;" d="M 306.886719 444.164281 L 297.347656 456.773656 L 291.691406 448.539281 Z M 306.886719 444.164281 " transform="matrix(1,0,0,-1,-3,514.9885)"/>
<path style="fill:none;stroke-width:1.2;stroke-linecap:butt;stroke-linejoin:round;stroke:rgb(0%,0%,100%);stroke-opacity:1;stroke-miterlimit:10;" d="M 145.886719 431.851781 L 302.121094 431.445531 " transform="matrix(1,0,0,-1,-3,514.9885)"/>
<path style="fill-rule:evenodd;fill:rgb(0%,0%,100%);fill-opacity:1;stroke-width:1.2;stroke-linecap:butt;stroke-linejoin:round;stroke:rgb(0%,0%,100%);stroke-opacity:1;stroke-miterlimit:10;" d="M 302.121094 431.445531 L 287.132812 436.476781 L 287.105469 426.4885 Z M 302.121094 431.445531 " transform="matrix(1,0,0,-1,-3,514.9885)"/>
<path style="fill:none;stroke-width:1.2;stroke-linecap:butt;stroke-linejoin:round;stroke:rgb(0%,0%,100%);stroke-opacity:1;stroke-miterlimit:10;" d="M 320.632812 414.121313 L 320.246094 353.886938 " transform="matrix(1,0,0,-1,-3,514.9885)"/>
<path style="fill-rule:evenodd;fill:rgb(0%,0%,100%);fill-opacity:1;stroke-width:1.2;stroke-linecap:butt;stroke-linejoin:round;stroke:rgb(0%,0%,100%);stroke-opacity:1;stroke-miterlimit:10;" d="M 320.246094 353.886938 L 325.335938 368.855688 L 315.347656 368.918188 Z M 320.246094 353.886938 " transform="matrix(1,0,0,-1,-3,514.9885)"/>
<path style="fill:none;stroke-width:1.2;stroke-linecap:butt;stroke-linejoin:round;stroke:rgb(0%,0%,0%);stroke-opacity:1;stroke-miterlimit:10;" d="M 561.886719 496.000219 C 561.886719 505.879125 553.878906 513.886938 544 513.886938 C 534.121094 513.886938 526.113281 505.879125 526.113281 496.000219 C 526.113281 486.121313 534.121094 478.109594 544 478.109594 C 553.878906 478.109594 561.886719 486.121313 561.886719 496.000219 Z M 561.886719 496.000219 " transform="matrix(1,0,0,-1,-3,514.9885)"/>
<g style="fill:rgb(0%,0%,0%);fill-opacity:1;">
  <use xlink:href="#glyph0-1" x="533.251" y="28.6735"/>
</g>
<path style="fill:none;stroke-width:1.2;stroke-linecap:butt;stroke-linejoin:round;stroke:rgb(0%,0%,0%);stroke-opacity:1;stroke-miterlimit:10;" d="M 561.886719 432.000219 C 561.886719 441.879125 553.878906 449.886938 544 449.886938 C 534.121094 449.886938 526.113281 441.879125 526.113281 432.000219 C 526.113281 422.121313 534.121094 414.109594 544 414.109594 C 553.878906 414.109594 561.886719 422.121313 561.886719 432.000219 Z M 561.886719 432.000219 " transform="matrix(1,0,0,-1,-3,514.9885)"/>
<g style="fill:rgb(0%,0%,0%);fill-opacity:1;">
  <use xlink:href="#glyph0-2" x="531.701" y="92.6737"/>
</g>
<g style="fill:rgb(0%,0%,0%);fill-opacity:1;">
  <use xlink:href="#glyph1-1" x="69" y="74.9885"/>
</g>
<g style="fill:rgb(0%,0%,0%);fill-opacity:1;">
  <use xlink:href="#glyph1-1" x="105" y="138.9885"/>
</g>
<g style="fill:rgb(0%,0%,0%);fill-opacity:1;">
  <use xlink:href="#glyph1-1" x="73" y="202.9885"/>
</g>
<g style="fill:rgb(0%,0%,0%);fill-opacity:1;">
  <use xlink:href="#glyph1-2" x="157" y="42.9885"/>
</g>
<g style="fill:rgb(0%,0%,0%);fill-opacity:1;">
  <use xlink:href="#glyph1-1" x="273" y="42.9885"/>
</g>
<g style="fill:rgb(0%,0%,0%);fill-opacity:1;">
  <use xlink:href="#glyph1-3" x="237" y="106.9885"/>
</g>
<g style="fill:rgb(0%,0%,0%);fill-opacity:1;">
  <use xlink:href="#glyph1-4" x="301" y="130.9885"/>
</g>
<g style="fill:rgb(0%,0%,0%);fill-opacity:1;">
  <use xlink:href="#glyph2-1" x="1" y="122.9885"/>
</g>
<g style="fill:rgb(0%,0%,0%);fill-opacity:1;">
  <use xlink:href="#glyph3-1" x="24.8196" y="122.9885"/>
  <use xlink:href="#glyph3-2" x="54.249119" y="122.9885"/>
</g>
<g style="fill:rgb(0%,0%,0%);fill-opacity:1;">
  <use xlink:href="#glyph2-1" x="1" y="226.9885"/>
</g>
<g style="fill:rgb(0%,0%,0%);fill-opacity:1;">
  <use xlink:href="#glyph3-1" x="24.8196" y="226.9885"/>
  <use xlink:href="#glyph3-3" x="54.249119" y="226.9885"/>
</g>
<g style="fill:rgb(0%,0%,0%);fill-opacity:1;">
  <use xlink:href="#glyph2-1" x="109" y="226.9885"/>
</g>
<g style="fill:rgb(0%,0%,0%);fill-opacity:1;">
  <use xlink:href="#glyph3-1" x="132.8196" y="226.9885"/>
  <use xlink:href="#glyph3-2" x="162.249119" y="226.9885"/>
</g>
<g style="fill:rgb(0%,0%,0%);fill-opacity:1;">
  <use xlink:href="#glyph2-1" x="137" y="118.9885"/>
</g>
<g style="fill:rgb(0%,0%,0%);fill-opacity:1;">
  <use xlink:href="#glyph3-1" x="160.8196" y="118.9885"/>
  <use xlink:href="#glyph3-4" x="190.249119" y="118.9885"/>
</g>
<g style="fill:rgb(0%,0%,0%);fill-opacity:1;">
  <use xlink:href="#glyph2-1" x="189" y="62.9885"/>
</g>
<g style="fill:rgb(0%,0%,0%);fill-opacity:1;">
  <use xlink:href="#glyph3-1" x="212.8196" y="62.9885"/>
  <use xlink:href="#glyph3-5" x="242.249119" y="62.9885"/>
</g>
<g style="fill:rgb(0%,0%,0%);fill-opacity:1;">
  <use xlink:href="#glyph2-1" x="313" y="54.9885"/>
</g>
<g style="fill:rgb(0%,0%,0%);fill-opacity:1;">
  <use xlink:href="#glyph3-1" x="336.8196" y="54.9885"/>
  <use xlink:href="#glyph3-6" x="366.249119" y="54.9885"/>
</g>
<g style="fill:rgb(0%,0%,0%);fill-opacity:1;">
  <use xlink:href="#glyph2-1" x="281" y="226.9885"/>
</g>
<g style="fill:rgb(0%,0%,0%);fill-opacity:1;">
  <use xlink:href="#glyph3-1" x="304.8196" y="226.9885"/>
  <use xlink:href="#glyph3-7" x="334.249119" y="226.9885"/>
</g>
<path style="fill:none;stroke-width:1.2;stroke-linecap:butt;stroke-linejoin:round;stroke:rgb(0%,0%,0%);stroke-opacity:1;stroke-miterlimit:10;" d="M 481.886719 368.000219 C 481.886719 377.879125 473.878906 385.886938 464 385.886938 C 454.121094 385.886938 446.113281 377.879125 446.113281 368.000219 C 446.113281 358.121313 454.121094 350.109594 464 350.109594 C 473.878906 350.109594 481.886719 358.121313 481.886719 368.000219 Z M 481.886719 368.000219 " transform="matrix(1,0,0,-1,-3,514.9885)"/>
<g style="fill:rgb(0%,0%,0%);fill-opacity:1;">
  <use xlink:href="#glyph0-3" x="451.701" y="156.6737"/>
</g>
<path style="fill:none;stroke-width:1.2;stroke-linecap:butt;stroke-linejoin:round;stroke:rgb(0%,0%,0%);stroke-opacity:1;stroke-miterlimit:10;" d="M 481.886719 304.000219 C 481.886719 313.879125 473.878906 321.886938 464 321.886938 C 454.121094 321.886938 446.113281 313.879125 446.113281 304.000219 C 446.113281 294.121313 454.121094 286.109594 464 286.109594 C 473.878906 286.109594 481.886719 294.121313 481.886719 304.000219 Z M 481.886719 304.000219 " transform="matrix(1,0,0,-1,-3,514.9885)"/>
<g style="fill:rgb(0%,0%,0%);fill-opacity:1;">
  <use xlink:href="#glyph0-4" x="452.089" y="220.6737"/>
</g>
<path style="fill:none;stroke-width:1.2;stroke-linecap:butt;stroke-linejoin:round;stroke:rgb(0%,0%,0%);stroke-opacity:1;stroke-miterlimit:10;" d="M 561.886719 368.000219 C 561.886719 377.879125 553.878906 385.886938 544 385.886938 C 534.121094 385.886938 526.113281 377.879125 526.113281 368.000219 C 526.113281 358.121313 534.121094 350.109594 544 350.109594 C 553.878906 350.109594 561.886719 358.121313 561.886719 368.000219 Z M 561.886719 368.000219 " transform="matrix(1,0,0,-1,-3,514.9885)"/>
<g style="fill:rgb(0%,0%,0%);fill-opacity:1;">
  <use xlink:href="#glyph0-6" x="530.927" y="156.6737"/>
</g>
<path style="fill:none;stroke-width:1.2;stroke-linecap:butt;stroke-linejoin:round;stroke:rgb(0%,0%,0%);stroke-opacity:1;stroke-miterlimit:10;" d="M 561.886719 304.000219 C 561.886719 313.879125 553.878906 321.886938 544 321.886938 C 534.121094 321.886938 526.113281 313.879125 526.113281 304.000219 C 526.113281 294.121313 534.121094 286.109594 544 286.109594 C 553.878906 286.109594 561.886719 294.121313 561.886719 304.000219 Z M 561.886719 304.000219 " transform="matrix(1,0,0,-1,-3,514.9885)"/>
<g style="fill:rgb(0%,0%,0%);fill-opacity:1;">
  <use xlink:href="#glyph0-7" x="531.701" y="220.6737"/>
</g>
<path style="fill:none;stroke-width:1.2;stroke-linecap:butt;stroke-linejoin:round;stroke:rgb(0%,0%,0%);stroke-opacity:1;stroke-miterlimit:10;" d="M 641.886719 368.000219 C 641.886719 377.879125 633.878906 385.886938 624 385.886938 C 614.121094 385.886938 606.113281 377.879125 606.113281 368.000219 C 606.113281 358.121313 614.121094 350.109594 624 350.109594 C 633.878906 350.109594 641.886719 358.121313 641.886719 368.000219 Z M 641.886719 368.000219 " transform="matrix(1,0,0,-1,-3,514.9885)"/>
<g style="fill:rgb(0%,0%,0%);fill-opacity:1;">
  <use xlink:href="#glyph0-5" x="612.67" y="156.6735"/>
</g>
<path style="fill:none;stroke-width:1.2;stroke-linecap:butt;stroke-linejoin:round;stroke:rgb(0%,0%,0%);stroke-opacity:1;stroke-miterlimit:10;" d="M 641.886719 304.000219 C 641.886719 313.879125 633.878906 321.886938 624 321.886938 C 614.121094 321.886938 606.113281 313.879125 606.113281 304.000219 C 606.113281 294.121313 614.121094 286.109594 624 286.109594 C 633.878906 286.109594 641.886719 294.121313 641.886719 304.000219 Z M 641.886719 304.000219 " transform="matrix(1,0,0,-1,-3,514.9885)"/>
<g style="fill:rgb(0%,0%,0%);fill-opacity:1;">
  <use xlink:href="#glyph0-6" x="610.927" y="220.6737"/>
</g>
<path style="fill:none;stroke-width:1.2;stroke-linecap:butt;stroke-linejoin:round;stroke:rgb(0%,0%,0%);stroke-opacity:1;stroke-miterlimit:10;" d="M 641.886719 240.000219 C 641.886719 249.879125 633.878906 257.886938 624 257.886938 C 614.121094 257.886938 606.113281 249.879125 606.113281 240.000219 C 606.113281 230.121313 614.121094 222.109594 624 222.109594 C 633.878906 222.109594 641.886719 230.121313 641.886719 240.000219 Z M 641.886719 240.000219 " transform="matrix(1,0,0,-1,-3,514.9885)"/>
<g style="fill:rgb(0%,0%,0%);fill-opacity:1;">
  <use xlink:href="#glyph0-7" x="611.701" y="284.6735"/>
</g>
<path style="fill:none;stroke-width:1.2;stroke-linecap:butt;stroke-linejoin:round;stroke:rgb(0%,0%,100%);stroke-opacity:1;stroke-miterlimit:10;" d="M 544.253906 478.1135 L 544.273438 449.886938 " transform="matrix(1,0,0,-1,-3,514.9885)"/>
<path style="fill:none;stroke-width:1.2;stroke-linecap:butt;stroke-linejoin:round;stroke:rgb(0%,0%,100%);stroke-opacity:1;stroke-miterlimit:10;" d="M 543.902344 414.1135 L 543.890625 385.886938 " transform="matrix(1,0,0,-1,-3,514.9885)"/>
<path style="fill:none;stroke-width:1.2;stroke-linecap:butt;stroke-linejoin:round;stroke:rgb(0%,0%,100%);stroke-opacity:1;stroke-miterlimit:10;" d="M 543.949219 350.1135 L 543.953125 321.886938 " transform="matrix(1,0,0,-1,-3,514.9885)"/>
<path style="fill:none;stroke-width:1.2;stroke-linecap:butt;stroke-linejoin:round;stroke:rgb(0%,0%,100%);stroke-opacity:1;stroke-miterlimit:10;" d="M 464.007812 350.1135 L 464.007812 321.886938 " transform="matrix(1,0,0,-1,-3,514.9885)"/>
<path style="fill:none;stroke-width:1.2;stroke-linecap:butt;stroke-linejoin:round;stroke:rgb(0%,0%,100%);stroke-opacity:1;stroke-miterlimit:10;" d="M 529.195312 421.961156 L 476.953125 380.336156 " transform="matrix(1,0,0,-1,-3,514.9885)"/>
<path style="fill:none;stroke-width:1.2;stroke-linecap:butt;stroke-linejoin:round;stroke:rgb(0%,0%,0%);stroke-opacity:1;stroke-miterlimit:10;" d="M 558.949219 422.172094 L 610.03125 379.176 " transform="matrix(1,0,0,-1,-3,514.9885)"/>
<path style="fill:none;stroke-width:1.2;stroke-linecap:butt;stroke-linejoin:round;stroke:rgb(0%,0%,0%);stroke-opacity:1;stroke-miterlimit:10;" d="M 624.003906 350.1135 L 623.800781 321.886938 " transform="matrix(1,0,0,-1,-3,514.9885)"/>
<path style="fill:none;stroke-width:1.2;stroke-linecap:butt;stroke-linejoin:round;stroke:rgb(0%,0%,0%);stroke-opacity:1;stroke-miterlimit:10;" d="M 624.207031 286.1135 L 624.214844 257.886938 " transform="matrix(1,0,0,-1,-3,514.9885)"/>
</g>
</svg>
