<?xml version="1.0" encoding="UTF-8"?>
<svg xmlns="http://www.w3.org/2000/svg" xmlns:xlink="http://www.w3.org/1999/xlink" width="338pt" height="102pt" viewBox="0 0 338 102" version="1.1">
<defs>
<g>
<symbol overflow="visible" id="glyph0-0">
<path style="stroke:none;" d=""/>
</symbol>
<symbol overflow="visible" id="glyph0-1">
<path style="stroke:none;" d="M 12.125 -8.3125 C 12.125 -10.15625 11.71875 -12.6875 8.3125 -12.6875 C 5.796875 -12.6875 4.4375 -10.796875 4.265625 -10.578125 L 4.265625 -12.546875 L 2.265625 -12.546875 L 2.265625 0 L 4.4375 0 L 4.4375 -6.828125 C 4.4375 -8.671875 5.125 -10.984375 7.25 -10.984375 C 9.921875 -10.984375 9.953125 -9.015625 9.953125 -8.109375 L 9.953125 0 L 12.125 0 Z M 12.125 -8.3125 "/>
</symbol>
<symbol overflow="visible" id="glyph1-0">
<path style="stroke:none;" d=""/>
</symbol>
<symbol overflow="visible" id="glyph1-1">
<path style="stroke:none;" d="M 16.734375 -8.34375 L 10.84375 -8.34375 L 10.84375 -6.609375 L 14.53125 -6.609375 L 14.53125 -2.0625 C 13.421875 -1.671875 12.078125 -1.484375 10.875 -1.484375 C 7.203125 -1.484375 4.34375 -5.1875 4.34375 -9.703125 C 4.34375 -14.078125 7.140625 -17.875 10.828125 -17.875 C 13.078125 -17.875 14.671875 -17.203125 16.09375 -16.03125 L 16.484375 -18.328125 C 14.921875 -19.296875 12.75 -19.6875 10.90625 -19.6875 C 5.515625 -19.6875 1.84375 -14.8125 1.84375 -9.703125 C 1.84375 -4.625 5.546875 0.3125 10.90625 0.3125 C 12.96875 0.3125 14.859375 -0.25 16.734375 -1.0625 Z M 16.734375 -8.34375 "/>
</symbol>
<symbol overflow="visible" id="glyph1-2">
<path style="stroke:none;" d="M 12.125 -8.3125 C 12.125 -10.15625 11.71875 -12.6875 8.3125 -12.6875 C 5.796875 -12.6875 4.4375 -10.796875 4.265625 -10.578125 L 4.265625 -12.546875 L 2.265625 -12.546875 L 2.265625 0 L 4.4375 0 L 4.4375 -6.828125 C 4.4375 -8.671875 5.125 -10.984375 7.25 -10.984375 C 9.921875 -10.984375 9.953125 -9.015625 9.953125 -8.109375 L 9.953125 0 L 12.125 0 Z M 12.125 -8.3125 "/>
</symbol>
<symbol overflow="visible" id="glyph1-3">
<path style="stroke:none;" d="M 5.015625 -17.0625 L 5.015625 -19.359375 L 2.703125 -19.359375 L 2.703125 -17.046875 L 3.40625 -17.046875 L 2.703125 -13.5625 L 3.84375 -13.5625 Z M 5.015625 -17.0625 "/>
</symbol>
<symbol overflow="visible" id="glyph2-0">
<path style="stroke:none;" d=""/>
</symbol>
<symbol overflow="visible" id="glyph2-1">
<path style="stroke:none;" d="M 8 -19.046875 C 8 -19.078125 8 -19.359375 7.640625 -19.359375 C 7 -19.359375 4.96875 -19.140625 4.234375 -19.078125 C 4.015625 -19.046875 3.703125 -19.015625 3.703125 -18.515625 C 3.703125 -18.1875 3.953125 -18.1875 4.375 -18.1875 C 5.71875 -18.1875 5.765625 -17.984375 5.765625 -17.703125 L 5.6875 -17.15625 L 1.640625 -1.09375 C 1.53125 -0.703125 1.53125 -0.640625 1.53125 -0.46875 C 1.53125 0.171875 2.09375 0.3125 2.34375 0.3125 C 2.796875 0.3125 3.234375 -0.03125 3.375 -0.421875 L 3.90625 -2.53125 L 4.515625 -5.046875 C 4.6875 -5.65625 4.859375 -6.28125 5 -6.921875 C 5.046875 -7.078125 5.265625 -8 5.296875 -8.171875 C 5.390625 -8.421875 6.25 -9.984375 7.203125 -10.734375 C 7.8125 -11.1875 8.671875 -11.71875 9.875 -11.71875 C 11.078125 -11.71875 11.375 -10.765625 11.375 -9.765625 C 11.375 -8.25 10.3125 -5.21875 9.65625 -3.515625 C 9.421875 -2.875 9.28125 -2.53125 9.28125 -1.984375 C 9.28125 -0.671875 10.265625 0.3125 11.578125 0.3125 C 14.203125 0.3125 15.234375 -3.765625 15.234375 -3.984375 C 15.234375 -4.265625 14.984375 -4.265625 14.890625 -4.265625 C 14.609375 -4.265625 14.609375 -4.1875 14.46875 -3.765625 C 14.0625 -2.28125 13.171875 -0.3125 11.625 -0.3125 C 11.15625 -0.3125 10.96875 -0.578125 10.96875 -1.234375 C 10.96875 -1.921875 11.21875 -2.59375 11.46875 -3.203125 C 11.90625 -4.40625 13.171875 -7.71875 13.171875 -9.34375 C 13.171875 -11.15625 12.046875 -12.328125 9.953125 -12.328125 C 8.203125 -12.328125 6.859375 -11.46875 5.828125 -10.1875 Z M 8 -19.046875 "/>
</symbol>
<symbol overflow="visible" id="glyph3-0">
<path style="stroke:none;" d=""/>
</symbol>
<symbol overflow="visible" id="glyph3-1">
<path style="stroke:none;" d="M 9.234375 6.6875 C 9.234375 6.609375 9.234375 6.546875 8.75 6.078125 C 5.265625 2.5625 4.375 -2.703125 4.375 -6.96875 C 4.375 -11.828125 5.4375 -16.671875 8.875 -20.171875 C 9.234375 -20.5 9.234375 -20.5625 9.234375 -20.640625 C 9.234375 -20.828125 9.125 -20.921875 8.953125 -20.921875 C 8.671875 -20.921875 6.15625 -19.015625 4.515625 -15.484375 C 3.09375 -12.40625 2.765625 -9.3125 2.765625 -6.96875 C 2.765625 -4.796875 3.0625 -1.421875 4.609375 1.734375 C 6.28125 5.15625 8.671875 6.96875 8.953125 6.96875 C 9.125 6.96875 9.234375 6.890625 9.234375 6.6875 Z M 9.234375 6.6875 "/>
</symbol>
<symbol overflow="visible" id="glyph4-0">
<path style="stroke:none;" d=""/>
</symbol>
<symbol overflow="visible" id="glyph4-1">
<path style="stroke:none;" d="M 2.453125 -1.640625 C 2.375 -1.234375 2.203125 -0.578125 2.203125 -0.453125 C 2.203125 0.0625 2.59375 0.3125 3.015625 0.3125 C 3.34375 0.3125 3.84375 0.078125 4.046875 -0.46875 C 4.078125 -0.53125 4.40625 -1.84375 4.578125 -2.53125 L 5.1875 -5.046875 C 5.359375 -5.65625 5.515625 -6.28125 5.65625 -6.921875 C 5.765625 -7.390625 6 -8.203125 6.03125 -8.3125 C 6.4375 -9.171875 7.921875 -11.71875 10.578125 -11.71875 C 11.828125 -11.71875 12.078125 -10.6875 12.078125 -9.765625 C 12.078125 -8.03125 10.703125 -4.46875 10.265625 -3.265625 C 10.015625 -2.625 9.984375 -2.28125 9.984375 -1.984375 C 9.984375 -0.671875 10.96875 0.3125 12.265625 0.3125 C 14.890625 0.3125 15.921875 -3.765625 15.921875 -3.984375 C 15.921875 -4.265625 15.671875 -4.265625 15.59375 -4.265625 C 15.3125 -4.265625 15.3125 -4.1875 15.171875 -3.765625 C 14.609375 -1.875 13.6875 -0.3125 12.328125 -0.3125 C 11.859375 -0.3125 11.65625 -0.578125 11.65625 -1.234375 C 11.65625 -1.921875 11.90625 -2.59375 12.15625 -3.203125 C 12.6875 -4.6875 13.859375 -7.75 13.859375 -9.34375 C 13.859375 -11.21875 12.65625 -12.328125 10.65625 -12.328125 C 8.140625 -12.328125 6.78125 -10.546875 6.296875 -9.90625 C 6.15625 -11.46875 5.015625 -12.328125 3.734375 -12.328125 C 2.453125 -12.328125 1.921875 -11.234375 1.640625 -10.734375 C 1.203125 -9.796875 0.8125 -8.140625 0.8125 -8.03125 C 0.8125 -7.75 1.09375 -7.75 1.140625 -7.75 C 1.421875 -7.75 1.453125 -7.78125 1.625 -8.390625 C 2.09375 -10.375 2.65625 -11.71875 3.65625 -11.71875 C 4.21875 -11.71875 4.515625 -11.34375 4.515625 -10.4375 C 4.515625 -9.84375 4.4375 -9.53125 4.078125 -8.09375 Z M 2.453125 -1.640625 "/>
</symbol>
<symbol overflow="visible" id="glyph5-0">
<path style="stroke:none;" d=""/>
</symbol>
<symbol overflow="visible" id="glyph5-1">
<path style="stroke:none;" d="M 8.0625 -6.96875 C 8.0625 -9.140625 7.75 -12.515625 6.21875 -15.671875 C 4.546875 -19.109375 2.140625 -20.921875 1.875 -20.921875 C 1.703125 -20.921875 1.59375 -20.8125 1.59375 -20.640625 C 1.59375 -20.5625 1.59375 -20.5 2.125 -20 C 4.859375 -17.234375 6.4375 -12.796875 6.4375 -6.96875 C 6.4375 -2.203125 5.40625 2.703125 1.953125 6.21875 C 1.59375 6.546875 1.59375 6.609375 1.59375 6.6875 C 1.59375 6.859375 1.703125 6.96875 1.875 6.96875 C 2.140625 6.96875 4.65625 5.078125 6.296875 1.53125 C 7.71875 -1.53125 8.0625 -4.625 8.0625 -6.96875 Z M 8.0625 -6.96875 "/>
</symbol>
<symbol overflow="visible" id="glyph6-0">
<path style="stroke:none;" d=""/>
</symbol>
<symbol overflow="visible" id="glyph6-1">
<path style="stroke:none;" d="M 8 -19.046875 C 8 -19.078125 8 -19.359375 7.640625 -19.359375 C 7 -19.359375 4.96875 -19.140625 4.234375 -19.078125 C 4.015625 -19.046875 3.703125 -19.015625 3.703125 -18.515625 C 3.703125 -18.1875 3.953125 -18.1875 4.375 -18.1875 C 5.71875 -18.1875 5.765625 -17.984375 5.765625 -17.703125 L 5.6875 -17.15625 L 1.640625 -1.09375 C 1.53125 -0.703125 1.53125 -0.640625 1.53125 -0.46875 C 1.53125 0.171875 2.09375 0.3125 2.34375 0.3125 C 2.796875 0.3125 3.234375 -0.03125 3.375 -0.421875 L 3.90625 -2.53125 L 4.515625 -5.046875 C 4.6875 -5.65625 4.859375 -6.28125 5 -6.921875 C 5.046875 -7.078125 5.265625 -8 5.296875 -8.171875 C 5.390625 -8.421875 6.25 -9.984375 7.203125 -10.734375 C 7.8125 -11.1875 8.671875 -11.71875 9.875 -11.71875 C 11.078125 -11.71875 11.375 -10.765625 11.375 -9.765625 C 11.375 -8.25 10.3125 -5.21875 9.65625 -3.515625 C 9.421875 -2.875 9.28125 -2.53125 9.28125 -1.984375 C 9.28125 -0.671875 10.265625 0.3125 11.578125 0.3125 C 14.203125 0.3125 15.234375 -3.765625 15.234375 -3.984375 C 15.234375 -4.265625 14.984375 -4.265625 14.890625 -4.265625 C 14.609375 -4.265625 14.609375 -4.1875 14.46875 -3.765625 C 14.0625 -2.28125 13.171875 -0.3125 11.625 -0.3125 C 11.15625 -0.3125 10.96875 -0.578125 10.96875 -1.234375 C 10.96875 -1.921875 11.21875 -2.59375 11.46875 -3.203125 C 11.90625 -4.40625 13.171875 -7.71875 13.171875 -9.34375 C 13.171875 -11.15625 12.046875 -12.328125 9.953125 -12.328125 C 8.203125 -12.328125 6.859375 -11.46875 5.828125 -10.1875 Z M 8 -19.046875 "/>
</symbol>
<symbol overflow="visible" id="glyph6-2">
<path style="stroke:none;" d="M 11.046875 -10.59375 C 10.59375 -10.59375 10.203125 -10.59375 9.8125 -10.203125 C 9.375 -9.796875 9.3125 -9.3125 9.3125 -9.125 C 9.3125 -8.453125 9.8125 -8.140625 10.34375 -8.140625 C 11.15625 -8.140625 11.90625 -8.8125 11.90625 -9.921875 C 11.90625 -11.296875 10.59375 -12.328125 8.625 -12.328125 C 4.859375 -12.328125 1.140625 -8.34375 1.140625 -4.40625 C 1.140625 -1.890625 2.765625 0.3125 5.65625 0.3125 C 9.65625 0.3125 12 -2.65625 12 -2.984375 C 12 -3.15625 11.828125 -3.34375 11.65625 -3.34375 C 11.515625 -3.34375 11.46875 -3.296875 11.296875 -3.0625 C 9.09375 -0.3125 6.046875 -0.3125 5.71875 -0.3125 C 3.953125 -0.3125 3.203125 -1.671875 3.203125 -3.34375 C 3.203125 -4.484375 3.765625 -7.203125 4.71875 -8.921875 C 5.578125 -10.515625 7.109375 -11.71875 8.640625 -11.71875 C 9.59375 -11.71875 10.65625 -11.34375 11.046875 -10.59375 Z M 11.046875 -10.59375 "/>
</symbol>
<symbol overflow="visible" id="glyph7-0">
<path style="stroke:none;" d=""/>
</symbol>
<symbol overflow="visible" id="glyph7-1">
<path style="stroke:none;" d="M 9.234375 6.6875 C 9.234375 6.609375 9.234375 6.546875 8.75 6.078125 C 5.265625 2.5625 4.375 -2.703125 4.375 -6.96875 C 4.375 -11.828125 5.4375 -16.671875 8.875 -20.171875 C 9.234375 -20.5 9.234375 -20.5625 9.234375 -20.640625 C 9.234375 -20.828125 9.125 -20.921875 8.953125 -20.921875 C 8.671875 -20.921875 6.15625 -19.015625 4.515625 -15.484375 C 3.09375 -12.40625 2.765625 -9.3125 2.765625 -6.96875 C 2.765625 -4.796875 3.0625 -1.421875 4.609375 1.734375 C 6.28125 5.15625 8.671875 6.96875 8.953125 6.96875 C 9.125 6.96875 9.234375 6.890625 9.234375 6.6875 Z M 9.234375 6.6875 "/>
</symbol>
<symbol overflow="visible" id="glyph8-0">
<path style="stroke:none;" d=""/>
</symbol>
<symbol overflow="visible" id="glyph8-1">
<path style="stroke:none;" d="M 2.453125 -1.640625 C 2.375 -1.234375 2.203125 -0.578125 2.203125 -0.453125 C 2.203125 0.0625 2.59375 0.3125 3.015625 0.3125 C 3.34375 0.3125 3.84375 0.078125 4.046875 -0.46875 C 4.078125 -0.53125 4.40625 -1.84375 4.578125 -2.53125 L 5.1875 -5.046875 C 5.359375 -5.65625 5.515625 -6.28125 5.65625 -6.921875 C 5.765625 -7.390625 6 -8.203125 6.03125 -8.3125 C 6.4375 -9.171875 7.921875 -11.71875 10.578125 -11.71875 C 11.828125 -11.71875 12.078125 -10.6875 12.078125 -9.765625 C 12.078125 -8.03125 10.703125 -4.46875 10.265625 -3.265625 C 10.015625 -2.625 9.984375 -2.28125 9.984375 -1.984375 C 9.984375 -0.671875 10.96875 0.3125 12.265625 0.3125 C 14.890625 0.3125 15.921875 -3.765625 15.921875 -3.984375 C 15.921875 -4.265625 15.671875 -4.265625 15.59375 -4.265625 C 15.3125 -4.265625 15.3125 -4.1875 15.171875 -3.765625 C 14.609375 -1.875 13.6875 -0.3125 12.328125 -0.3125 C 11.859375 -0.3125 11.65625 -0.578125 11.65625 -1.234375 C 11.65625 -1.921875 11.90625 -2.59375 12.15625 -3.203125 C 12.6875 -4.6875 13.859375 -7.75 13.859375 -9.34375 C 13.859375 -11.21875 12.65625 -12.328125 10.65625 -12.328125 C 8.140625 -12.328125 6.78125 -10.546875 6.296875 -9.90625 C 6.15625 -11.46875 5.015625 -12.328125 3.734375 -12.328125 C 2.453125 -12.328125 1.921875 -11.234375 1.640625 -10.734375 C 1.203125 -9.796875 0.8125 -8.140625 0.8125 -8.03125 C 0.8125 -7.75 1.09375 -7.75 1.140625 -7.75 C 1.421875 -7.75 1.453125 -7.78125 1.625 -8.390625 C 2.09375 -10.375 2.65625 -11.71875 3.65625 -11.71875 C 4.21875 -11.71875 4.515625 -11.34375 4.515625 -10.4375 C 4.515625 -9.84375 4.4375 -9.53125 4.078125 -8.09375 Z M 2.453125 -1.640625 "/>
</symbol>
<symbol overflow="visible" id="glyph9-0">
<path style="stroke:none;" d=""/>
</symbol>
<symbol overflow="visible" id="glyph9-1">
<path style="stroke:none;" d="M 5.671875 -9.21875 C 5.828125 -9.546875 5.84375 -9.703125 5.84375 -9.84375 C 5.84375 -10.453125 5.296875 -10.921875 4.6875 -10.921875 C 3.953125 -10.921875 3.71875 -10.3125 3.609375 -10 L 1.03125 -1.546875 C 1.015625 -1.5 0.9375 -1.25 0.9375 -1.234375 C 0.9375 -1 1.546875 -0.796875 1.703125 -0.796875 C 1.84375 -0.796875 1.859375 -0.84375 2 -1.140625 Z M 5.671875 -9.21875 "/>
</symbol>
<symbol overflow="visible" id="glyph10-0">
<path style="stroke:none;" d=""/>
</symbol>
<symbol overflow="visible" id="glyph10-1">
<path style="stroke:none;" d="M 8.0625 -6.96875 C 8.0625 -9.140625 7.75 -12.515625 6.21875 -15.671875 C 4.546875 -19.109375 2.140625 -20.921875 1.875 -20.921875 C 1.703125 -20.921875 1.59375 -20.8125 1.59375 -20.640625 C 1.59375 -20.5625 1.59375 -20.5 2.125 -20 C 4.859375 -17.234375 6.4375 -12.796875 6.4375 -6.96875 C 6.4375 -2.203125 5.40625 2.703125 1.953125 6.21875 C 1.59375 6.546875 1.59375 6.609375 1.59375 6.6875 C 1.59375 6.859375 1.703125 6.96875 1.875 6.96875 C 2.140625 6.96875 4.65625 5.078125 6.296875 1.53125 C 7.71875 -1.53125 8.0625 -4.625 8.0625 -6.96875 Z M 8.0625 -6.96875 "/>
</symbol>
<symbol overflow="visible" id="glyph11-0">
<path style="stroke:none;" d=""/>
</symbol>
<symbol overflow="visible" id="glyph11-1">
<path style="stroke:none;" d="M 9.234375 6.6875 C 9.234375 6.609375 9.234375 6.546875 8.75 6.078125 C 5.265625 2.5625 4.375 -2.703125 4.375 -6.96875 C 4.375 -11.828125 5.4375 -16.671875 8.875 -20.171875 C 9.234375 -20.5 9.234375 -20.5625 9.234375 -20.640625 C 9.234375 -20.828125 9.125 -20.921875 8.953125 -20.921875 C 8.671875 -20.921875 6.15625 -19.015625 4.515625 -15.484375 C 3.09375 -12.40625 2.765625 -9.3125 2.765625 -6.96875 C 2.765625 -4.796875 3.0625 -1.421875 4.609375 1.734375 C 6.28125 5.15625 8.671875 6.96875 8.953125 6.96875 C 9.125 6.96875 9.234375 6.890625 9.234375 6.6875 Z M 9.234375 6.6875 "/>
</symbol>
<symbol overflow="visible" id="glyph12-0">
<path style="stroke:none;" d=""/>
</symbol>
<symbol overflow="visible" id="glyph12-1">
<path style="stroke:none;" d="M 2.453125 -1.640625 C 2.375 -1.234375 2.203125 -0.578125 2.203125 -0.453125 C 2.203125 0.0625 2.59375 0.3125 3.015625 0.3125 C 3.34375 0.3125 3.84375 0.078125 4.046875 -0.46875 C 4.078125 -0.53125 4.40625 -1.84375 4.578125 -2.53125 L 5.1875 -5.046875 C 5.359375 -5.65625 5.515625 -6.28125 5.65625 -6.921875 C 5.765625 -7.390625 6 -8.203125 6.03125 -8.3125 C 6.4375 -9.171875 7.921875 -11.71875 10.578125 -11.71875 C 11.828125 -11.71875 12.078125 -10.6875 12.078125 -9.765625 C 12.078125 -8.03125 10.703125 -4.46875 10.265625 -3.265625 C 10.015625 -2.625 9.984375 -2.28125 9.984375 -1.984375 C 9.984375 -0.671875 10.96875 0.3125 12.265625 0.3125 C 14.890625 0.3125 15.921875 -3.765625 15.921875 -3.984375 C 15.921875 -4.265625 15.671875 -4.265625 15.59375 -4.265625 C 15.3125 -4.265625 15.3125 -4.1875 15.171875 -3.765625 C 14.609375 -1.875 13.6875 -0.3125 12.328125 -0.3125 C 11.859375 -0.3125 11.65625 -0.578125 11.65625 -1.234375 C 11.65625 -1.921875 11.90625 -2.59375 12.15625 -3.203125 C 12.6875 -4.6875 13.859375 -7.75 13.859375 -9.34375 C 13.859375 -11.21875 12.65625 -12.328125 10.65625 -12.328125 C 8.140625 -12.328125 6.78125 -10.546875 6.296875 -9.90625 C 6.15625 -11.46875 5.015625 -12.328125 3.734375 -12.328125 C 2.453125 -12.328125 1.921875 -11.234375 1.640625 -10.734375 C 1.203125 -9.796875 0.8125 -8.140625 0.8125 -8.03125 C 0.8125 -7.75 1.09375 -7.75 1.140625 -7.75 C 1.421875 -7.75 1.453125 -7.78125 1.625 -8.390625 C 2.09375 -10.375 2.65625 -11.71875 3.65625 -11.71875 C 4.21875 -11.71875 4.515625 -11.34375 4.515625 -10.4375 C 4.515625 -9.84375 4.4375 -9.53125 4.078125 -8.09375 Z M 2.453125 -1.640625 "/>
</symbol>
<symbol overflow="visible" id="glyph12-2">
<path style="stroke:none;" d="M 5.65625 -0.03125 C 5.65625 -1.875 4.96875 -2.953125 3.875 -2.953125 C 2.953125 -2.953125 2.40625 -2.265625 2.40625 -1.484375 C 2.40625 -0.71875 2.953125 0 3.875 0 C 4.21875 0 4.578125 -0.109375 4.859375 -0.359375 C 4.9375 -0.421875 4.96875 -0.453125 5 -0.453125 C 5.015625 -0.453125 5.046875 -0.421875 5.046875 -0.03125 C 5.046875 2.03125 4.078125 3.703125 3.15625 4.625 C 2.84375 4.9375 2.84375 5 2.84375 5.078125 C 2.84375 5.265625 2.984375 5.390625 3.125 5.390625 C 3.4375 5.390625 5.65625 3.234375 5.65625 -0.03125 Z M 5.65625 -0.03125 "/>
</symbol>
<symbol overflow="visible" id="glyph12-3">
<path style="stroke:none;" d="M 10.40625 -10.546875 C 9.90625 -11.578125 9.09375 -12.328125 7.84375 -12.328125 C 4.578125 -12.328125 1.109375 -8.234375 1.109375 -4.15625 C 1.109375 -1.53125 2.65625 0.3125 4.828125 0.3125 C 5.390625 0.3125 6.78125 0.1875 8.453125 -1.78125 C 8.671875 -0.609375 9.65625 0.3125 10.984375 0.3125 C 11.96875 0.3125 12.609375 -0.328125 13.046875 -1.234375 C 13.53125 -2.234375 13.890625 -3.9375 13.890625 -3.984375 C 13.890625 -4.265625 13.640625 -4.265625 13.5625 -4.265625 C 13.28125 -4.265625 13.25 -4.15625 13.171875 -3.765625 C 12.6875 -1.953125 12.1875 -0.3125 11.046875 -0.3125 C 10.296875 -0.3125 10.203125 -1.03125 10.203125 -1.59375 C 10.203125 -2.203125 10.265625 -2.421875 10.578125 -3.65625 C 10.875 -4.828125 10.9375 -5.109375 11.1875 -6.15625 L 12.1875 -10.0625 C 12.390625 -10.84375 12.390625 -10.90625 12.390625 -11.015625 C 12.390625 -11.484375 12.046875 -11.765625 11.578125 -11.765625 C 10.90625 -11.765625 10.484375 -11.15625 10.40625 -10.546875 Z M 8.59375 -3.3125 C 8.453125 -2.8125 8.453125 -2.765625 8.03125 -2.28125 C 6.8125 -0.75 5.65625 -0.3125 4.875 -0.3125 C 3.484375 -0.3125 3.09375 -1.84375 3.09375 -2.921875 C 3.09375 -4.328125 3.984375 -7.75 4.625 -9.03125 C 5.5 -10.6875 6.75 -11.71875 7.859375 -11.71875 C 9.671875 -11.71875 10.0625 -9.421875 10.0625 -9.265625 C 10.0625 -9.09375 10.015625 -8.921875 9.984375 -8.78125 Z M 8.59375 -3.3125 "/>
</symbol>
<symbol overflow="visible" id="glyph13-0">
<path style="stroke:none;" d=""/>
</symbol>
<symbol overflow="visible" id="glyph13-1">
<path style="stroke:none;" d="M 5.671875 -9.21875 C 5.828125 -9.546875 5.84375 -9.703125 5.84375 -9.84375 C 5.84375 -10.453125 5.296875 -10.921875 4.6875 -10.921875 C 3.953125 -10.921875 3.71875 -10.3125 3.609375 -10 L 1.03125 -1.546875 C 1.015625 -1.5 0.9375 -1.25 0.9375 -1.234375 C 0.9375 -1 1.546875 -0.796875 1.703125 -0.796875 C 1.84375 -0.796875 1.859375 -0.84375 2 -1.140625 Z M 5.671875 -9.21875 "/>
</symbol>
<symbol overflow="visible" id="glyph14-0">
<path style="stroke:none;" d=""/>
</symbol>
<symbol overflow="visible" id="glyph14-1">
<path style="stroke:none;" d="M 8.0625 -6.96875 C 8.0625 -9.140625 7.75 -12.515625 6.21875 -15.671875 C 4.546875 -19.109375 2.140625 -20.921875 1.875 -20.921875 C 1.703125 -20.921875 1.59375 -20.8125 1.59375 -20.640625 C 1.59375 -20.5625 1.59375 -20.5 2.125 -20 C 4.859375 -17.234375 6.4375 -12.796875 6.4375 -6.96875 C 6.4375 -2.203125 5.40625 2.703125 1.953125 6.21875 C 1.59375 6.546875 1.59375 6.609375 1.59375 6.6875 C 1.59375 6.859375 1.703125 6.96875 1.875 6.96875 C 2.140625 6.96875 4.65625 5.078125 6.296875 1.53125 C 7.71875 -1.53125 8.0625 -4.625 8.0625 -6.96875 Z M 8.0625 -6.96875 "/>
</symbol>
</g>
</defs>
<g id="surface1">
<path style="fill:none;stroke-width:1.2;stroke-linecap:butt;stroke-linejoin:round;stroke:rgb(0%,0%,0%);stroke-opacity:1;stroke-miterlimit:10;" d="M 51.652344 497.275962 C 51.652344 507.154868 43.640625 515.162681 33.761719 515.162681 C 23.882812 515.162681 15.875 507.154868 15.875 497.275962 C 15.875 487.397056 23.882812 479.385337 33.761719 479.385337 C 43.640625 479.385337 51.652344 487.397056 51.652344 497.275962 Z M 51.652344 497.275962 " transform="matrix(1,0,0,-1,13,529.924399)"/>
<g style="fill:rgb(0%,0%,0%);fill-opacity:1;">
  <use xlink:href="#glyph0-1" x="39.55718" y="38.848399"/>
</g>
<path style="fill:none;stroke-width:1.2;stroke-linecap:butt;stroke-linejoin:round;stroke:rgb(0%,0%,0%);stroke-opacity:1;stroke-miterlimit:10;" d="M 323.652344 493.275962 C 323.652344 503.154868 315.640625 511.162681 305.761719 511.162681 C 295.882812 511.162681 287.875 503.154868 287.875 493.275962 C 287.875 483.397056 295.882812 475.385337 305.761719 475.385337 C 315.640625 475.385337 323.652344 483.397056 323.652344 493.275962 Z M 323.652344 493.275962 " transform="matrix(1,0,0,-1,13,529.924399)"/>
<g style="fill:rgb(0%,0%,0%);fill-opacity:1;">
  <use xlink:href="#glyph1-1" x="309.464" y="46.334599"/>
</g>
<path style="fill:none;stroke-width:1.2;stroke-linecap:butt;stroke-linejoin:round;stroke:rgb(0%,0%,0%);stroke-opacity:1;stroke-miterlimit:10;" d="M 159.652344 449.275962 C 159.652344 459.154868 151.640625 467.162681 141.761719 467.162681 C 131.882812 467.162681 123.875 459.154868 123.875 449.275962 C 123.875 439.397056 131.882812 431.385337 141.761719 431.385337 C 151.640625 431.385337 159.652344 439.397056 159.652344 449.275962 Z M 159.652344 449.275962 " transform="matrix(1,0,0,-1,13,529.924399)"/>
<g style="fill:rgb(0%,0%,0%);fill-opacity:1;">
  <use xlink:href="#glyph1-2" x="143.682" y="90.334599"/>
  <use xlink:href="#glyph1-3" x="158.075964" y="90.334599"/>
</g>
<path style="fill:none;stroke-width:2.4;stroke-linecap:butt;stroke-linejoin:round;stroke:rgb(0%,100%,0%);stroke-opacity:1;stroke-dasharray:4;stroke-miterlimit:10;" d="M 51.605469 495.982993 L 287.964844 495.053306 " transform="matrix(1,0,0,-1,13,529.924399)"/>
<path style="fill-rule:evenodd;fill:rgb(0%,100%,0%);fill-opacity:1;stroke-width:2.4;stroke-linecap:butt;stroke-linejoin:round;stroke:rgb(0%,100%,0%);stroke-opacity:1;stroke-miterlimit:10;" d="M 287.964844 495.053306 L 272.984375 500.107993 L 272.945312 490.119712 Z M 287.964844 495.053306 " transform="matrix(1,0,0,-1,13,529.924399)"/>
<path style="fill:none;stroke-width:2.4;stroke-linecap:butt;stroke-linejoin:round;stroke:rgb(100%,0%,0%);stroke-opacity:1;stroke-miterlimit:10;" d="M 47.675781 486.029868 L 123.886719 449.936118 " transform="matrix(1,0,0,-1,13,529.924399)"/>
<path style="fill-rule:evenodd;fill:rgb(100%,0%,0%);fill-opacity:1;stroke-width:2.4;stroke-linecap:butt;stroke-linejoin:round;stroke:rgb(100%,0%,0%);stroke-opacity:1;stroke-miterlimit:10;" d="M 123.886719 449.936118 L 112.46875 460.873618 L 108.191406 451.842368 Z M 123.886719 449.936118 " transform="matrix(1,0,0,-1,13,529.924399)"/>
<path style="fill:none;stroke-width:2.4;stroke-linecap:butt;stroke-linejoin:round;stroke:rgb(100%,0%,0%);stroke-opacity:1;stroke-dasharray:4;stroke-miterlimit:10;" d="M 159.652344 449.361899 L 290.171875 484.506431 " transform="matrix(1,0,0,-1,13,529.924399)"/>
<path style="fill-rule:evenodd;fill:rgb(100%,0%,0%);fill-opacity:1;stroke-width:2.4;stroke-linecap:butt;stroke-linejoin:round;stroke:rgb(100%,0%,0%);stroke-opacity:1;stroke-miterlimit:10;" d="M 290.171875 484.506431 L 274.386719 485.432212 L 276.984375 475.783774 Z M 290.171875 484.506431 " transform="matrix(1,0,0,-1,13,529.924399)"/>
<g style="fill:rgb(0%,0%,0%);fill-opacity:1;">
  <use xlink:href="#glyph2-1" x="157" y="21.9216"/>
</g>
<g style="fill:rgb(0%,0%,0%);fill-opacity:1;">
  <use xlink:href="#glyph3-1" x="173.072" y="21.9216"/>
</g>
<g style="fill:rgb(0%,0%,0%);fill-opacity:1;">
  <use xlink:href="#glyph4-1" x="183.9192" y="21.9216"/>
</g>
<g style="fill:rgb(0%,0%,0%);fill-opacity:1;">
  <use xlink:href="#glyph5-1" x="200.663199" y="21.9216"/>
</g>
<g style="fill:rgb(0%,0%,0%);fill-opacity:1;">
  <use xlink:href="#glyph6-1" x="213" y="93.9216"/>
</g>
<g style="fill:rgb(0%,0%,0%);fill-opacity:1;">
  <use xlink:href="#glyph7-1" x="229.072" y="93.9216"/>
</g>
<g style="fill:rgb(0%,0%,0%);fill-opacity:1;">
  <use xlink:href="#glyph8-1" x="239.9192" y="93.9216"/>
</g>
<g style="fill:rgb(0%,0%,0%);fill-opacity:1;">
  <use xlink:href="#glyph9-1" x="256.663199" y="83.7996"/>
</g>
<g style="fill:rgb(0%,0%,0%);fill-opacity:1;">
  <use xlink:href="#glyph10-1" x="264.489199" y="93.9216"/>
</g>
<g style="fill:rgb(0%,0%,0%);fill-opacity:1;">
  <use xlink:href="#glyph6-2" x="1" y="93.9216"/>
</g>
<g style="fill:rgb(0%,0%,0%);fill-opacity:1;">
  <use xlink:href="#glyph11-1" x="13.0708" y="93.9216"/>
</g>
<g style="fill:rgb(0%,0%,0%);fill-opacity:1;">
  <use xlink:href="#glyph12-1" x="23.9208" y="93.9216"/>
  <use xlink:href="#glyph12-2" x="40.657967" y="93.9216"/>
  <use xlink:href="#glyph12-3" x="53.043471" y="93.9216"/>
  <use xlink:href="#glyph12-2" x="67.772179" y="93.9216"/>
  <use xlink:href="#glyph12-1" x="80.129788" y="93.9216"/>
</g>
<g style="fill:rgb(0%,0%,0%);fill-opacity:1;">
  <use xlink:href="#glyph13-1" x="96.947598" y="83.7996"/>
</g>
<g style="fill:rgb(0%,0%,0%);fill-opacity:1;">
  <use xlink:href="#glyph14-1" x="104.773598" y="93.9216"/>
</g>
</g>
</svg>
