<?xml version="1.0" encoding="UTF-8"?>
<svg xmlns="http://www.w3.org/2000/svg" xmlns:xlink="http://www.w3.org/1999/xlink" width="175pt" height="229pt" viewBox="0 0 175 229" version="1.1">
<defs>
<g>
<symbol overflow="visible" id="glyph0-0">
<path style="stroke:none;" d=""/>
</symbol>
<symbol overflow="visible" id="glyph0-1">
<path style="stroke:none;" d="M 4.09375 -4.171875 C 3.5 -4.5 3.15625 -4.59375 2.546875 -4.59375 C 1.171875 -4.59375 0.359375 -3.390625 0.359375 -2.21875 C 0.359375 -0.984375 1.265625 0.109375 2.515625 0.109375 C 3.046875 0.109375 3.59375 -0.03125 4.140625 -0.40625 L 4.078125 -1.0625 C 3.5625 -0.671875 3.03125 -0.53125 2.515625 -0.53125 C 1.6875 -0.53125 1.140625 -1.25 1.140625 -2.21875 C 1.140625 -3 1.5 -3.953125 2.5625 -3.953125 C 3.078125 -3.953125 3.421875 -3.875 3.96875 -3.515625 Z M 4.09375 -4.171875 "/>
</symbol>
<symbol overflow="visible" id="glyph0-2">
<path style="stroke:none;" d="M 4.34375 -2.96875 C 4.34375 -3.625 4.1875 -4.53125 2.96875 -4.53125 C 2.359375 -4.53125 1.875 -4.234375 1.5625 -3.8125 L 1.5625 -6.921875 L 0.8125 -6.921875 L 0.8125 0 L 1.578125 0 L 1.578125 -2.4375 C 1.578125 -3.09375 1.828125 -3.921875 2.59375 -3.921875 C 3.546875 -3.921875 3.5625 -3.21875 3.5625 -2.90625 L 3.5625 0 L 4.34375 0 Z M 4.34375 -2.96875 "/>
</symbol>
<symbol overflow="visible" id="glyph0-3">
<path style="stroke:none;" d="M 4.125 -2.1875 C 4.125 -2.515625 4.109375 -3.265625 3.734375 -3.875 C 3.3125 -4.484375 2.71875 -4.59375 2.359375 -4.59375 C 1.25 -4.59375 0.34375 -3.53125 0.34375 -2.25 C 0.34375 -0.9375 1.3125 0.109375 2.5 0.109375 C 3.125 0.109375 3.703125 -0.125 4.09375 -0.40625 L 4.03125 -1.0625 C 3.40625 -0.53125 2.734375 -0.5 2.515625 -0.5 C 1.71875 -0.5 1.078125 -1.203125 1.046875 -2.1875 Z M 1.09375 -2.734375 C 1.25 -3.484375 1.78125 -3.984375 2.359375 -3.984375 C 2.875 -3.984375 3.421875 -3.65625 3.5625 -2.734375 Z M 1.09375 -2.734375 "/>
</symbol>
<symbol overflow="visible" id="glyph0-4">
<path style="stroke:none;" d="M 2.796875 -2.71875 L 4.46875 -4.421875 L 3.578125 -4.421875 L 1.5625 -2.359375 L 1.5625 -6.921875 L 0.84375 -6.921875 L 0.84375 0 L 1.53125 0 L 1.53125 -1.40625 L 2.328125 -2.234375 L 3.875 0 L 4.6875 0 Z M 2.796875 -2.71875 "/>
</symbol>
<symbol overflow="visible" id="glyph0-5">
<path style="stroke:none;" d="M 1.796875 -4.421875 L 0.96875 -4.421875 L 0.96875 -3.59375 L 1.796875 -3.59375 Z M 0.96875 -0.828125 L 0.96875 0 L 1.796875 0 L 1.796875 -0.828125 Z M 0.96875 -0.828125 "/>
</symbol>
<symbol overflow="visible" id="glyph0-6">
<path style="stroke:none;" d="M 4.34375 -2.96875 C 4.34375 -3.625 4.1875 -4.53125 2.96875 -4.53125 C 2.078125 -4.53125 1.578125 -3.859375 1.53125 -3.78125 L 1.53125 -4.484375 L 0.8125 -4.484375 L 0.8125 0 L 1.578125 0 L 1.578125 -2.4375 C 1.578125 -3.09375 1.828125 -3.921875 2.59375 -3.921875 C 3.546875 -3.921875 3.5625 -3.21875 3.5625 -2.90625 L 3.5625 0 L 4.34375 0 Z M 4.34375 -2.96875 "/>
</symbol>
<symbol overflow="visible" id="glyph0-7">
<path style="stroke:none;" d="M 4.671875 -2.1875 C 4.671875 -3.53125 3.671875 -4.59375 2.5 -4.59375 C 1.265625 -4.59375 0.296875 -3.5 0.296875 -2.1875 C 0.296875 -0.875 1.3125 0.109375 2.484375 0.109375 C 3.671875 0.109375 4.671875 -0.890625 4.671875 -2.1875 Z M 2.484375 -0.53125 C 1.796875 -0.53125 1.078125 -1.09375 1.078125 -2.296875 C 1.078125 -3.5 1.828125 -3.984375 2.484375 -3.984375 C 3.1875 -3.984375 3.890625 -3.46875 3.890625 -2.296875 C 3.890625 -1.109375 3.21875 -0.53125 2.484375 -0.53125 Z M 2.484375 -0.53125 "/>
</symbol>
<symbol overflow="visible" id="glyph0-8">
<path style="stroke:none;" d="M 1.75 -3.84375 L 3.15625 -3.84375 L 3.15625 -4.421875 L 1.75 -4.421875 L 1.75 -5.6875 L 1.0625 -5.6875 L 1.0625 -4.421875 L 0.1875 -4.421875 L 0.1875 -3.84375 L 1.03125 -3.84375 L 1.03125 -1.1875 C 1.03125 -0.59375 1.171875 0.109375 1.859375 0.109375 C 2.546875 0.109375 3.0625 -0.140625 3.3125 -0.265625 L 3.15625 -0.859375 C 2.890625 -0.640625 2.578125 -0.53125 2.25 -0.53125 C 1.890625 -0.53125 1.75 -0.828125 1.75 -1.359375 Z M 1.75 -3.84375 "/>
</symbol>
<symbol overflow="visible" id="glyph0-9">
<path style="stroke:none;" d="M 1.625 -6.78125 L 0.734375 -6.78125 L 0.734375 -5.890625 L 1.625 -5.890625 Z M 1.5625 -4.421875 L 0.8125 -4.421875 L 0.8125 0 L 1.5625 0 Z M 1.5625 -4.421875 "/>
</symbol>
<symbol overflow="visible" id="glyph0-10">
<path style="stroke:none;" d="M 2.59375 -2.28125 L 4.421875 -4.421875 L 3.59375 -4.421875 L 2.265625 -2.78125 L 0.890625 -4.421875 L 0.0625 -4.421875 L 1.9375 -2.28125 L 0 0 L 0.8125 0 L 2.265625 -1.875 L 3.765625 0 L 4.578125 0 Z M 2.59375 -2.28125 "/>
</symbol>
<symbol overflow="visible" id="glyph0-11">
<path style="stroke:none;" d="M 1.59375 -0.453125 C 1.90625 -0.171875 2.34375 0.109375 2.9375 0.109375 C 3.90625 0.109375 4.78125 -0.875 4.78125 -2.21875 C 4.78125 -3.421875 4.15625 -4.53125 3.203125 -4.53125 C 2.609375 -4.53125 2.03125 -4.328125 1.5625 -3.9375 L 1.5625 -4.421875 L 0.8125 -4.421875 L 0.8125 1.9375 L 1.59375 1.9375 Z M 1.59375 -3.3125 C 1.828125 -3.671875 2.21875 -3.890625 2.65625 -3.890625 C 3.40625 -3.890625 4 -3.140625 4 -2.21875 C 4 -1.203125 3.296875 -0.5 2.546875 -0.5 C 2.15625 -0.5 1.890625 -0.703125 1.6875 -0.96875 C 1.59375 -1.109375 1.59375 -1.140625 1.59375 -1.3125 Z M 1.59375 -3.3125 "/>
</symbol>
<symbol overflow="visible" id="glyph0-12">
<path style="stroke:none;" d="M 1.5625 -6.921875 L 0.8125 -6.921875 L 0.8125 0 L 1.5625 0 Z M 1.5625 -6.921875 "/>
</symbol>
<symbol overflow="visible" id="glyph0-13">
<path style="stroke:none;" d="M 1.5625 -2.140625 C 1.5625 -3.125 2.28125 -3.84375 3.265625 -3.875 L 3.265625 -4.53125 C 2.375 -4.53125 1.828125 -4.03125 1.515625 -3.578125 L 1.515625 -4.484375 L 0.8125 -4.484375 L 0.8125 0 L 1.5625 0 Z M 1.5625 -2.140625 "/>
</symbol>
<symbol overflow="visible" id="glyph0-14">
<path style="stroke:none;" d="M 4.328125 -6.921875 L 3.578125 -6.921875 L 3.578125 -3.984375 C 3.046875 -4.421875 2.5 -4.53125 2.125 -4.53125 C 1.140625 -4.53125 0.359375 -3.5 0.359375 -2.21875 C 0.359375 -0.90625 1.125 0.109375 2.078125 0.109375 C 2.40625 0.109375 2.984375 0.015625 3.546875 -0.515625 L 3.546875 0 L 4.328125 0 Z M 3.546875 -1.390625 C 3.546875 -1.25 3.53125 -1.0625 3.21875 -0.78125 C 2.984375 -0.578125 2.734375 -0.5 2.484375 -0.5 C 1.859375 -0.5 1.140625 -0.96875 1.140625 -2.203125 C 1.140625 -3.515625 2 -3.921875 2.578125 -3.921875 C 3.03125 -3.921875 3.328125 -3.703125 3.546875 -3.375 Z M 3.546875 -1.390625 "/>
</symbol>
<symbol overflow="visible" id="glyph0-15">
<path style="stroke:none;" d="M 3.421875 -4.28125 C 2.90625 -4.515625 2.5 -4.59375 1.984375 -4.59375 C 1.734375 -4.59375 0.328125 -4.59375 0.328125 -3.296875 C 0.328125 -2.796875 0.625 -2.484375 0.875 -2.296875 C 1.171875 -2.078125 1.390625 -2.03125 1.9375 -1.921875 C 2.296875 -1.859375 2.875 -1.734375 2.875 -1.203125 C 2.875 -0.515625 2.09375 -0.515625 1.9375 -0.515625 C 1.140625 -0.515625 0.578125 -0.890625 0.40625 -1 L 0.28125 -0.328125 C 0.59375 -0.171875 1.140625 0.109375 1.953125 0.109375 C 2.140625 0.109375 2.6875 0.109375 3.109375 -0.203125 C 3.421875 -0.453125 3.59375 -0.84375 3.59375 -1.28125 C 3.59375 -1.828125 3.21875 -2.15625 3.203125 -2.1875 C 2.8125 -2.546875 2.546875 -2.609375 2.046875 -2.6875 C 1.5 -2.796875 1.03125 -2.90625 1.03125 -3.390625 C 1.03125 -4 1.75 -4 1.890625 -4 C 2.203125 -4 2.734375 -3.96875 3.296875 -3.625 Z M 3.421875 -4.28125 "/>
</symbol>
<symbol overflow="visible" id="glyph0-16">
<path style="stroke:none;" d="M 4.453125 -4.421875 L 3.703125 -4.421875 L 2.90625 -2.359375 C 2.703125 -1.796875 2.390625 -1 2.3125 -0.53125 L 2.296875 -0.53125 C 2.25 -0.890625 1.984375 -1.578125 1.890625 -1.84375 L 0.921875 -4.421875 L 0.140625 -4.421875 L 1.859375 0 L 2.734375 0 Z M 4.453125 -4.421875 "/>
</symbol>
<symbol overflow="visible" id="glyph0-17">
<path style="stroke:none;" d="M 3.984375 -2.875 C 3.984375 -3.890625 3.25 -4.59375 2.328125 -4.59375 C 1.6875 -4.59375 1.234375 -4.4375 0.765625 -4.171875 L 0.828125 -3.515625 C 1.34375 -3.875 1.84375 -4 2.328125 -4 C 2.796875 -4 3.203125 -3.609375 3.203125 -2.875 L 3.203125 -2.4375 C 1.703125 -2.421875 0.4375 -2 0.4375 -1.125 C 0.4375 -0.703125 0.703125 0.109375 1.578125 0.109375 C 1.71875 0.109375 2.65625 0.09375 3.234375 -0.359375 L 3.234375 0 L 3.984375 0 Z M 3.203125 -1.3125 C 3.203125 -1.125 3.203125 -0.875 2.859375 -0.6875 C 2.578125 -0.515625 2.1875 -0.5 2.078125 -0.5 C 1.609375 -0.5 1.15625 -0.734375 1.15625 -1.140625 C 1.15625 -1.84375 2.765625 -1.90625 3.203125 -1.9375 Z M 3.203125 -1.3125 "/>
</symbol>
<symbol overflow="visible" id="glyph1-0">
<path style="stroke:none;" d=""/>
</symbol>
<symbol overflow="visible" id="glyph1-1">
<path style="stroke:none;" d="M 2.984375 -6.765625 L 2.78125 -6.765625 C 2.1875 -6.15625 1.359375 -6.125 0.890625 -6.09375 L 0.890625 -5.515625 C 1.21875 -5.53125 1.6875 -5.546875 2.1875 -5.765625 L 2.1875 -0.578125 L 0.953125 -0.578125 L 0.953125 0 L 4.234375 0 L 4.234375 -0.578125 L 2.984375 -0.578125 Z M 2.984375 -6.765625 "/>
</symbol>
<symbol overflow="visible" id="glyph1-2">
<path style="stroke:none;" d="M 1.796875 -0.828125 L 0.96875 -0.828125 L 0.96875 0 L 1.796875 0 Z M 1.796875 -0.828125 "/>
</symbol>
<symbol overflow="visible" id="glyph1-3">
<path style="stroke:none;" d="M 1.734375 -1.875 L 0.5 -0.640625 L 0.5 0 L 4.46875 0 L 4.46875 -0.703125 L 2.65625 -0.703125 C 2.546875 -0.703125 2.421875 -0.703125 2.296875 -0.703125 L 1.21875 -0.703125 C 1.53125 -0.984375 2.296875 -1.71875 2.609375 -2.015625 C 2.796875 -2.1875 3.296875 -2.609375 3.484375 -2.796875 C 3.9375 -3.234375 4.46875 -3.765625 4.46875 -4.609375 C 4.46875 -5.765625 3.671875 -6.765625 2.359375 -6.765625 C 1.21875 -6.765625 0.65625 -5.984375 0.421875 -5.125 C 0.53125 -4.953125 0.59375 -4.890625 0.609375 -4.859375 C 0.625 -4.84375 0.734375 -4.71875 0.828125 -4.578125 C 1.03125 -5.34375 1.3125 -6.125 2.21875 -6.125 C 3.15625 -6.125 3.65625 -5.375 3.65625 -4.59375 C 3.65625 -3.75 3.09375 -3.1875 2.5 -2.578125 Z M 1.734375 -1.875 "/>
</symbol>
<symbol overflow="visible" id="glyph1-4">
<path style="stroke:none;" d="M 0.921875 -5.125 C 1.203125 -5.828125 1.859375 -6.1875 2.46875 -6.1875 C 2.984375 -6.1875 3.46875 -5.875 3.46875 -5.25 C 3.46875 -4.640625 3.0625 -4.046875 2.453125 -3.90625 C 2.390625 -3.890625 2.375 -3.890625 1.671875 -3.84375 L 1.671875 -3.234375 L 2.375 -3.234375 C 3.453125 -3.234375 3.671875 -2.296875 3.671875 -1.796875 C 3.671875 -1.03125 3.203125 -0.390625 2.4375 -0.390625 C 1.75 -0.390625 0.96875 -0.734375 0.53125 -1.421875 L 0.421875 -0.8125 C 1.140625 0.125 2.0625 0.21875 2.46875 0.21875 C 3.671875 0.21875 4.5625 -0.75 4.5625 -1.796875 C 4.5625 -2.703125 3.859375 -3.3125 3.1875 -3.53125 C 3.9375 -3.9375 4.28125 -4.609375 4.28125 -5.25 C 4.28125 -6.09375 3.453125 -6.765625 2.46875 -6.765625 C 1.703125 -6.765625 0.984375 -6.359375 0.5625 -5.65625 Z M 0.921875 -5.125 "/>
</symbol>
<symbol overflow="visible" id="glyph2-0">
<path style="stroke:none;" d=""/>
</symbol>
<symbol overflow="visible" id="glyph2-1">
<path style="stroke:none;" d="M 4.328125 -6.921875 L 3.578125 -6.921875 L 3.578125 -3.984375 C 3.046875 -4.421875 2.5 -4.53125 2.125 -4.53125 C 1.140625 -4.53125 0.359375 -3.5 0.359375 -2.21875 C 0.359375 -0.90625 1.125 0.109375 2.078125 0.109375 C 2.40625 0.109375 2.984375 0.015625 3.546875 -0.515625 L 3.546875 0 L 4.328125 0 Z M 3.546875 -1.390625 C 3.546875 -1.25 3.53125 -1.0625 3.21875 -0.78125 C 2.984375 -0.578125 2.734375 -0.5 2.484375 -0.5 C 1.859375 -0.5 1.140625 -0.96875 1.140625 -2.203125 C 1.140625 -3.515625 2 -3.921875 2.578125 -3.921875 C 3.03125 -3.921875 3.328125 -3.703125 3.546875 -3.375 Z M 3.546875 -1.390625 "/>
</symbol>
<symbol overflow="visible" id="glyph2-2">
<path style="stroke:none;" d="M 1.625 -6.78125 L 0.734375 -6.78125 L 0.734375 -5.890625 L 1.625 -5.890625 Z M 1.5625 -4.421875 L 0.8125 -4.421875 L 0.8125 0 L 1.5625 0 Z M 1.5625 -4.421875 "/>
</symbol>
<symbol overflow="visible" id="glyph2-3">
<path style="stroke:none;" d="M 3.421875 -4.28125 C 2.90625 -4.515625 2.5 -4.59375 1.984375 -4.59375 C 1.734375 -4.59375 0.328125 -4.59375 0.328125 -3.296875 C 0.328125 -2.796875 0.625 -2.484375 0.875 -2.296875 C 1.171875 -2.078125 1.390625 -2.03125 1.9375 -1.921875 C 2.296875 -1.859375 2.875 -1.734375 2.875 -1.203125 C 2.875 -0.515625 2.09375 -0.515625 1.9375 -0.515625 C 1.140625 -0.515625 0.578125 -0.890625 0.40625 -1 L 0.28125 -0.328125 C 0.59375 -0.171875 1.140625 0.109375 1.953125 0.109375 C 2.140625 0.109375 2.6875 0.109375 3.109375 -0.203125 C 3.421875 -0.453125 3.59375 -0.84375 3.59375 -1.28125 C 3.59375 -1.828125 3.21875 -2.15625 3.203125 -2.1875 C 2.8125 -2.546875 2.546875 -2.609375 2.046875 -2.6875 C 1.5 -2.796875 1.03125 -2.90625 1.03125 -3.390625 C 1.03125 -4 1.75 -4 1.890625 -4 C 2.203125 -4 2.734375 -3.96875 3.296875 -3.625 Z M 3.421875 -4.28125 "/>
</symbol>
<symbol overflow="visible" id="glyph2-4">
<path style="stroke:none;" d="M 4.09375 -4.171875 C 3.5 -4.5 3.15625 -4.59375 2.546875 -4.59375 C 1.171875 -4.59375 0.359375 -3.390625 0.359375 -2.21875 C 0.359375 -0.984375 1.265625 0.109375 2.515625 0.109375 C 3.046875 0.109375 3.59375 -0.03125 4.140625 -0.40625 L 4.078125 -1.0625 C 3.5625 -0.671875 3.03125 -0.53125 2.515625 -0.53125 C 1.6875 -0.53125 1.140625 -1.25 1.140625 -2.21875 C 1.140625 -3 1.5 -3.953125 2.5625 -3.953125 C 3.078125 -3.953125 3.421875 -3.875 3.96875 -3.515625 Z M 4.09375 -4.171875 "/>
</symbol>
<symbol overflow="visible" id="glyph2-5">
<path style="stroke:none;" d="M 4.671875 -2.1875 C 4.671875 -3.53125 3.671875 -4.59375 2.5 -4.59375 C 1.265625 -4.59375 0.296875 -3.5 0.296875 -2.1875 C 0.296875 -0.875 1.3125 0.109375 2.484375 0.109375 C 3.671875 0.109375 4.671875 -0.890625 4.671875 -2.1875 Z M 2.484375 -0.53125 C 1.796875 -0.53125 1.078125 -1.09375 1.078125 -2.296875 C 1.078125 -3.5 1.828125 -3.984375 2.484375 -3.984375 C 3.1875 -3.984375 3.890625 -3.46875 3.890625 -2.296875 C 3.890625 -1.109375 3.21875 -0.53125 2.484375 -0.53125 Z M 2.484375 -0.53125 "/>
</symbol>
<symbol overflow="visible" id="glyph2-6">
<path style="stroke:none;" d="M 4.453125 -4.421875 L 3.703125 -4.421875 L 2.90625 -2.359375 C 2.703125 -1.796875 2.390625 -1 2.3125 -0.53125 L 2.296875 -0.53125 C 2.25 -0.890625 1.984375 -1.578125 1.890625 -1.84375 L 0.921875 -4.421875 L 0.140625 -4.421875 L 1.859375 0 L 2.734375 0 Z M 4.453125 -4.421875 "/>
</symbol>
<symbol overflow="visible" id="glyph2-7">
<path style="stroke:none;" d="M 4.125 -2.1875 C 4.125 -2.515625 4.109375 -3.265625 3.734375 -3.875 C 3.3125 -4.484375 2.71875 -4.59375 2.359375 -4.59375 C 1.25 -4.59375 0.34375 -3.53125 0.34375 -2.25 C 0.34375 -0.9375 1.3125 0.109375 2.5 0.109375 C 3.125 0.109375 3.703125 -0.125 4.09375 -0.40625 L 4.03125 -1.0625 C 3.40625 -0.53125 2.734375 -0.5 2.515625 -0.5 C 1.71875 -0.5 1.078125 -1.203125 1.046875 -2.1875 Z M 1.09375 -2.734375 C 1.25 -3.484375 1.78125 -3.984375 2.359375 -3.984375 C 2.875 -3.984375 3.421875 -3.65625 3.5625 -2.734375 Z M 1.09375 -2.734375 "/>
</symbol>
<symbol overflow="visible" id="glyph2-8">
<path style="stroke:none;" d="M 1.5625 -2.140625 C 1.5625 -3.125 2.28125 -3.84375 3.265625 -3.875 L 3.265625 -4.53125 C 2.375 -4.53125 1.828125 -4.03125 1.515625 -3.578125 L 1.515625 -4.484375 L 0.8125 -4.484375 L 0.8125 0 L 1.5625 0 Z M 1.5625 -2.140625 "/>
</symbol>
<symbol overflow="visible" id="glyph2-9">
<path style="stroke:none;" d="M 2.703125 -7.484375 C 2.375 -7.171875 1.71875 -6.5625 1.25 -5.34375 C 0.859375 -4.28125 0.78125 -3.21875 0.78125 -2.5 C 0.78125 0.734375 2.21875 2.046875 2.703125 2.5 L 3.3125 2.5 C 2.828125 2.015625 1.5625 0.734375 1.5625 -2.5 C 1.5625 -3.046875 1.59375 -4.21875 2 -5.390625 C 2.40625 -6.546875 2.984375 -7.140625 3.3125 -7.484375 Z M 2.703125 -7.484375 "/>
</symbol>
<symbol overflow="visible" id="glyph2-10">
<path style="stroke:none;" d="M 1.5625 -6.921875 L 0.8125 -6.921875 L 0.8125 0 L 1.59375 0 L 1.59375 -0.453125 C 1.828125 -0.234375 2.265625 0.109375 2.9375 0.109375 C 3.921875 0.109375 4.78125 -0.890625 4.78125 -2.21875 C 4.78125 -3.453125 4.109375 -4.53125 3.171875 -4.53125 C 2.78125 -4.53125 2.15625 -4.4375 1.5625 -3.953125 Z M 1.59375 -3.34375 C 1.75 -3.578125 2.109375 -3.921875 2.65625 -3.921875 C 3.25 -3.921875 4 -3.5 4 -2.21875 C 4 -0.921875 3.171875 -0.5 2.5625 -0.5 C 2.171875 -0.5 1.84375 -0.671875 1.59375 -1.140625 Z M 1.59375 -3.34375 "/>
</symbol>
<symbol overflow="visible" id="glyph2-11">
<path style="stroke:none;" d="M 3.984375 -2.875 C 3.984375 -3.890625 3.25 -4.59375 2.328125 -4.59375 C 1.6875 -4.59375 1.234375 -4.4375 0.765625 -4.171875 L 0.828125 -3.515625 C 1.34375 -3.875 1.84375 -4 2.328125 -4 C 2.796875 -4 3.203125 -3.609375 3.203125 -2.875 L 3.203125 -2.4375 C 1.703125 -2.421875 0.4375 -2 0.4375 -1.125 C 0.4375 -0.703125 0.703125 0.109375 1.578125 0.109375 C 1.71875 0.109375 2.65625 0.09375 3.234375 -0.359375 L 3.234375 0 L 3.984375 0 Z M 3.203125 -1.3125 C 3.203125 -1.125 3.203125 -0.875 2.859375 -0.6875 C 2.578125 -0.515625 2.1875 -0.5 2.078125 -0.5 C 1.609375 -0.5 1.15625 -0.734375 1.15625 -1.140625 C 1.15625 -1.84375 2.765625 -1.90625 3.203125 -1.9375 Z M 3.203125 -1.3125 "/>
</symbol>
<symbol overflow="visible" id="glyph2-12">
<path style="stroke:none;" d="M 3.515625 -3.890625 C 3.734375 -3.890625 4 -3.9375 4.25 -3.9375 C 4.421875 -3.9375 4.8125 -3.90625 4.828125 -3.90625 L 4.71875 -4.53125 C 4.03125 -4.53125 3.453125 -4.34375 3.15625 -4.21875 C 2.9375 -4.390625 2.609375 -4.53125 2.203125 -4.53125 C 1.34375 -4.53125 0.625 -3.8125 0.625 -2.90625 C 0.625 -2.546875 0.75 -2.1875 0.953125 -1.921875 C 0.65625 -1.515625 0.65625 -1.125 0.65625 -1.078125 C 0.65625 -0.8125 0.75 -0.53125 0.921875 -0.3125 C 0.40625 -0.015625 0.28125 0.453125 0.28125 0.703125 C 0.28125 1.453125 1.265625 2.046875 2.484375 2.046875 C 3.703125 2.046875 4.6875 1.46875 4.6875 0.703125 C 4.6875 -0.6875 3.03125 -0.6875 2.640625 -0.6875 L 1.765625 -0.6875 C 1.640625 -0.6875 1.1875 -0.6875 1.1875 -1.21875 C 1.1875 -1.328125 1.21875 -1.484375 1.296875 -1.578125 C 1.5 -1.421875 1.828125 -1.28125 2.203125 -1.28125 C 3.09375 -1.28125 3.796875 -2.03125 3.796875 -2.90625 C 3.796875 -3.390625 3.578125 -3.765625 3.46875 -3.90625 Z M 2.203125 -1.859375 C 1.828125 -1.859375 1.3125 -2.078125 1.3125 -2.90625 C 1.3125 -3.734375 1.828125 -3.96875 2.203125 -3.96875 C 2.625 -3.96875 3.09375 -3.6875 3.09375 -2.90625 C 3.09375 -2.140625 2.625 -1.859375 2.203125 -1.859375 Z M 2.65625 0.03125 C 2.875 0.03125 4 0.03125 4 0.71875 C 4 1.15625 3.3125 1.484375 2.5 1.484375 C 1.6875 1.484375 0.984375 1.171875 0.984375 0.703125 C 0.984375 0.671875 0.984375 0.03125 1.75 0.03125 Z M 2.65625 0.03125 "/>
</symbol>
<symbol overflow="visible" id="glyph2-13">
<path style="stroke:none;" d="M 1.171875 2.5 C 1.484375 2.1875 2.15625 1.578125 2.609375 0.359375 C 3.015625 -0.703125 3.078125 -1.765625 3.078125 -2.5 C 3.078125 -5.71875 1.640625 -7.03125 1.171875 -7.484375 L 0.5625 -7.484375 C 1.03125 -7 2.296875 -5.71875 2.296875 -2.5 C 2.296875 -1.9375 2.265625 -0.765625 1.859375 0.40625 C 1.453125 1.5625 0.890625 2.15625 0.5625 2.5 Z M 1.171875 2.5 "/>
</symbol>
<symbol overflow="visible" id="glyph2-14">
<path style="stroke:none;" d="M 2.59375 -2.28125 L 4.421875 -4.421875 L 3.59375 -4.421875 L 2.265625 -2.78125 L 0.890625 -4.421875 L 0.0625 -4.421875 L 1.9375 -2.28125 L 0 0 L 0.8125 0 L 2.265625 -1.875 L 3.765625 0 L 4.578125 0 Z M 2.59375 -2.28125 "/>
</symbol>
<symbol overflow="visible" id="glyph2-15">
<path style="stroke:none;" d="M 1.59375 -0.453125 C 1.90625 -0.171875 2.34375 0.109375 2.9375 0.109375 C 3.90625 0.109375 4.78125 -0.875 4.78125 -2.21875 C 4.78125 -3.421875 4.15625 -4.53125 3.203125 -4.53125 C 2.609375 -4.53125 2.03125 -4.328125 1.5625 -3.9375 L 1.5625 -4.421875 L 0.8125 -4.421875 L 0.8125 1.9375 L 1.59375 1.9375 Z M 1.59375 -3.3125 C 1.828125 -3.671875 2.21875 -3.890625 2.65625 -3.890625 C 3.40625 -3.890625 4 -3.140625 4 -2.21875 C 4 -1.203125 3.296875 -0.5 2.546875 -0.5 C 2.15625 -0.5 1.890625 -0.703125 1.6875 -0.96875 C 1.59375 -1.109375 1.59375 -1.140625 1.59375 -1.3125 Z M 1.59375 -3.3125 "/>
</symbol>
<symbol overflow="visible" id="glyph2-16">
<path style="stroke:none;" d="M 1.5625 -6.921875 L 0.8125 -6.921875 L 0.8125 0 L 1.5625 0 Z M 1.5625 -6.921875 "/>
</symbol>
<symbol overflow="visible" id="glyph2-17">
<path style="stroke:none;" d="M 1.75 -3.84375 L 3.15625 -3.84375 L 3.15625 -4.421875 L 1.75 -4.421875 L 1.75 -5.6875 L 1.0625 -5.6875 L 1.0625 -4.421875 L 0.1875 -4.421875 L 0.1875 -3.84375 L 1.03125 -3.84375 L 1.03125 -1.1875 C 1.03125 -0.59375 1.171875 0.109375 1.859375 0.109375 C 2.546875 0.109375 3.0625 -0.140625 3.3125 -0.265625 L 3.15625 -0.859375 C 2.890625 -0.640625 2.578125 -0.53125 2.25 -0.53125 C 1.890625 -0.53125 1.75 -0.828125 1.75 -1.359375 Z M 1.75 -3.84375 "/>
</symbol>
</g>
</defs>
<g id="surface1">
<g style="fill:rgb(0%,0%,0%);fill-opacity:1;">
  <use xlink:href="#glyph0-1" x="81" y="198.845"/>
  <use xlink:href="#glyph0-2" x="85.423394" y="198.845"/>
  <use xlink:href="#glyph0-3" x="90.564096" y="198.845"/>
  <use xlink:href="#glyph0-1" x="94.98749" y="198.845"/>
  <use xlink:href="#glyph0-4" x="99.410885" y="198.845"/>
  <use xlink:href="#glyph0-5" x="104.272634" y="198.845"/>
  <use xlink:href="#glyph0-6" x="111.336117" y="198.845"/>
  <use xlink:href="#glyph0-7" x="116.476819" y="198.845"/>
  <use xlink:href="#glyph0-8" x="121.458119" y="198.845"/>
  <use xlink:href="#glyph0-9" x="128.123098" y="198.845"/>
  <use xlink:href="#glyph0-6" x="130.494197" y="198.845"/>
  <use xlink:href="#glyph0-3" x="138.703379" y="198.845"/>
  <use xlink:href="#glyph0-10" x="143.126774" y="198.845"/>
  <use xlink:href="#glyph0-11" x="147.719532" y="198.845"/>
  <use xlink:href="#glyph0-12" x="152.860234" y="198.845"/>
  <use xlink:href="#glyph0-7" x="155.231333" y="198.845"/>
  <use xlink:href="#glyph0-13" x="159.943642" y="198.845"/>
  <use xlink:href="#glyph0-3" x="163.340889" y="198.845"/>
  <use xlink:href="#glyph0-14" x="167.764283" y="198.845"/>
</g>
<g style="fill:rgb(0%,0%,0%);fill-opacity:1;">
  <use xlink:href="#glyph1-1" x="1" y="135.926"/>
  <use xlink:href="#glyph1-2" x="5.9813" y="135.926"/>
</g>
<g style="fill:rgb(0%,0%,0%);fill-opacity:1;">
  <use xlink:href="#glyph0-6" x="25" y="135.919"/>
  <use xlink:href="#glyph0-7" x="30.140702" y="135.919"/>
  <use xlink:href="#glyph0-8" x="35.122002" y="135.919"/>
  <use xlink:href="#glyph0-14" x="42.036046" y="135.919"/>
  <use xlink:href="#glyph0-9" x="47.176748" y="135.919"/>
  <use xlink:href="#glyph0-15" x="49.547846" y="135.919"/>
  <use xlink:href="#glyph0-1" x="53.363522" y="135.919"/>
  <use xlink:href="#glyph0-7" x="57.786917" y="135.919"/>
  <use xlink:href="#glyph0-16" x="62.768217" y="135.919"/>
  <use xlink:href="#glyph0-3" x="67.360975" y="135.919"/>
  <use xlink:href="#glyph0-13" x="71.78437" y="135.919"/>
  <use xlink:href="#glyph0-3" x="75.181616" y="135.919"/>
  <use xlink:href="#glyph0-14" x="79.605011" y="135.919"/>
  <use xlink:href="#glyph0-17" x="88.073221" y="135.919"/>
  <use xlink:href="#glyph0-6" x="92.855269" y="135.919"/>
  <use xlink:href="#glyph0-14" x="97.99597" y="135.919"/>
  <use xlink:href="#glyph0-6" x="106.454218" y="135.919"/>
  <use xlink:href="#glyph0-7" x="111.594919" y="135.919"/>
  <use xlink:href="#glyph0-8" x="116.576219" y="135.919"/>
  <use xlink:href="#glyph0-3" x="123.490264" y="135.919"/>
  <use xlink:href="#glyph0-10" x="127.913658" y="135.919"/>
  <use xlink:href="#glyph0-11" x="132.506417" y="135.919"/>
  <use xlink:href="#glyph0-12" x="137.647118" y="135.919"/>
  <use xlink:href="#glyph0-7" x="140.018217" y="135.919"/>
  <use xlink:href="#glyph0-13" x="144.730527" y="135.919"/>
  <use xlink:href="#glyph0-3" x="148.117811" y="135.919"/>
  <use xlink:href="#glyph0-14" x="152.551168" y="135.919"/>
</g>
<path style="fill:none;stroke-width:1.2;stroke-linecap:butt;stroke-linejoin:round;stroke:rgb(0%,0%,0%);stroke-opacity:1;stroke-miterlimit:10;" d="M 28 628.000219 L 28 604.000219 L 124 604.000219 L 124 628.000219 Z M 28 628.000219 " transform="matrix(1,0,0,-1,-3,831.926)"/>
<g style="fill:rgb(0%,0%,0%);fill-opacity:1;">
  <use xlink:href="#glyph1-3" x="1" y="175.926"/>
  <use xlink:href="#glyph1-2" x="5.9813" y="175.926"/>
</g>
<g style="fill:rgb(0%,0%,0%);fill-opacity:1;">
  <use xlink:href="#glyph1-4" x="1" y="215.926"/>
  <use xlink:href="#glyph1-2" x="5.9813" y="215.926"/>
</g>
<g style="fill:rgb(0%,0%,0%);fill-opacity:1;">
  <use xlink:href="#glyph2-1" x="38.629" y="174.417"/>
  <use xlink:href="#glyph2-2" x="43.769702" y="174.417"/>
  <use xlink:href="#glyph2-3" x="46.1408" y="174.417"/>
  <use xlink:href="#glyph2-4" x="49.956476" y="174.417"/>
  <use xlink:href="#glyph2-5" x="54.379871" y="174.417"/>
  <use xlink:href="#glyph2-6" x="59.361171" y="174.417"/>
  <use xlink:href="#glyph2-7" x="63.953929" y="174.417"/>
  <use xlink:href="#glyph2-8" x="68.377324" y="174.417"/>
  <use xlink:href="#glyph2-7" x="71.77457" y="174.417"/>
  <use xlink:href="#glyph2-1" x="76.197965" y="174.417"/>
  <use xlink:href="#glyph2-9" x="84.656212" y="174.417"/>
  <use xlink:href="#glyph2-10" x="88.521701" y="174.417"/>
  <use xlink:href="#glyph2-11" x="93.662402" y="174.417"/>
  <use xlink:href="#glyph2-12" x="98.44445" y="174.417"/>
  <use xlink:href="#glyph2-13" x="103.42575" y="174.417"/>
</g>
<g style="fill:rgb(0%,0%,0%);fill-opacity:1;">
  <use xlink:href="#glyph2-7" x="44.4265" y="218.417"/>
  <use xlink:href="#glyph2-14" x="48.849894" y="218.417"/>
  <use xlink:href="#glyph2-15" x="53.442653" y="218.417"/>
  <use xlink:href="#glyph2-16" x="58.583355" y="218.417"/>
  <use xlink:href="#glyph2-5" x="60.954453" y="218.417"/>
  <use xlink:href="#glyph2-8" x="65.656801" y="218.417"/>
  <use xlink:href="#glyph2-7" x="69.054047" y="218.417"/>
  <use xlink:href="#glyph2-1" x="73.477442" y="218.417"/>
  <use xlink:href="#glyph2-9" x="81.945652" y="218.417"/>
  <use xlink:href="#glyph2-3" x="85.81114" y="218.417"/>
  <use xlink:href="#glyph2-7" x="89.626816" y="218.417"/>
  <use xlink:href="#glyph2-17" x="94.050211" y="218.417"/>
  <use xlink:href="#glyph2-13" x="97.646709" y="218.417"/>
</g>
<path style="fill:none;stroke-width:1.2;stroke-linecap:butt;stroke-linejoin:round;stroke:rgb(0%,0%,0%);stroke-opacity:1;stroke-miterlimit:10;" d="M 76 692.000219 L 76 672.000219 " transform="matrix(1,0,0,-1,-3,831.926)"/>
<path style="fill-rule:evenodd;fill:rgb(0%,0%,0%);fill-opacity:1;stroke-width:1.2;stroke-linecap:butt;stroke-linejoin:round;stroke:rgb(0%,0%,0%);stroke-opacity:1;stroke-miterlimit:10;" d="M 76 672.000219 L 78.332031 679.000219 L 73.667969 679.000219 Z M 76 672.000219 " transform="matrix(1,0,0,-1,-3,831.926)"/>
<path style="fill:none;stroke-width:1.2;stroke-linecap:butt;stroke-linejoin:round;stroke:rgb(0%,0%,0%);stroke-opacity:1;stroke-miterlimit:10;" d="M 28 672.000219 L 28 648.000219 L 124 648.000219 L 124 672.000219 Z M 28 672.000219 " transform="matrix(1,0,0,-1,-3,831.926)"/>
<path style="fill:none;stroke-width:1.2;stroke-linecap:butt;stroke-linejoin:round;stroke:rgb(0%,0%,0%);stroke-opacity:1;stroke-miterlimit:10;" d="M 76 648.000219 L 76 628.000219 " transform="matrix(1,0,0,-1,-3,831.926)"/>
<path style="fill-rule:evenodd;fill:rgb(0%,0%,0%);fill-opacity:1;stroke-width:1.2;stroke-linecap:butt;stroke-linejoin:round;stroke:rgb(0%,0%,0%);stroke-opacity:1;stroke-miterlimit:10;" d="M 76 628.000219 L 78.332031 635.000219 L 73.667969 635.000219 Z M 76 628.000219 " transform="matrix(1,0,0,-1,-3,831.926)"/>
<g style="fill:rgb(0%,0%,0%);fill-opacity:1;">
  <use xlink:href="#glyph1-1" x="1" y="7.926"/>
  <use xlink:href="#glyph1-2" x="5.9813" y="7.926"/>
</g>
<g style="fill:rgb(0%,0%,0%);fill-opacity:1;">
  <use xlink:href="#glyph0-6" x="25" y="7.919"/>
  <use xlink:href="#glyph0-7" x="30.140702" y="7.919"/>
  <use xlink:href="#glyph0-8" x="35.122002" y="7.919"/>
  <use xlink:href="#glyph0-14" x="42.036046" y="7.919"/>
  <use xlink:href="#glyph0-9" x="47.176748" y="7.919"/>
  <use xlink:href="#glyph0-15" x="49.547846" y="7.919"/>
  <use xlink:href="#glyph0-1" x="53.363522" y="7.919"/>
  <use xlink:href="#glyph0-7" x="57.786917" y="7.919"/>
  <use xlink:href="#glyph0-16" x="62.768217" y="7.919"/>
  <use xlink:href="#glyph0-3" x="67.360975" y="7.919"/>
  <use xlink:href="#glyph0-13" x="71.78437" y="7.919"/>
  <use xlink:href="#glyph0-3" x="75.181616" y="7.919"/>
  <use xlink:href="#glyph0-14" x="79.605011" y="7.919"/>
  <use xlink:href="#glyph0-17" x="88.073221" y="7.919"/>
  <use xlink:href="#glyph0-6" x="92.855269" y="7.919"/>
  <use xlink:href="#glyph0-14" x="97.99597" y="7.919"/>
  <use xlink:href="#glyph0-6" x="106.454218" y="7.919"/>
  <use xlink:href="#glyph0-7" x="111.594919" y="7.919"/>
  <use xlink:href="#glyph0-8" x="116.576219" y="7.919"/>
  <use xlink:href="#glyph0-3" x="123.490264" y="7.919"/>
  <use xlink:href="#glyph0-10" x="127.913658" y="7.919"/>
  <use xlink:href="#glyph0-11" x="132.506417" y="7.919"/>
  <use xlink:href="#glyph0-12" x="137.647118" y="7.919"/>
  <use xlink:href="#glyph0-7" x="140.018217" y="7.919"/>
  <use xlink:href="#glyph0-13" x="144.730527" y="7.919"/>
  <use xlink:href="#glyph0-3" x="148.117811" y="7.919"/>
  <use xlink:href="#glyph0-14" x="152.551168" y="7.919"/>
</g>
<path style="fill:none;stroke-width:1.2;stroke-linecap:butt;stroke-linejoin:round;stroke:rgb(0%,0%,0%);stroke-opacity:1;stroke-miterlimit:10;" d="M 28 756.000219 L 28 732.000219 L 124 732.000219 L 124 756.000219 Z M 28 756.000219 " transform="matrix(1,0,0,-1,-3,831.926)"/>
<g style="fill:rgb(0%,0%,0%);fill-opacity:1;">
  <use xlink:href="#glyph1-3" x="1" y="47.926"/>
  <use xlink:href="#glyph1-2" x="5.9813" y="47.926"/>
</g>
<g style="fill:rgb(0%,0%,0%);fill-opacity:1;">
  <use xlink:href="#glyph1-4" x="1" y="87.926"/>
  <use xlink:href="#glyph1-2" x="5.9813" y="87.926"/>
</g>
<g style="fill:rgb(0%,0%,0%);fill-opacity:1;">
  <use xlink:href="#glyph2-1" x="38.629" y="46.4165"/>
  <use xlink:href="#glyph2-2" x="43.769702" y="46.4165"/>
  <use xlink:href="#glyph2-3" x="46.1408" y="46.4165"/>
  <use xlink:href="#glyph2-4" x="49.956476" y="46.4165"/>
  <use xlink:href="#glyph2-5" x="54.379871" y="46.4165"/>
  <use xlink:href="#glyph2-6" x="59.361171" y="46.4165"/>
  <use xlink:href="#glyph2-7" x="63.953929" y="46.4165"/>
  <use xlink:href="#glyph2-8" x="68.377324" y="46.4165"/>
  <use xlink:href="#glyph2-7" x="71.77457" y="46.4165"/>
  <use xlink:href="#glyph2-1" x="76.197965" y="46.4165"/>
  <use xlink:href="#glyph2-9" x="84.656212" y="46.4165"/>
  <use xlink:href="#glyph2-10" x="88.521701" y="46.4165"/>
  <use xlink:href="#glyph2-11" x="93.662402" y="46.4165"/>
  <use xlink:href="#glyph2-12" x="98.44445" y="46.4165"/>
  <use xlink:href="#glyph2-13" x="103.42575" y="46.4165"/>
</g>
<g style="fill:rgb(0%,0%,0%);fill-opacity:1;">
  <use xlink:href="#glyph2-7" x="44.4265" y="90.4165"/>
  <use xlink:href="#glyph2-14" x="48.849894" y="90.4165"/>
  <use xlink:href="#glyph2-15" x="53.442653" y="90.4165"/>
  <use xlink:href="#glyph2-16" x="58.583355" y="90.4165"/>
  <use xlink:href="#glyph2-5" x="60.954453" y="90.4165"/>
  <use xlink:href="#glyph2-8" x="65.656801" y="90.4165"/>
  <use xlink:href="#glyph2-7" x="69.054047" y="90.4165"/>
  <use xlink:href="#glyph2-1" x="73.477442" y="90.4165"/>
  <use xlink:href="#glyph2-9" x="81.945652" y="90.4165"/>
  <use xlink:href="#glyph2-3" x="85.81114" y="90.4165"/>
  <use xlink:href="#glyph2-7" x="89.626816" y="90.4165"/>
  <use xlink:href="#glyph2-17" x="94.050211" y="90.4165"/>
  <use xlink:href="#glyph2-13" x="97.646709" y="90.4165"/>
</g>
<path style="fill:none;stroke-width:1.2;stroke-linecap:butt;stroke-linejoin:round;stroke:rgb(0%,0%,0%);stroke-opacity:1;stroke-miterlimit:10;" d="M 76 820.000219 L 76 800.000219 " transform="matrix(1,0,0,-1,-3,831.926)"/>
<path style="fill-rule:evenodd;fill:rgb(0%,0%,0%);fill-opacity:1;stroke-width:1.2;stroke-linecap:butt;stroke-linejoin:round;stroke:rgb(0%,0%,0%);stroke-opacity:1;stroke-miterlimit:10;" d="M 76 800.000219 L 78.332031 807.000219 L 73.667969 807.000219 Z M 76 800.000219 " transform="matrix(1,0,0,-1,-3,831.926)"/>
<path style="fill:none;stroke-width:1.2;stroke-linecap:butt;stroke-linejoin:round;stroke:rgb(0%,0%,0%);stroke-opacity:1;stroke-miterlimit:10;" d="M 28 800.000219 L 28 776.000219 L 124 776.000219 L 124 800.000219 Z M 28 800.000219 " transform="matrix(1,0,0,-1,-3,831.926)"/>
<path style="fill:none;stroke-width:1.2;stroke-linecap:butt;stroke-linejoin:round;stroke:rgb(0%,0%,0%);stroke-opacity:1;stroke-miterlimit:10;" d="M 76 776.000219 L 76 756.000219 " transform="matrix(1,0,0,-1,-3,831.926)"/>
<path style="fill-rule:evenodd;fill:rgb(0%,0%,0%);fill-opacity:1;stroke-width:1.2;stroke-linecap:butt;stroke-linejoin:round;stroke:rgb(0%,0%,0%);stroke-opacity:1;stroke-miterlimit:10;" d="M 76 756.000219 L 78.332031 763.000219 L 73.667969 763.000219 Z M 76 756.000219 " transform="matrix(1,0,0,-1,-3,831.926)"/>
<g style="fill:rgb(0%,0%,0%);fill-opacity:1;">
  <use xlink:href="#glyph0-1" x="77" y="22.844"/>
  <use xlink:href="#glyph0-2" x="81.423394" y="22.844"/>
  <use xlink:href="#glyph0-3" x="86.564096" y="22.844"/>
  <use xlink:href="#glyph0-1" x="90.98749" y="22.844"/>
  <use xlink:href="#glyph0-4" x="95.410885" y="22.844"/>
</g>
</g>
</svg>
