<?xml version="1.0" encoding="UTF-8"?>
<svg xmlns="http://www.w3.org/2000/svg" xmlns:xlink="http://www.w3.org/1999/xlink" width="226pt" height="162pt" viewBox="0 0 226 162" version="1.1">
<defs>
<g>
<symbol overflow="visible" id="glyph0-0">
<path style="stroke:none;" d=""/>
</symbol>
<symbol overflow="visible" id="glyph0-1">
<path style="stroke:none;" d="M 4.640625 -6.640625 C 4.09375 -6.96875 3.53125 -7.140625 2.8125 -7.140625 C 1.421875 -7.140625 0.5625 -6.15625 0.5625 -5.171875 C 0.5625 -4.75 0.703125 -4.328125 1.09375 -3.90625 C 1.515625 -3.453125 1.953125 -3.34375 2.546875 -3.203125 C 3.390625 -2.984375 3.484375 -2.953125 3.765625 -2.71875 C 3.96875 -2.546875 4.1875 -2.21875 4.1875 -1.78125 C 4.1875 -1.125 3.640625 -0.46875 2.734375 -0.46875 C 2.328125 -0.46875 1.421875 -0.5625 0.59375 -1.28125 L 0.4375 -0.46875 C 1.3125 0.078125 2.109375 0.21875 2.734375 0.21875 C 4.0625 0.21875 4.96875 -0.78125 4.96875 -1.890625 C 4.96875 -2.53125 4.671875 -3.015625 4.453125 -3.25 C 3.984375 -3.75 3.65625 -3.84375 2.734375 -4.0625 C 2.15625 -4.203125 2 -4.25 1.6875 -4.5 C 1.625 -4.5625 1.34375 -4.859375 1.34375 -5.296875 C 1.34375 -5.875 1.890625 -6.484375 2.796875 -6.484375 C 3.640625 -6.484375 4.109375 -6.15625 4.484375 -5.84375 Z M 4.640625 -6.640625 "/>
</symbol>
<symbol overflow="visible" id="glyph0-2">
<path style="stroke:none;" d="M 4.125 -2.1875 C 4.125 -2.515625 4.109375 -3.265625 3.734375 -3.875 C 3.3125 -4.484375 2.71875 -4.59375 2.359375 -4.59375 C 1.25 -4.59375 0.34375 -3.53125 0.34375 -2.25 C 0.34375 -0.9375 1.3125 0.109375 2.5 0.109375 C 3.125 0.109375 3.703125 -0.125 4.09375 -0.40625 L 4.03125 -1.0625 C 3.40625 -0.53125 2.734375 -0.5 2.515625 -0.5 C 1.71875 -0.5 1.078125 -1.203125 1.046875 -2.1875 Z M 1.09375 -2.734375 C 1.25 -3.484375 1.78125 -3.984375 2.359375 -3.984375 C 2.875 -3.984375 3.421875 -3.65625 3.5625 -2.734375 Z M 1.09375 -2.734375 "/>
</symbol>
<symbol overflow="visible" id="glyph0-3">
<path style="stroke:none;" d="M 4.34375 -2.96875 C 4.34375 -3.625 4.1875 -4.53125 2.96875 -4.53125 C 2.078125 -4.53125 1.578125 -3.859375 1.53125 -3.78125 L 1.53125 -4.484375 L 0.8125 -4.484375 L 0.8125 0 L 1.578125 0 L 1.578125 -2.4375 C 1.578125 -3.09375 1.828125 -3.921875 2.59375 -3.921875 C 3.546875 -3.921875 3.5625 -3.21875 3.5625 -2.90625 L 3.5625 0 L 4.34375 0 Z M 4.34375 -2.96875 "/>
</symbol>
<symbol overflow="visible" id="glyph0-4">
<path style="stroke:none;" d="M 3.421875 -4.28125 C 2.90625 -4.515625 2.5 -4.59375 1.984375 -4.59375 C 1.734375 -4.59375 0.328125 -4.59375 0.328125 -3.296875 C 0.328125 -2.796875 0.625 -2.484375 0.875 -2.296875 C 1.171875 -2.078125 1.390625 -2.03125 1.9375 -1.921875 C 2.296875 -1.859375 2.875 -1.734375 2.875 -1.203125 C 2.875 -0.515625 2.09375 -0.515625 1.9375 -0.515625 C 1.140625 -0.515625 0.578125 -0.890625 0.40625 -1 L 0.28125 -0.328125 C 0.59375 -0.171875 1.140625 0.109375 1.953125 0.109375 C 2.140625 0.109375 2.6875 0.109375 3.109375 -0.203125 C 3.421875 -0.453125 3.59375 -0.84375 3.59375 -1.28125 C 3.59375 -1.828125 3.21875 -2.15625 3.203125 -2.1875 C 2.8125 -2.546875 2.546875 -2.609375 2.046875 -2.6875 C 1.5 -2.796875 1.03125 -2.90625 1.03125 -3.390625 C 1.03125 -4 1.75 -4 1.890625 -4 C 2.203125 -4 2.734375 -3.96875 3.296875 -3.625 Z M 3.421875 -4.28125 "/>
</symbol>
<symbol overflow="visible" id="glyph0-5">
<path style="stroke:none;" d="M 4.671875 -2.1875 C 4.671875 -3.53125 3.671875 -4.59375 2.5 -4.59375 C 1.265625 -4.59375 0.296875 -3.5 0.296875 -2.1875 C 0.296875 -0.875 1.3125 0.109375 2.484375 0.109375 C 3.671875 0.109375 4.671875 -0.890625 4.671875 -2.1875 Z M 2.484375 -0.53125 C 1.796875 -0.53125 1.078125 -1.09375 1.078125 -2.296875 C 1.078125 -3.5 1.828125 -3.984375 2.484375 -3.984375 C 3.1875 -3.984375 3.890625 -3.46875 3.890625 -2.296875 C 3.890625 -1.109375 3.21875 -0.53125 2.484375 -0.53125 Z M 2.484375 -0.53125 "/>
</symbol>
<symbol overflow="visible" id="glyph0-6">
<path style="stroke:none;" d="M 1.5625 -2.140625 C 1.5625 -3.125 2.28125 -3.84375 3.265625 -3.875 L 3.265625 -4.53125 C 2.375 -4.53125 1.828125 -4.03125 1.515625 -3.578125 L 1.515625 -4.484375 L 0.8125 -4.484375 L 0.8125 0 L 1.5625 0 Z M 1.5625 -2.140625 "/>
</symbol>
<symbol overflow="visible" id="glyph1-0">
<path style="stroke:none;" d=""/>
</symbol>
<symbol overflow="visible" id="glyph1-1">
<path style="stroke:none;" d="M 3.328125 5.078125 L 3.9375 5.078125 L 3.90625 1.796875 L 6.265625 1.765625 L 6.28125 3.140625 C 6.28125 3.25 6.265625 3.375 6.265625 3.5 L 6.28125 5.328125 L 6.9375 5.328125 L 6.90625 0.875 L 0.015625 0.9375 L 0.0625 5.515625 L 0.765625 5.515625 L 0.75 4.265625 C 0.75 4.140625 0.75 4.03125 0.734375 3.90625 L 0.71875 1.828125 L 3.296875 1.796875 Z M 3.328125 5.078125 "/>
</symbol>
<symbol overflow="visible" id="glyph1-2">
<path style="stroke:none;" d="M 6.9375 2.125 L 6.9375 0.890625 L 0.015625 0.953125 L 0.015625 1.734375 L 6.21875 1.671875 L 6.21875 1.6875 C 5.8125 1.875 4.984375 2.3125 4.875 2.359375 L 0.046875 4.859375 L 0.0625 6.09375 L 6.984375 6.03125 L 6.96875 5.25 L 0.75 5.3125 L 0.75 5.296875 C 1.15625 5.09375 2.015625 4.671875 2.125 4.625 Z M 6.9375 2.125 "/>
</symbol>
<symbol overflow="visible" id="glyph1-3">
<path style="stroke:none;" d="M 6.984375 6.4375 L 6.984375 5.65625 L 3.5625 4.359375 C 3.140625 4.203125 1.203125 3.46875 0.75 3.40625 L 0.75 3.390625 C 1.140625 3.296875 2.25 2.859375 2.484375 2.765625 L 6.9375 1 L 6.921875 0.078125 L 0.03125 2.859375 L 0.03125 3.78125 Z M 6.984375 6.4375 "/>
</symbol>
<symbol overflow="visible" id="glyph1-4">
<path style="stroke:none;" d="M 6.9375 1.765625 L 6.9375 0.875 L 0.015625 0.9375 L 0.015625 1.828125 Z M 6.9375 1.765625 "/>
</symbol>
<symbol overflow="visible" id="glyph1-5">
<path style="stroke:none;" d="M 3.296875 4.140625 C 3.59375 5.171875 4.3125 5.828125 5.125 5.828125 C 6.109375 5.8125 6.96875 4.71875 6.953125 3.296875 L 6.9375 0.890625 L 0.015625 0.953125 L 0.015625 1.8125 L 3.171875 1.78125 L 3.1875 3.359375 L 0.046875 5.265625 L 0.0625 6.15625 Z M 3.78125 1.78125 L 6.375 1.75 L 6.390625 3.1875 C 6.40625 4.34375 5.8125 5 5.109375 5.015625 C 4.40625 5.015625 3.8125 4.390625 3.796875 3.21875 Z M 3.78125 1.78125 "/>
</symbol>
<symbol overflow="visible" id="glyph1-6">
<path style="stroke:none;" d="M 3.5 6.734375 C 5.59375 6.703125 7.1875 5.25 7.171875 3.59375 C 7.15625 1.890625 5.515625 0.5 3.4375 0.53125 C 1.328125 0.546875 -0.203125 2.03125 -0.1875 3.65625 C -0.171875 5.328125 1.40625 6.75 3.5 6.734375 Z M 0.453125 3.671875 C 0.453125 2.5 1.6875 1.4375 3.609375 1.421875 C 5.421875 1.40625 6.53125 2.484375 6.53125 3.59375 C 6.546875 4.75 5.4375 5.828125 3.65625 5.84375 C 1.703125 5.859375 0.46875 4.8125 0.453125 3.671875 Z M 0.453125 3.671875 "/>
</symbol>
<symbol overflow="visible" id="glyph1-7">
<path style="stroke:none;" d="M 3.578125 5.25 C 2.671875 4.90625 1.4375 4.453125 0.96875 4.34375 L 0.96875 4.328125 C 1.1875 4.28125 1.546875 4.15625 1.96875 4.015625 L 6.078125 2.40625 L 6.9375 2.0625 L 6.9375 0.9375 L 0.015625 1 L 0.015625 1.78125 L 6.203125 1.71875 C 5.875 1.78125 4.796875 2.203125 4.125 2.453125 L 0.265625 3.984375 L 0.265625 4.703125 L 3.75 6 C 4.5625 6.296875 4.8125 6.390625 5.015625 6.46875 C 5.3125 6.5625 6.03125 6.8125 6.25 6.859375 L 6.25 6.875 L 0.0625 6.9375 L 0.078125 7.71875 L 7 7.65625 L 6.984375 6.515625 Z M 3.578125 5.25 "/>
</symbol>
<symbol overflow="visible" id="glyph1-8">
<path style="stroke:none;" d="M 6.25 3.78125 L 6.265625 4.65625 C 6.265625 4.78125 6.25 4.90625 6.25 5.015625 L 6.265625 6.359375 L 6.921875 6.359375 L 6.859375 0.296875 L 6.203125 0.296875 L 6.21875 1.625 C 6.21875 1.75 6.234375 1.875 6.234375 1.984375 L 6.25 2.890625 L 0.03125 2.953125 L 0.03125 3.84375 Z M 6.25 3.78125 "/>
</symbol>
<symbol overflow="visible" id="glyph2-0">
<path style="stroke:none;" d=""/>
</symbol>
<symbol overflow="visible" id="glyph2-1">
<path style="stroke:none;" d="M 3.765625 -6.921875 L 2.875 -6.921875 L 0.28125 0 L 1.015625 0 L 1.78125 -2.03125 L 4.6875 -2.03125 L 5.4375 0 L 6.359375 0 Z M 4.46875 -2.59375 L 2 -2.59375 L 2.640625 -4.390625 C 2.84375 -4.984375 3.15625 -5.828125 3.234375 -6.203125 C 3.265625 -6.0625 3.328125 -5.8125 3.5625 -5.15625 Z M 4.46875 -2.59375 "/>
</symbol>
<symbol overflow="visible" id="glyph2-2">
<path style="stroke:none;" d="M 4.09375 -4.171875 C 3.5 -4.5 3.15625 -4.59375 2.546875 -4.59375 C 1.171875 -4.59375 0.359375 -3.390625 0.359375 -2.21875 C 0.359375 -0.984375 1.265625 0.109375 2.515625 0.109375 C 3.046875 0.109375 3.59375 -0.03125 4.140625 -0.40625 L 4.078125 -1.0625 C 3.5625 -0.671875 3.03125 -0.53125 2.515625 -0.53125 C 1.6875 -0.53125 1.140625 -1.25 1.140625 -2.21875 C 1.140625 -3 1.5 -3.953125 2.5625 -3.953125 C 3.078125 -3.953125 3.421875 -3.875 3.96875 -3.515625 Z M 4.09375 -4.171875 "/>
</symbol>
<symbol overflow="visible" id="glyph2-3">
<path style="stroke:none;" d="M 1.75 -3.84375 L 3.15625 -3.84375 L 3.15625 -4.421875 L 1.75 -4.421875 L 1.75 -5.6875 L 1.0625 -5.6875 L 1.0625 -4.421875 L 0.1875 -4.421875 L 0.1875 -3.84375 L 1.03125 -3.84375 L 1.03125 -1.1875 C 1.03125 -0.59375 1.171875 0.109375 1.859375 0.109375 C 2.546875 0.109375 3.0625 -0.140625 3.3125 -0.265625 L 3.15625 -0.859375 C 2.890625 -0.640625 2.578125 -0.53125 2.25 -0.53125 C 1.890625 -0.53125 1.75 -0.828125 1.75 -1.359375 Z M 1.75 -3.84375 "/>
</symbol>
<symbol overflow="visible" id="glyph2-4">
<path style="stroke:none;" d="M 4.34375 -4.421875 L 3.5625 -4.421875 L 3.5625 -1.53125 C 3.5625 -0.78125 3 -0.4375 2.359375 -0.4375 C 1.65625 -0.4375 1.578125 -0.703125 1.578125 -1.125 L 1.578125 -4.421875 L 0.8125 -4.421875 L 0.8125 -1.09375 C 0.8125 -0.375 1.03125 0.109375 1.859375 0.109375 C 2.390625 0.109375 3.09375 -0.046875 3.59375 -0.484375 L 3.59375 0 L 4.34375 0 Z M 4.34375 -4.421875 "/>
</symbol>
<symbol overflow="visible" id="glyph2-5">
<path style="stroke:none;" d="M 3.984375 -2.875 C 3.984375 -3.890625 3.25 -4.59375 2.328125 -4.59375 C 1.6875 -4.59375 1.234375 -4.4375 0.765625 -4.171875 L 0.828125 -3.515625 C 1.34375 -3.875 1.84375 -4 2.328125 -4 C 2.796875 -4 3.203125 -3.609375 3.203125 -2.875 L 3.203125 -2.4375 C 1.703125 -2.421875 0.4375 -2 0.4375 -1.125 C 0.4375 -0.703125 0.703125 0.109375 1.578125 0.109375 C 1.71875 0.109375 2.65625 0.09375 3.234375 -0.359375 L 3.234375 0 L 3.984375 0 Z M 3.203125 -1.3125 C 3.203125 -1.125 3.203125 -0.875 2.859375 -0.6875 C 2.578125 -0.515625 2.1875 -0.5 2.078125 -0.5 C 1.609375 -0.5 1.15625 -0.734375 1.15625 -1.140625 C 1.15625 -1.84375 2.765625 -1.90625 3.203125 -1.9375 Z M 3.203125 -1.3125 "/>
</symbol>
<symbol overflow="visible" id="glyph2-6">
<path style="stroke:none;" d="M 4.671875 -2.1875 C 4.671875 -3.53125 3.671875 -4.59375 2.5 -4.59375 C 1.265625 -4.59375 0.296875 -3.5 0.296875 -2.1875 C 0.296875 -0.875 1.3125 0.109375 2.484375 0.109375 C 3.671875 0.109375 4.671875 -0.890625 4.671875 -2.1875 Z M 2.484375 -0.53125 C 1.796875 -0.53125 1.078125 -1.09375 1.078125 -2.296875 C 1.078125 -3.5 1.828125 -3.984375 2.484375 -3.984375 C 3.1875 -3.984375 3.890625 -3.46875 3.890625 -2.296875 C 3.890625 -1.109375 3.21875 -0.53125 2.484375 -0.53125 Z M 2.484375 -0.53125 "/>
</symbol>
<symbol overflow="visible" id="glyph2-7">
<path style="stroke:none;" d="M 1.5625 -2.140625 C 1.5625 -3.125 2.28125 -3.84375 3.265625 -3.875 L 3.265625 -4.53125 C 2.375 -4.53125 1.828125 -4.03125 1.515625 -3.578125 L 1.515625 -4.484375 L 0.8125 -4.484375 L 0.8125 0 L 1.5625 0 Z M 1.5625 -2.140625 "/>
</symbol>
<symbol overflow="visible" id="glyph2-8">
<path style="stroke:none;" d="M 3.421875 -4.28125 C 2.90625 -4.515625 2.5 -4.59375 1.984375 -4.59375 C 1.734375 -4.59375 0.328125 -4.59375 0.328125 -3.296875 C 0.328125 -2.796875 0.625 -2.484375 0.875 -2.296875 C 1.171875 -2.078125 1.390625 -2.03125 1.9375 -1.921875 C 2.296875 -1.859375 2.875 -1.734375 2.875 -1.203125 C 2.875 -0.515625 2.09375 -0.515625 1.9375 -0.515625 C 1.140625 -0.515625 0.578125 -0.890625 0.40625 -1 L 0.28125 -0.328125 C 0.59375 -0.171875 1.140625 0.109375 1.953125 0.109375 C 2.140625 0.109375 2.6875 0.109375 3.109375 -0.203125 C 3.421875 -0.453125 3.59375 -0.84375 3.59375 -1.28125 C 3.59375 -1.828125 3.21875 -2.15625 3.203125 -2.1875 C 2.8125 -2.546875 2.546875 -2.609375 2.046875 -2.6875 C 1.5 -2.796875 1.03125 -2.90625 1.03125 -3.390625 C 1.03125 -4 1.75 -4 1.890625 -4 C 2.203125 -4 2.734375 -3.96875 3.296875 -3.625 Z M 3.421875 -4.28125 "/>
</symbol>
<symbol overflow="visible" id="glyph3-0">
<path style="stroke:none;" d=""/>
</symbol>
<symbol overflow="visible" id="glyph3-1">
<path style="stroke:none;" d="M 3.515625 -2.875 C 4.75 -2.875 5.796875 -3.78125 5.796875 -4.90625 C 5.796875 -5.96875 4.8125 -6.921875 3.4375 -6.921875 L 0.953125 -6.921875 L 0.953125 0 L 1.84375 0 L 1.84375 -2.875 Z M 3.21875 -6.359375 C 4.3125 -6.359375 5 -5.75 5 -4.90625 C 5 -4.109375 4.359375 -3.453125 3.21875 -3.453125 L 1.8125 -3.453125 L 1.8125 -6.359375 Z M 3.21875 -6.359375 "/>
</symbol>
<symbol overflow="visible" id="glyph3-2">
<path style="stroke:none;" d="M 1.5625 -2.140625 C 1.5625 -3.125 2.28125 -3.84375 3.265625 -3.875 L 3.265625 -4.53125 C 2.375 -4.53125 1.828125 -4.03125 1.515625 -3.578125 L 1.515625 -4.484375 L 0.8125 -4.484375 L 0.8125 0 L 1.5625 0 Z M 1.5625 -2.140625 "/>
</symbol>
<symbol overflow="visible" id="glyph3-3">
<path style="stroke:none;" d="M 4.671875 -2.1875 C 4.671875 -3.53125 3.671875 -4.59375 2.5 -4.59375 C 1.265625 -4.59375 0.296875 -3.5 0.296875 -2.1875 C 0.296875 -0.875 1.3125 0.109375 2.484375 0.109375 C 3.671875 0.109375 4.671875 -0.890625 4.671875 -2.1875 Z M 2.484375 -0.53125 C 1.796875 -0.53125 1.078125 -1.09375 1.078125 -2.296875 C 1.078125 -3.5 1.828125 -3.984375 2.484375 -3.984375 C 3.1875 -3.984375 3.890625 -3.46875 3.890625 -2.296875 C 3.890625 -1.109375 3.21875 -0.53125 2.484375 -0.53125 Z M 2.484375 -0.53125 "/>
</symbol>
<symbol overflow="visible" id="glyph3-4">
<path style="stroke:none;" d="M 1.5625 -6.921875 L 0.8125 -6.921875 L 0.8125 0 L 1.59375 0 L 1.59375 -0.453125 C 1.828125 -0.234375 2.265625 0.109375 2.9375 0.109375 C 3.921875 0.109375 4.78125 -0.890625 4.78125 -2.21875 C 4.78125 -3.453125 4.109375 -4.53125 3.171875 -4.53125 C 2.78125 -4.53125 2.15625 -4.4375 1.5625 -3.953125 Z M 1.59375 -3.34375 C 1.75 -3.578125 2.109375 -3.921875 2.65625 -3.921875 C 3.25 -3.921875 4 -3.5 4 -2.21875 C 4 -0.921875 3.171875 -0.5 2.5625 -0.5 C 2.171875 -0.5 1.84375 -0.671875 1.59375 -1.140625 Z M 1.59375 -3.34375 "/>
</symbol>
<symbol overflow="visible" id="glyph3-5">
<path style="stroke:none;" d="M 1.5625 -6.921875 L 0.8125 -6.921875 L 0.8125 0 L 1.5625 0 Z M 1.5625 -6.921875 "/>
</symbol>
<symbol overflow="visible" id="glyph3-6">
<path style="stroke:none;" d="M 4.125 -2.1875 C 4.125 -2.515625 4.109375 -3.265625 3.734375 -3.875 C 3.3125 -4.484375 2.71875 -4.59375 2.359375 -4.59375 C 1.25 -4.59375 0.34375 -3.53125 0.34375 -2.25 C 0.34375 -0.9375 1.3125 0.109375 2.5 0.109375 C 3.125 0.109375 3.703125 -0.125 4.09375 -0.40625 L 4.03125 -1.0625 C 3.40625 -0.53125 2.734375 -0.5 2.515625 -0.5 C 1.71875 -0.5 1.078125 -1.203125 1.046875 -2.1875 Z M 1.09375 -2.734375 C 1.25 -3.484375 1.78125 -3.984375 2.359375 -3.984375 C 2.875 -3.984375 3.421875 -3.65625 3.5625 -2.734375 Z M 1.09375 -2.734375 "/>
</symbol>
<symbol overflow="visible" id="glyph3-7">
<path style="stroke:none;" d="M 7.109375 -2.96875 C 7.109375 -3.640625 6.953125 -4.53125 5.734375 -4.53125 C 5.140625 -4.53125 4.625 -4.25 4.25 -3.71875 C 4 -4.46875 3.296875 -4.53125 2.984375 -4.53125 C 2.265625 -4.53125 1.796875 -4.125 1.53125 -3.765625 L 1.53125 -4.484375 L 0.8125 -4.484375 L 0.8125 0 L 1.578125 0 L 1.578125 -2.4375 C 1.578125 -3.125 1.859375 -3.921875 2.59375 -3.921875 C 3.515625 -3.921875 3.5625 -3.28125 3.5625 -2.90625 L 3.5625 0 L 4.34375 0 L 4.34375 -2.4375 C 4.34375 -3.125 4.609375 -3.921875 5.359375 -3.921875 C 6.28125 -3.921875 6.328125 -3.28125 6.328125 -2.90625 L 6.328125 0 L 7.109375 0 Z M 7.109375 -2.96875 "/>
</symbol>
<symbol overflow="visible" id="glyph4-0">
<path style="stroke:none;" d=""/>
</symbol>
<symbol overflow="visible" id="glyph4-1">
<path style="stroke:none;" d="M 3.515625 -3.890625 C 3.734375 -3.890625 4 -3.9375 4.25 -3.9375 C 4.421875 -3.9375 4.8125 -3.90625 4.828125 -3.90625 L 4.71875 -4.53125 C 4.03125 -4.53125 3.453125 -4.34375 3.15625 -4.21875 C 2.9375 -4.390625 2.609375 -4.53125 2.203125 -4.53125 C 1.34375 -4.53125 0.625 -3.8125 0.625 -2.90625 C 0.625 -2.546875 0.75 -2.1875 0.953125 -1.921875 C 0.65625 -1.515625 0.65625 -1.125 0.65625 -1.078125 C 0.65625 -0.8125 0.75 -0.53125 0.921875 -0.3125 C 0.40625 -0.015625 0.28125 0.453125 0.28125 0.703125 C 0.28125 1.453125 1.265625 2.046875 2.484375 2.046875 C 3.703125 2.046875 4.6875 1.46875 4.6875 0.703125 C 4.6875 -0.6875 3.03125 -0.6875 2.640625 -0.6875 L 1.765625 -0.6875 C 1.640625 -0.6875 1.1875 -0.6875 1.1875 -1.21875 C 1.1875 -1.328125 1.21875 -1.484375 1.296875 -1.578125 C 1.5 -1.421875 1.828125 -1.28125 2.203125 -1.28125 C 3.09375 -1.28125 3.796875 -2.03125 3.796875 -2.90625 C 3.796875 -3.390625 3.578125 -3.765625 3.46875 -3.90625 Z M 2.203125 -1.859375 C 1.828125 -1.859375 1.3125 -2.078125 1.3125 -2.90625 C 1.3125 -3.734375 1.828125 -3.96875 2.203125 -3.96875 C 2.625 -3.96875 3.09375 -3.6875 3.09375 -2.90625 C 3.09375 -2.140625 2.625 -1.859375 2.203125 -1.859375 Z M 2.65625 0.03125 C 2.875 0.03125 4 0.03125 4 0.71875 C 4 1.15625 3.3125 1.484375 2.5 1.484375 C 1.6875 1.484375 0.984375 1.171875 0.984375 0.703125 C 0.984375 0.671875 0.984375 0.03125 1.75 0.03125 Z M 2.65625 0.03125 "/>
</symbol>
<symbol overflow="visible" id="glyph4-2">
<path style="stroke:none;" d="M 4.125 -2.1875 C 4.125 -2.515625 4.109375 -3.265625 3.734375 -3.875 C 3.3125 -4.484375 2.71875 -4.59375 2.359375 -4.59375 C 1.25 -4.59375 0.34375 -3.53125 0.34375 -2.25 C 0.34375 -0.9375 1.3125 0.109375 2.5 0.109375 C 3.125 0.109375 3.703125 -0.125 4.09375 -0.40625 L 4.03125 -1.0625 C 3.40625 -0.53125 2.734375 -0.5 2.515625 -0.5 C 1.71875 -0.5 1.078125 -1.203125 1.046875 -2.1875 Z M 1.09375 -2.734375 C 1.25 -3.484375 1.78125 -3.984375 2.359375 -3.984375 C 2.875 -3.984375 3.421875 -3.65625 3.5625 -2.734375 Z M 1.09375 -2.734375 "/>
</symbol>
<symbol overflow="visible" id="glyph4-3">
<path style="stroke:none;" d="M 4.34375 -2.96875 C 4.34375 -3.625 4.1875 -4.53125 2.96875 -4.53125 C 2.078125 -4.53125 1.578125 -3.859375 1.53125 -3.78125 L 1.53125 -4.484375 L 0.8125 -4.484375 L 0.8125 0 L 1.578125 0 L 1.578125 -2.4375 C 1.578125 -3.09375 1.828125 -3.921875 2.59375 -3.921875 C 3.546875 -3.921875 3.5625 -3.21875 3.5625 -2.90625 L 3.5625 0 L 4.34375 0 Z M 4.34375 -2.96875 "/>
</symbol>
<symbol overflow="visible" id="glyph4-4">
<path style="stroke:none;" d="M 1.5625 -2.140625 C 1.5625 -3.125 2.28125 -3.84375 3.265625 -3.875 L 3.265625 -4.53125 C 2.375 -4.53125 1.828125 -4.03125 1.515625 -3.578125 L 1.515625 -4.484375 L 0.8125 -4.484375 L 0.8125 0 L 1.5625 0 Z M 1.5625 -2.140625 "/>
</symbol>
<symbol overflow="visible" id="glyph4-5">
<path style="stroke:none;" d="M 3.984375 -2.875 C 3.984375 -3.890625 3.25 -4.59375 2.328125 -4.59375 C 1.6875 -4.59375 1.234375 -4.4375 0.765625 -4.171875 L 0.828125 -3.515625 C 1.34375 -3.875 1.84375 -4 2.328125 -4 C 2.796875 -4 3.203125 -3.609375 3.203125 -2.875 L 3.203125 -2.4375 C 1.703125 -2.421875 0.4375 -2 0.4375 -1.125 C 0.4375 -0.703125 0.703125 0.109375 1.578125 0.109375 C 1.71875 0.109375 2.65625 0.09375 3.234375 -0.359375 L 3.234375 0 L 3.984375 0 Z M 3.203125 -1.3125 C 3.203125 -1.125 3.203125 -0.875 2.859375 -0.6875 C 2.578125 -0.515625 2.1875 -0.5 2.078125 -0.5 C 1.609375 -0.5 1.15625 -0.734375 1.15625 -1.140625 C 1.15625 -1.84375 2.765625 -1.90625 3.203125 -1.9375 Z M 3.203125 -1.3125 "/>
</symbol>
<symbol overflow="visible" id="glyph4-6">
<path style="stroke:none;" d="M 1.75 -3.84375 L 3.15625 -3.84375 L 3.15625 -4.421875 L 1.75 -4.421875 L 1.75 -5.6875 L 1.0625 -5.6875 L 1.0625 -4.421875 L 0.1875 -4.421875 L 0.1875 -3.84375 L 1.03125 -3.84375 L 1.03125 -1.1875 C 1.03125 -0.59375 1.171875 0.109375 1.859375 0.109375 C 2.546875 0.109375 3.0625 -0.140625 3.3125 -0.265625 L 3.15625 -0.859375 C 2.890625 -0.640625 2.578125 -0.53125 2.25 -0.53125 C 1.890625 -0.53125 1.75 -0.828125 1.75 -1.359375 Z M 1.75 -3.84375 "/>
</symbol>
<symbol overflow="visible" id="glyph4-7">
<path style="stroke:none;" d="M 4.671875 -2.1875 C 4.671875 -3.53125 3.671875 -4.59375 2.5 -4.59375 C 1.265625 -4.59375 0.296875 -3.5 0.296875 -2.1875 C 0.296875 -0.875 1.3125 0.109375 2.484375 0.109375 C 3.671875 0.109375 4.671875 -0.890625 4.671875 -2.1875 Z M 2.484375 -0.53125 C 1.796875 -0.53125 1.078125 -1.09375 1.078125 -2.296875 C 1.078125 -3.5 1.828125 -3.984375 2.484375 -3.984375 C 3.1875 -3.984375 3.890625 -3.46875 3.890625 -2.296875 C 3.890625 -1.109375 3.21875 -0.53125 2.484375 -0.53125 Z M 2.484375 -0.53125 "/>
</symbol>
<symbol overflow="visible" id="glyph5-0">
<path style="stroke:none;" d=""/>
</symbol>
<symbol overflow="visible" id="glyph5-1">
<path style="stroke:none;" d="M 5.796875 -1.140625 C 5.21875 -0.75 4.875 -0.53125 3.890625 -0.53125 C 2.453125 -0.53125 1.5625 -2.03125 1.5625 -3.46875 C 1.5625 -4.828125 2.375 -6.390625 3.90625 -6.390625 C 4.609375 -6.390625 5.0625 -6.21875 5.609375 -5.875 L 5.75 -6.6875 C 5.328125 -6.890625 4.5625 -7.03125 3.921875 -7.03125 C 2.078125 -7.03125 0.65625 -5.46875 0.65625 -3.375 C 0.65625 -1.796875 1.84375 0.109375 3.921875 0.109375 C 4.828125 0.109375 5.21875 -0.046875 5.859375 -0.453125 Z M 5.796875 -1.140625 "/>
</symbol>
<symbol overflow="visible" id="glyph5-2">
<path style="stroke:none;" d="M 1.5625 -2.140625 C 1.5625 -3.125 2.28125 -3.84375 3.265625 -3.875 L 3.265625 -4.53125 C 2.375 -4.53125 1.828125 -4.03125 1.515625 -3.578125 L 1.515625 -4.484375 L 0.8125 -4.484375 L 0.8125 0 L 1.5625 0 Z M 1.5625 -2.140625 "/>
</symbol>
<symbol overflow="visible" id="glyph5-3">
<path style="stroke:none;" d="M 1.625 -6.78125 L 0.734375 -6.78125 L 0.734375 -5.890625 L 1.625 -5.890625 Z M 1.5625 -4.421875 L 0.8125 -4.421875 L 0.8125 0 L 1.5625 0 Z M 1.5625 -4.421875 "/>
</symbol>
<symbol overflow="visible" id="glyph5-4">
<path style="stroke:none;" d="M 1.75 -3.84375 L 3.15625 -3.84375 L 3.15625 -4.421875 L 1.75 -4.421875 L 1.75 -5.6875 L 1.0625 -5.6875 L 1.0625 -4.421875 L 0.1875 -4.421875 L 0.1875 -3.84375 L 1.03125 -3.84375 L 1.03125 -1.1875 C 1.03125 -0.59375 1.171875 0.109375 1.859375 0.109375 C 2.546875 0.109375 3.0625 -0.140625 3.3125 -0.265625 L 3.15625 -0.859375 C 2.890625 -0.640625 2.578125 -0.53125 2.25 -0.53125 C 1.890625 -0.53125 1.75 -0.828125 1.75 -1.359375 Z M 1.75 -3.84375 "/>
</symbol>
<symbol overflow="visible" id="glyph5-5">
<path style="stroke:none;" d="M 4.09375 -4.171875 C 3.5 -4.5 3.15625 -4.59375 2.546875 -4.59375 C 1.171875 -4.59375 0.359375 -3.390625 0.359375 -2.21875 C 0.359375 -0.984375 1.265625 0.109375 2.515625 0.109375 C 3.046875 0.109375 3.59375 -0.03125 4.140625 -0.40625 L 4.078125 -1.0625 C 3.5625 -0.671875 3.03125 -0.53125 2.515625 -0.53125 C 1.6875 -0.53125 1.140625 -1.25 1.140625 -2.21875 C 1.140625 -3 1.5 -3.953125 2.5625 -3.953125 C 3.078125 -3.953125 3.421875 -3.875 3.96875 -3.515625 Z M 4.09375 -4.171875 "/>
</symbol>
<symbol overflow="visible" id="glyph6-0">
<path style="stroke:none;" d=""/>
</symbol>
<symbol overflow="visible" id="glyph6-1">
<path style="stroke:none;" d="M 1.828125 -6.921875 L 0.9375 -6.921875 L 0.9375 0 L 4.96875 0 L 4.96875 -0.65625 C 4.09375 -0.640625 3.203125 -0.640625 2.3125 -0.640625 L 1.828125 -0.640625 Z M 1.828125 -6.921875 "/>
</symbol>
<symbol overflow="visible" id="glyph6-2">
<path style="stroke:none;" d="M 4.125 -2.1875 C 4.125 -2.515625 4.109375 -3.265625 3.734375 -3.875 C 3.3125 -4.484375 2.71875 -4.59375 2.359375 -4.59375 C 1.25 -4.59375 0.34375 -3.53125 0.34375 -2.25 C 0.34375 -0.9375 1.3125 0.109375 2.5 0.109375 C 3.125 0.109375 3.703125 -0.125 4.09375 -0.40625 L 4.03125 -1.0625 C 3.40625 -0.53125 2.734375 -0.5 2.515625 -0.5 C 1.71875 -0.5 1.078125 -1.203125 1.046875 -2.1875 Z M 1.09375 -2.734375 C 1.25 -3.484375 1.78125 -3.984375 2.359375 -3.984375 C 2.875 -3.984375 3.421875 -3.65625 3.5625 -2.734375 Z M 1.09375 -2.734375 "/>
</symbol>
<symbol overflow="visible" id="glyph6-3">
<path style="stroke:none;" d="M 3.984375 -2.875 C 3.984375 -3.890625 3.25 -4.59375 2.328125 -4.59375 C 1.6875 -4.59375 1.234375 -4.4375 0.765625 -4.171875 L 0.828125 -3.515625 C 1.34375 -3.875 1.84375 -4 2.328125 -4 C 2.796875 -4 3.203125 -3.609375 3.203125 -2.875 L 3.203125 -2.4375 C 1.703125 -2.421875 0.4375 -2 0.4375 -1.125 C 0.4375 -0.703125 0.703125 0.109375 1.578125 0.109375 C 1.71875 0.109375 2.65625 0.09375 3.234375 -0.359375 L 3.234375 0 L 3.984375 0 Z M 3.203125 -1.3125 C 3.203125 -1.125 3.203125 -0.875 2.859375 -0.6875 C 2.578125 -0.515625 2.1875 -0.5 2.078125 -0.5 C 1.609375 -0.5 1.15625 -0.734375 1.15625 -1.140625 C 1.15625 -1.84375 2.765625 -1.90625 3.203125 -1.9375 Z M 3.203125 -1.3125 "/>
</symbol>
<symbol overflow="visible" id="glyph6-4">
<path style="stroke:none;" d="M 1.5625 -2.140625 C 1.5625 -3.125 2.28125 -3.84375 3.265625 -3.875 L 3.265625 -4.53125 C 2.375 -4.53125 1.828125 -4.03125 1.515625 -3.578125 L 1.515625 -4.484375 L 0.8125 -4.484375 L 0.8125 0 L 1.5625 0 Z M 1.5625 -2.140625 "/>
</symbol>
<symbol overflow="visible" id="glyph6-5">
<path style="stroke:none;" d="M 4.34375 -2.96875 C 4.34375 -3.625 4.1875 -4.53125 2.96875 -4.53125 C 2.078125 -4.53125 1.578125 -3.859375 1.53125 -3.78125 L 1.53125 -4.484375 L 0.8125 -4.484375 L 0.8125 0 L 1.578125 0 L 1.578125 -2.4375 C 1.578125 -3.09375 1.828125 -3.921875 2.59375 -3.921875 C 3.546875 -3.921875 3.5625 -3.21875 3.5625 -2.90625 L 3.5625 0 L 4.34375 0 Z M 4.34375 -2.96875 "/>
</symbol>
<symbol overflow="visible" id="glyph6-6">
<path style="stroke:none;" d="M 1.625 -6.78125 L 0.734375 -6.78125 L 0.734375 -5.890625 L 1.625 -5.890625 Z M 1.5625 -4.421875 L 0.8125 -4.421875 L 0.8125 0 L 1.5625 0 Z M 1.5625 -4.421875 "/>
</symbol>
<symbol overflow="visible" id="glyph6-7">
<path style="stroke:none;" d="M 3.515625 -3.890625 C 3.734375 -3.890625 4 -3.9375 4.25 -3.9375 C 4.421875 -3.9375 4.8125 -3.90625 4.828125 -3.90625 L 4.71875 -4.53125 C 4.03125 -4.53125 3.453125 -4.34375 3.15625 -4.21875 C 2.9375 -4.390625 2.609375 -4.53125 2.203125 -4.53125 C 1.34375 -4.53125 0.625 -3.8125 0.625 -2.90625 C 0.625 -2.546875 0.75 -2.1875 0.953125 -1.921875 C 0.65625 -1.515625 0.65625 -1.125 0.65625 -1.078125 C 0.65625 -0.8125 0.75 -0.53125 0.921875 -0.3125 C 0.40625 -0.015625 0.28125 0.453125 0.28125 0.703125 C 0.28125 1.453125 1.265625 2.046875 2.484375 2.046875 C 3.703125 2.046875 4.6875 1.46875 4.6875 0.703125 C 4.6875 -0.6875 3.03125 -0.6875 2.640625 -0.6875 L 1.765625 -0.6875 C 1.640625 -0.6875 1.1875 -0.6875 1.1875 -1.21875 C 1.1875 -1.328125 1.21875 -1.484375 1.296875 -1.578125 C 1.5 -1.421875 1.828125 -1.28125 2.203125 -1.28125 C 3.09375 -1.28125 3.796875 -2.03125 3.796875 -2.90625 C 3.796875 -3.390625 3.578125 -3.765625 3.46875 -3.90625 Z M 2.203125 -1.859375 C 1.828125 -1.859375 1.3125 -2.078125 1.3125 -2.90625 C 1.3125 -3.734375 1.828125 -3.96875 2.203125 -3.96875 C 2.625 -3.96875 3.09375 -3.6875 3.09375 -2.90625 C 3.09375 -2.140625 2.625 -1.859375 2.203125 -1.859375 Z M 2.65625 0.03125 C 2.875 0.03125 4 0.03125 4 0.71875 C 4 1.15625 3.3125 1.484375 2.5 1.484375 C 1.6875 1.484375 0.984375 1.171875 0.984375 0.703125 C 0.984375 0.671875 0.984375 0.03125 1.75 0.03125 Z M 2.65625 0.03125 "/>
</symbol>
<symbol overflow="visible" id="glyph7-0">
<path style="stroke:none;" d=""/>
</symbol>
<symbol overflow="visible" id="glyph7-1">
<path style="stroke:none;" d="M 4.125 -2.1875 C 4.125 -2.515625 4.109375 -3.265625 3.734375 -3.875 C 3.3125 -4.484375 2.71875 -4.59375 2.359375 -4.59375 C 1.25 -4.59375 0.34375 -3.53125 0.34375 -2.25 C 0.34375 -0.9375 1.3125 0.109375 2.5 0.109375 C 3.125 0.109375 3.703125 -0.125 4.09375 -0.40625 L 4.03125 -1.0625 C 3.40625 -0.53125 2.734375 -0.5 2.515625 -0.5 C 1.71875 -0.5 1.078125 -1.203125 1.046875 -2.1875 Z M 1.09375 -2.734375 C 1.25 -3.484375 1.78125 -3.984375 2.359375 -3.984375 C 2.875 -3.984375 3.421875 -3.65625 3.5625 -2.734375 Z M 1.09375 -2.734375 "/>
</symbol>
<symbol overflow="visible" id="glyph7-2">
<path style="stroke:none;" d="M 1.5625 -6.921875 L 0.8125 -6.921875 L 0.8125 0 L 1.5625 0 Z M 1.5625 -6.921875 "/>
</symbol>
<symbol overflow="visible" id="glyph7-3">
<path style="stroke:none;" d="M 7.109375 -2.96875 C 7.109375 -3.640625 6.953125 -4.53125 5.734375 -4.53125 C 5.140625 -4.53125 4.625 -4.25 4.25 -3.71875 C 4 -4.46875 3.296875 -4.53125 2.984375 -4.53125 C 2.265625 -4.53125 1.796875 -4.125 1.53125 -3.765625 L 1.53125 -4.484375 L 0.8125 -4.484375 L 0.8125 0 L 1.578125 0 L 1.578125 -2.4375 C 1.578125 -3.125 1.859375 -3.921875 2.59375 -3.921875 C 3.515625 -3.921875 3.5625 -3.28125 3.5625 -2.90625 L 3.5625 0 L 4.34375 0 L 4.34375 -2.4375 C 4.34375 -3.125 4.609375 -3.921875 5.359375 -3.921875 C 6.28125 -3.921875 6.328125 -3.28125 6.328125 -2.90625 L 6.328125 0 L 7.109375 0 Z M 7.109375 -2.96875 "/>
</symbol>
<symbol overflow="visible" id="glyph7-4">
<path style="stroke:none;" d="M 4.34375 -2.96875 C 4.34375 -3.625 4.1875 -4.53125 2.96875 -4.53125 C 2.078125 -4.53125 1.578125 -3.859375 1.53125 -3.78125 L 1.53125 -4.484375 L 0.8125 -4.484375 L 0.8125 0 L 1.578125 0 L 1.578125 -2.4375 C 1.578125 -3.09375 1.828125 -3.921875 2.59375 -3.921875 C 3.546875 -3.921875 3.5625 -3.21875 3.5625 -2.90625 L 3.5625 0 L 4.34375 0 Z M 4.34375 -2.96875 "/>
</symbol>
<symbol overflow="visible" id="glyph7-5">
<path style="stroke:none;" d="M 1.75 -3.84375 L 3.15625 -3.84375 L 3.15625 -4.421875 L 1.75 -4.421875 L 1.75 -5.6875 L 1.0625 -5.6875 L 1.0625 -4.421875 L 0.1875 -4.421875 L 0.1875 -3.84375 L 1.03125 -3.84375 L 1.03125 -1.1875 C 1.03125 -0.59375 1.171875 0.109375 1.859375 0.109375 C 2.546875 0.109375 3.0625 -0.140625 3.3125 -0.265625 L 3.15625 -0.859375 C 2.890625 -0.640625 2.578125 -0.53125 2.25 -0.53125 C 1.890625 -0.53125 1.75 -0.828125 1.75 -1.359375 Z M 1.75 -3.84375 "/>
</symbol>
<symbol overflow="visible" id="glyph8-0">
<path style="stroke:none;" d=""/>
</symbol>
<symbol overflow="visible" id="glyph8-1">
<path style="stroke:none;" d="M 9.265625 -6.921875 L 8.546875 -6.921875 L 7.640625 -3.78125 C 7.375 -2.90625 6.890625 -1.21875 6.84375 -0.71875 C 6.84375 -0.734375 6.78125 -1.25 6.125 -3.515625 L 5.140625 -6.921875 L 4.34375 -6.921875 L 3.4375 -3.8125 C 3.21875 -3.046875 2.71875 -1.296875 2.671875 -0.734375 L 2.65625 -0.734375 C 2.625 -1.140625 2.359375 -2.109375 2.265625 -2.4375 L 1.796875 -4.109375 L 1 -6.921875 L 0.140625 -6.921875 L 2.15625 0 L 2.96875 0 L 3.96875 -3.453125 C 4.171875 -4.1875 4.609375 -5.671875 4.671875 -6.1875 C 4.71875 -5.890625 4.953125 -4.9375 5.21875 -4 L 6.375 0 L 7.234375 0 Z M 9.265625 -6.921875 "/>
</symbol>
<symbol overflow="visible" id="glyph8-2">
<path style="stroke:none;" d="M 4.34375 -2.96875 C 4.34375 -3.625 4.1875 -4.53125 2.96875 -4.53125 C 2.359375 -4.53125 1.875 -4.234375 1.5625 -3.8125 L 1.5625 -6.921875 L 0.8125 -6.921875 L 0.8125 0 L 1.578125 0 L 1.578125 -2.4375 C 1.578125 -3.09375 1.828125 -3.921875 2.59375 -3.921875 C 3.546875 -3.921875 3.5625 -3.21875 3.5625 -2.90625 L 3.5625 0 L 4.34375 0 Z M 4.34375 -2.96875 "/>
</symbol>
<symbol overflow="visible" id="glyph8-3">
<path style="stroke:none;" d="M 3.984375 -2.875 C 3.984375 -3.890625 3.25 -4.59375 2.328125 -4.59375 C 1.6875 -4.59375 1.234375 -4.4375 0.765625 -4.171875 L 0.828125 -3.515625 C 1.34375 -3.875 1.84375 -4 2.328125 -4 C 2.796875 -4 3.203125 -3.609375 3.203125 -2.875 L 3.203125 -2.4375 C 1.703125 -2.421875 0.4375 -2 0.4375 -1.125 C 0.4375 -0.703125 0.703125 0.109375 1.578125 0.109375 C 1.71875 0.109375 2.65625 0.09375 3.234375 -0.359375 L 3.234375 0 L 3.984375 0 Z M 3.203125 -1.3125 C 3.203125 -1.125 3.203125 -0.875 2.859375 -0.6875 C 2.578125 -0.515625 2.1875 -0.5 2.078125 -0.5 C 1.609375 -0.5 1.15625 -0.734375 1.15625 -1.140625 C 1.15625 -1.84375 2.765625 -1.90625 3.203125 -1.9375 Z M 3.203125 -1.3125 "/>
</symbol>
<symbol overflow="visible" id="glyph8-4">
<path style="stroke:none;" d="M 1.75 -3.84375 L 3.15625 -3.84375 L 3.15625 -4.421875 L 1.75 -4.421875 L 1.75 -5.6875 L 1.0625 -5.6875 L 1.0625 -4.421875 L 0.1875 -4.421875 L 0.1875 -3.84375 L 1.03125 -3.84375 L 1.03125 -1.1875 C 1.03125 -0.59375 1.171875 0.109375 1.859375 0.109375 C 2.546875 0.109375 3.0625 -0.140625 3.3125 -0.265625 L 3.15625 -0.859375 C 2.890625 -0.640625 2.578125 -0.53125 2.25 -0.53125 C 1.890625 -0.53125 1.75 -0.828125 1.75 -1.359375 Z M 1.75 -3.84375 "/>
</symbol>
<symbol overflow="visible" id="glyph8-5">
<path style="stroke:none;" d="M 1.625 -6.78125 L 0.734375 -6.78125 L 0.734375 -5.890625 L 1.625 -5.890625 Z M 1.5625 -4.421875 L 0.8125 -4.421875 L 0.8125 0 L 1.5625 0 Z M 1.5625 -4.421875 "/>
</symbol>
<symbol overflow="visible" id="glyph8-6">
<path style="stroke:none;" d="M 6.65625 -4.421875 L 5.9375 -4.421875 L 5.296875 -2.3125 C 5.1875 -1.953125 4.890625 -0.96875 4.828125 -0.53125 C 4.78125 -0.84375 4.53125 -1.734375 4.359375 -2.296875 L 3.71875 -4.421875 L 3.015625 -4.421875 L 2.453125 -2.546875 C 2.34375 -2.203125 2 -1.0625 1.96875 -0.546875 L 1.953125 -0.546875 C 1.90625 -1.03125 1.578125 -2.15625 1.421875 -2.703125 L 0.890625 -4.421875 L 0.140625 -4.421875 L 1.5 0 L 2.296875 0 C 2.34375 -0.15625 2.6875 -1.28125 2.90625 -2.046875 C 3.046875 -2.515625 3.328125 -3.5 3.359375 -3.875 L 3.375 -3.875 C 3.390625 -3.59375 3.5625 -2.90625 3.6875 -2.46875 L 4.421875 0 L 5.296875 0 Z M 6.65625 -4.421875 "/>
</symbol>
<symbol overflow="visible" id="glyph8-7">
<path style="stroke:none;" d="M 1.5625 -6.921875 L 0.8125 -6.921875 L 0.8125 0 L 1.5625 0 Z M 1.5625 -6.921875 "/>
</symbol>
<symbol overflow="visible" id="glyph8-8">
<path style="stroke:none;" d="M 1.5625 -6.921875 L 0.8125 -6.921875 L 0.8125 0 L 1.59375 0 L 1.59375 -0.453125 C 1.828125 -0.234375 2.265625 0.109375 2.9375 0.109375 C 3.921875 0.109375 4.78125 -0.890625 4.78125 -2.21875 C 4.78125 -3.453125 4.109375 -4.53125 3.171875 -4.53125 C 2.78125 -4.53125 2.15625 -4.4375 1.5625 -3.953125 Z M 1.59375 -3.34375 C 1.75 -3.578125 2.109375 -3.921875 2.65625 -3.921875 C 3.25 -3.921875 4 -3.5 4 -2.21875 C 4 -0.921875 3.171875 -0.5 2.5625 -0.5 C 2.171875 -0.5 1.84375 -0.671875 1.59375 -1.140625 Z M 1.59375 -3.34375 "/>
</symbol>
<symbol overflow="visible" id="glyph8-9">
<path style="stroke:none;" d="M 4.125 -2.1875 C 4.125 -2.515625 4.109375 -3.265625 3.734375 -3.875 C 3.3125 -4.484375 2.71875 -4.59375 2.359375 -4.59375 C 1.25 -4.59375 0.34375 -3.53125 0.34375 -2.25 C 0.34375 -0.9375 1.3125 0.109375 2.5 0.109375 C 3.125 0.109375 3.703125 -0.125 4.09375 -0.40625 L 4.03125 -1.0625 C 3.40625 -0.53125 2.734375 -0.5 2.515625 -0.5 C 1.71875 -0.5 1.078125 -1.203125 1.046875 -2.1875 Z M 1.09375 -2.734375 C 1.25 -3.484375 1.78125 -3.984375 2.359375 -3.984375 C 2.875 -3.984375 3.421875 -3.65625 3.5625 -2.734375 Z M 1.09375 -2.734375 "/>
</symbol>
<symbol overflow="visible" id="glyph8-10">
<path style="stroke:none;" d="M 2.796875 -2.71875 L 4.46875 -4.421875 L 3.578125 -4.421875 L 1.5625 -2.359375 L 1.5625 -6.921875 L 0.84375 -6.921875 L 0.84375 0 L 1.53125 0 L 1.53125 -1.40625 L 2.328125 -2.234375 L 3.875 0 L 4.6875 0 Z M 2.796875 -2.71875 "/>
</symbol>
<symbol overflow="visible" id="glyph9-0">
<path style="stroke:none;" d=""/>
</symbol>
<symbol overflow="visible" id="glyph9-1">
<path style="stroke:none;" d="M 1.625 -6.78125 L 0.734375 -6.78125 L 0.734375 -5.890625 L 1.625 -5.890625 Z M 1.5625 -4.421875 L 0.8125 -4.421875 L 0.8125 0 L 1.5625 0 Z M 1.5625 -4.421875 "/>
</symbol>
<symbol overflow="visible" id="glyph9-2">
<path style="stroke:none;" d="M 1.75 -3.84375 L 2.84375 -3.84375 L 2.84375 -4.421875 L 1.71875 -4.421875 L 1.71875 -5.609375 C 1.71875 -6.34375 2.390625 -6.421875 2.65625 -6.421875 C 2.84375 -6.421875 3.125 -6.40625 3.453125 -6.25 L 3.453125 -6.921875 C 3.34375 -6.953125 3.03125 -7.03125 2.65625 -7.03125 C 1.71875 -7.03125 1 -6.3125 1 -5.328125 L 1 -4.421875 L 0.265625 -4.421875 L 0.265625 -3.84375 L 1 -3.84375 L 1 0 L 1.75 0 Z M 1.75 -3.84375 "/>
</symbol>
<symbol overflow="visible" id="glyph9-3">
<path style="stroke:none;" d="M 1.828125 -6.921875 L 0.9375 -6.921875 L 0.9375 0 L 1.828125 0 Z M 1.828125 -6.921875 "/>
</symbol>
<symbol overflow="visible" id="glyph9-4">
<path style="stroke:none;" d="M 4.328125 -6.921875 L 3.578125 -6.921875 L 3.578125 -3.984375 C 3.046875 -4.421875 2.5 -4.53125 2.125 -4.53125 C 1.140625 -4.53125 0.359375 -3.5 0.359375 -2.21875 C 0.359375 -0.90625 1.125 0.109375 2.078125 0.109375 C 2.40625 0.109375 2.984375 0.015625 3.546875 -0.515625 L 3.546875 0 L 4.328125 0 Z M 3.546875 -1.390625 C 3.546875 -1.25 3.53125 -1.0625 3.21875 -0.78125 C 2.984375 -0.578125 2.734375 -0.5 2.484375 -0.5 C 1.859375 -0.5 1.140625 -0.96875 1.140625 -2.203125 C 1.140625 -3.515625 2 -3.921875 2.578125 -3.921875 C 3.03125 -3.921875 3.328125 -3.703125 3.546875 -3.375 Z M 3.546875 -1.390625 "/>
</symbol>
<symbol overflow="visible" id="glyph9-5">
<path style="stroke:none;" d="M 4.671875 -2.1875 C 4.671875 -3.53125 3.671875 -4.59375 2.5 -4.59375 C 1.265625 -4.59375 0.296875 -3.5 0.296875 -2.1875 C 0.296875 -0.875 1.3125 0.109375 2.484375 0.109375 C 3.671875 0.109375 4.671875 -0.890625 4.671875 -2.1875 Z M 2.484375 -0.53125 C 1.796875 -0.53125 1.078125 -1.09375 1.078125 -2.296875 C 1.078125 -3.5 1.828125 -3.984375 2.484375 -3.984375 C 3.1875 -3.984375 3.890625 -3.46875 3.890625 -2.296875 C 3.890625 -1.109375 3.21875 -0.53125 2.484375 -0.53125 Z M 2.484375 -0.53125 "/>
</symbol>
<symbol overflow="visible" id="glyph9-6">
<path style="stroke:none;" d="M 3.984375 -2.875 C 3.984375 -3.890625 3.25 -4.59375 2.328125 -4.59375 C 1.6875 -4.59375 1.234375 -4.4375 0.765625 -4.171875 L 0.828125 -3.515625 C 1.34375 -3.875 1.84375 -4 2.328125 -4 C 2.796875 -4 3.203125 -3.609375 3.203125 -2.875 L 3.203125 -2.4375 C 1.703125 -2.421875 0.4375 -2 0.4375 -1.125 C 0.4375 -0.703125 0.703125 0.109375 1.578125 0.109375 C 1.71875 0.109375 2.65625 0.09375 3.234375 -0.359375 L 3.234375 0 L 3.984375 0 Z M 3.203125 -1.3125 C 3.203125 -1.125 3.203125 -0.875 2.859375 -0.6875 C 2.578125 -0.515625 2.1875 -0.5 2.078125 -0.5 C 1.609375 -0.5 1.15625 -0.734375 1.15625 -1.140625 C 1.15625 -1.84375 2.765625 -1.90625 3.203125 -1.9375 Z M 3.203125 -1.3125 "/>
</symbol>
<symbol overflow="visible" id="glyph9-7">
<path style="stroke:none;" d="M 4.09375 -4.171875 C 3.5 -4.5 3.15625 -4.59375 2.546875 -4.59375 C 1.171875 -4.59375 0.359375 -3.390625 0.359375 -2.21875 C 0.359375 -0.984375 1.265625 0.109375 2.515625 0.109375 C 3.046875 0.109375 3.59375 -0.03125 4.140625 -0.40625 L 4.078125 -1.0625 C 3.5625 -0.671875 3.03125 -0.53125 2.515625 -0.53125 C 1.6875 -0.53125 1.140625 -1.25 1.140625 -2.21875 C 1.140625 -3 1.5 -3.953125 2.5625 -3.953125 C 3.078125 -3.953125 3.421875 -3.875 3.96875 -3.515625 Z M 4.09375 -4.171875 "/>
</symbol>
<symbol overflow="visible" id="glyph9-8">
<path style="stroke:none;" d="M 1.75 -3.84375 L 3.15625 -3.84375 L 3.15625 -4.421875 L 1.75 -4.421875 L 1.75 -5.6875 L 1.0625 -5.6875 L 1.0625 -4.421875 L 0.1875 -4.421875 L 0.1875 -3.84375 L 1.03125 -3.84375 L 1.03125 -1.1875 C 1.03125 -0.59375 1.171875 0.109375 1.859375 0.109375 C 2.546875 0.109375 3.0625 -0.140625 3.3125 -0.265625 L 3.15625 -0.859375 C 2.890625 -0.640625 2.578125 -0.53125 2.25 -0.53125 C 1.890625 -0.53125 1.75 -0.828125 1.75 -1.359375 Z M 1.75 -3.84375 "/>
</symbol>
<symbol overflow="visible" id="glyph9-9">
<path style="stroke:none;" d="M 4.34375 -2.96875 C 4.34375 -3.625 4.1875 -4.53125 2.96875 -4.53125 C 2.078125 -4.53125 1.578125 -3.859375 1.53125 -3.78125 L 1.53125 -4.484375 L 0.8125 -4.484375 L 0.8125 0 L 1.578125 0 L 1.578125 -2.4375 C 1.578125 -3.09375 1.828125 -3.921875 2.59375 -3.921875 C 3.546875 -3.921875 3.5625 -3.21875 3.5625 -2.90625 L 3.5625 0 L 4.34375 0 Z M 4.34375 -2.96875 "/>
</symbol>
<symbol overflow="visible" id="glyph9-10">
<path style="stroke:none;" d="M 3.765625 -6.921875 L 2.875 -6.921875 L 0.28125 0 L 1.015625 0 L 1.78125 -2.03125 L 4.6875 -2.03125 L 5.4375 0 L 6.359375 0 Z M 4.46875 -2.59375 L 2 -2.59375 L 2.640625 -4.390625 C 2.84375 -4.984375 3.15625 -5.828125 3.234375 -6.203125 C 3.265625 -6.0625 3.328125 -5.8125 3.5625 -5.15625 Z M 4.46875 -2.59375 "/>
</symbol>
<symbol overflow="visible" id="glyph10-0">
<path style="stroke:none;" d=""/>
</symbol>
<symbol overflow="visible" id="glyph10-1">
<path style="stroke:none;" d="M 3.765625 -6.921875 L 2.875 -6.921875 L 0.28125 0 L 1.015625 0 L 1.78125 -2.03125 L 4.6875 -2.03125 L 5.4375 0 L 6.359375 0 Z M 4.46875 -2.59375 L 2 -2.59375 L 2.640625 -4.390625 C 2.84375 -4.984375 3.15625 -5.828125 3.234375 -6.203125 C 3.265625 -6.0625 3.328125 -5.8125 3.5625 -5.15625 Z M 4.46875 -2.59375 "/>
</symbol>
<symbol overflow="visible" id="glyph10-2">
<path style="stroke:none;" d="M 5.984375 -2.984375 L 3.875 -2.984375 L 3.875 -2.359375 L 5.1875 -2.359375 L 5.1875 -0.734375 C 4.796875 -0.59375 4.3125 -0.53125 3.890625 -0.53125 C 2.578125 -0.53125 1.5625 -1.859375 1.5625 -3.46875 C 1.5625 -5.03125 2.546875 -6.390625 3.875 -6.390625 C 4.671875 -6.390625 5.25 -6.15625 5.75 -5.734375 L 5.890625 -6.546875 C 5.328125 -6.890625 4.5625 -7.03125 3.890625 -7.03125 C 1.96875 -7.03125 0.65625 -5.296875 0.65625 -3.46875 C 0.65625 -1.65625 1.984375 0.109375 3.890625 0.109375 C 4.640625 0.109375 5.3125 -0.09375 5.984375 -0.375 Z M 5.984375 -2.984375 "/>
</symbol>
<symbol overflow="visible" id="glyph10-3">
<path style="stroke:none;" d="M 5.109375 -3.28125 L 5.109375 -3.890625 L 1.828125 -3.890625 L 1.828125 -6.25 L 3.203125 -6.25 C 3.3125 -6.25 3.4375 -6.234375 3.5625 -6.234375 L 5.390625 -6.234375 L 5.390625 -6.890625 L 0.9375 -6.890625 L 0.9375 0 L 5.515625 0 L 5.515625 -0.703125 L 4.265625 -0.703125 C 4.140625 -0.703125 4.03125 -0.703125 3.90625 -0.703125 L 1.828125 -0.703125 L 1.828125 -3.28125 Z M 5.109375 -3.28125 "/>
</symbol>
<symbol overflow="visible" id="glyph10-4">
<path style="stroke:none;" d="M 2.1875 -6.921875 L 0.953125 -6.921875 L 0.953125 0 L 1.734375 0 L 1.734375 -6.203125 L 1.75 -6.203125 C 1.9375 -5.796875 2.359375 -4.953125 2.40625 -4.84375 L 4.859375 0 L 6.09375 0 L 6.09375 -6.921875 L 5.3125 -6.921875 L 5.3125 -0.703125 L 5.296875 -0.703125 C 5.109375 -1.109375 4.6875 -1.96875 4.640625 -2.078125 Z M 2.1875 -6.921875 "/>
</symbol>
<symbol overflow="visible" id="glyph10-5">
<path style="stroke:none;" d="M 3.84375 -6.21875 L 4.71875 -6.21875 C 4.84375 -6.21875 4.96875 -6.203125 5.078125 -6.203125 L 6.421875 -6.203125 L 6.421875 -6.859375 L 0.359375 -6.859375 L 0.359375 -6.203125 L 1.6875 -6.203125 C 1.8125 -6.203125 1.9375 -6.21875 2.046875 -6.21875 L 2.953125 -6.21875 L 2.953125 0 L 3.84375 0 Z M 3.84375 -6.21875 "/>
</symbol>
</g>
</defs>
<g id="surface1">
<path style="fill-rule:evenodd;fill:rgb(79.2%,100%,43.9%);fill-opacity:1;stroke-width:1.2;stroke-linecap:butt;stroke-linejoin:round;stroke:rgb(0%,39.2%,0%);stroke-opacity:1;stroke-miterlimit:10;" d="M 16.001562 831.998438 L 16.001562 671.998438 L 176.001563 671.998438 L 176.001563 831.998438 Z M 16.001562 831.998438 " transform="matrix(1,0,0,-1,-15.4,832.6)"/>
<path style="fill:none;stroke-width:1.2;stroke-linecap:butt;stroke-linejoin:round;stroke:rgb(0%,0%,0%);stroke-opacity:1;stroke-miterlimit:10;" d="M 132.001563 811.998438 L 132.001563 767.998438 " transform="matrix(1,0,0,-1,-15.4,832.6)"/>
<path style="fill-rule:evenodd;fill:rgb(0%,0%,0%);fill-opacity:1;stroke-width:1.2;stroke-linecap:butt;stroke-linejoin:round;stroke:rgb(0%,0%,0%);stroke-opacity:1;stroke-miterlimit:10;" d="M 132.001563 767.998438 L 134.329688 774.998438 L 129.669531 774.998438 Z M 132.001563 767.998438 " transform="matrix(1,0,0,-1,-15.4,832.6)"/>
<g style="fill:rgb(0%,0%,0%);fill-opacity:1;">
  <use xlink:href="#glyph0-1" x="101.172" y="15.518"/>
  <use xlink:href="#glyph0-2" x="106.701243" y="15.518"/>
  <use xlink:href="#glyph0-3" x="111.124637" y="15.518"/>
  <use xlink:href="#glyph0-4" x="116.265339" y="15.518"/>
  <use xlink:href="#glyph0-5" x="120.081015" y="15.518"/>
  <use xlink:href="#glyph0-6" x="124.783362" y="15.518"/>
  <use xlink:href="#glyph0-4" x="128.180609" y="15.518"/>
</g>
<path style="fill-rule:evenodd;fill:rgb(100%,75.3%,79.6%);fill-opacity:1;stroke-width:1.2;stroke-linecap:butt;stroke-linejoin:round;stroke:rgb(54.5%,0%,0%);stroke-opacity:1;stroke-miterlimit:10;" d="M 208.001563 831.998438 L 208.001563 671.998438 L 240.001563 671.998438 L 240.001563 831.998438 Z M 208.001563 831.998438 " transform="matrix(1,0,0,-1,-15.4,832.6)"/>
<g style="fill:rgb(0%,0%,0%);fill-opacity:1;">
  <use xlink:href="#glyph1-1" x="204.782438" y="44.763632"/>
  <use xlink:href="#glyph1-2" x="204.841841" y="50.711007"/>
  <use xlink:href="#glyph1-3" x="204.91229" y="57.764175"/>
  <use xlink:href="#glyph1-4" x="204.978559" y="64.398935"/>
  <use xlink:href="#glyph1-5" x="205.006122" y="67.158437"/>
  <use xlink:href="#glyph1-6" x="205.070301" y="73.583992"/>
  <use xlink:href="#glyph1-2" x="205.143536" y="80.916099"/>
  <use xlink:href="#glyph1-7" x="205.213984" y="87.969268"/>
  <use xlink:href="#glyph1-1" x="205.30105" y="96.686107"/>
  <use xlink:href="#glyph1-2" x="205.360453" y="102.633482"/>
  <use xlink:href="#glyph1-8" x="205.430902" y="109.68665"/>
</g>
<g style="fill:rgb(0%,0%,0%);fill-opacity:1;">
  <use xlink:href="#glyph2-1" x="96.536" y="147.518"/>
  <use xlink:href="#glyph2-2" x="103.171092" y="147.518"/>
  <use xlink:href="#glyph2-3" x="107.594486" y="147.518"/>
  <use xlink:href="#glyph2-4" x="111.190985" y="147.518"/>
  <use xlink:href="#glyph2-5" x="116.331686" y="147.518"/>
  <use xlink:href="#glyph2-3" x="121.113734" y="147.518"/>
  <use xlink:href="#glyph2-6" x="124.710233" y="147.518"/>
  <use xlink:href="#glyph2-7" x="129.41258" y="147.518"/>
  <use xlink:href="#glyph2-8" x="132.809827" y="147.518"/>
</g>
<path style=" stroke:none;fill-rule:evenodd;fill:rgb(67.8%,84.7%,90.2%);fill-opacity:1;" d="M 8.601562 120.601562 L 8.601562 144.601562 L 68.601562 144.601562 L 68.601562 120.601562 Z M 8.601562 120.601562 "/>
<path style="fill:none;stroke-width:1.2;stroke-linecap:butt;stroke-linejoin:round;stroke:rgb(0%,0%,0%);stroke-opacity:1;stroke-miterlimit:10;" d="M 156.001563 687.998438 L 224.001563 687.998438 " transform="matrix(1,0,0,-1,-15.4,832.6)"/>
<path style="fill-rule:evenodd;fill:rgb(0%,0%,0%);fill-opacity:1;stroke-width:1.2;stroke-linecap:butt;stroke-linejoin:round;stroke:rgb(0%,0%,0%);stroke-opacity:1;stroke-miterlimit:10;" d="M 224.001563 687.998438 L 217.001563 690.330469 L 217.001563 685.670313 Z M 224.001563 687.998438 " transform="matrix(1,0,0,-1,-15.4,832.6)"/>
<path style="fill:none;stroke-width:1.2;stroke-linecap:butt;stroke-linejoin:round;stroke:rgb(0%,0%,0%);stroke-opacity:1;stroke-miterlimit:10;" d="M 224.001563 819.998438 L 156.001563 819.998438 " transform="matrix(1,0,0,-1,-15.4,832.6)"/>
<path style="fill-rule:evenodd;fill:rgb(0%,0%,0%);fill-opacity:1;stroke-width:1.2;stroke-linecap:butt;stroke-linejoin:round;stroke:rgb(0%,0%,0%);stroke-opacity:1;stroke-miterlimit:10;" d="M 156.001563 819.998438 L 163.001563 817.670313 L 163.001563 822.330469 Z M 156.001563 819.998438 " transform="matrix(1,0,0,-1,-15.4,832.6)"/>
<g style="fill:rgb(0%,0%,0%);fill-opacity:1;">
  <use xlink:href="#glyph3-1" x="21.29" y="129.1135"/>
  <use xlink:href="#glyph3-2" x="27.646139" y="129.1135"/>
  <use xlink:href="#glyph3-3" x="31.043385" y="129.1135"/>
  <use xlink:href="#glyph3-4" x="36.024685" y="129.1135"/>
  <use xlink:href="#glyph3-5" x="41.165387" y="129.1135"/>
  <use xlink:href="#glyph3-6" x="43.536486" y="129.1135"/>
  <use xlink:href="#glyph3-7" x="47.95988" y="129.1135"/>
</g>
<g style="fill:rgb(0%,0%,0%);fill-opacity:1;">
  <use xlink:href="#glyph4-1" x="19.159" y="141.0685"/>
  <use xlink:href="#glyph4-2" x="24.1403" y="141.0685"/>
  <use xlink:href="#glyph4-3" x="28.563694" y="141.0685"/>
  <use xlink:href="#glyph4-2" x="33.704396" y="141.0685"/>
  <use xlink:href="#glyph4-4" x="38.12779" y="141.0685"/>
  <use xlink:href="#glyph4-5" x="41.525037" y="141.0685"/>
  <use xlink:href="#glyph4-6" x="46.307085" y="141.0685"/>
  <use xlink:href="#glyph4-7" x="49.903584" y="141.0685"/>
  <use xlink:href="#glyph4-4" x="54.605931" y="141.0685"/>
</g>
<path style="fill:none;stroke-width:1.2;stroke-linecap:butt;stroke-linejoin:round;stroke:rgb(0%,0%,0%);stroke-opacity:1;stroke-miterlimit:10;" d="M 84.001563 699.998438 L 124.001563 743.998438 " transform="matrix(1,0,0,-1,-15.4,832.6)"/>
<path style="fill-rule:evenodd;fill:rgb(0%,0%,0%);fill-opacity:1;stroke-width:1.2;stroke-linecap:butt;stroke-linejoin:round;stroke:rgb(0%,0%,0%);stroke-opacity:1;stroke-miterlimit:10;" d="M 124.001563 743.998438 L 117.567969 740.389063 L 121.017188 737.252344 Z M 124.001563 743.998438 " transform="matrix(1,0,0,-1,-15.4,832.6)"/>
<path style=" stroke:none;fill-rule:evenodd;fill:rgb(96.1%,96.1%,86.3%);fill-opacity:1;" d="M 8.601562 4.601562 L 8.601562 20.601562 L 64.601562 20.601562 L 64.601562 4.601562 Z M 8.601562 4.601562 "/>
<path style=" stroke:none;fill-rule:evenodd;fill:rgb(100%,100%,0%);fill-opacity:1;" d="M 8.601562 64.601562 L 8.601562 88.601562 L 64.601562 88.601562 L 64.601562 64.601562 Z M 8.601562 64.601562 "/>
<g style="fill:rgb(0%,0%,0%);fill-opacity:1;">
  <use xlink:href="#glyph5-1" x="25.323" y="16.059"/>
  <use xlink:href="#glyph5-2" x="31.679139" y="16.059"/>
  <use xlink:href="#glyph5-3" x="35.076385" y="16.059"/>
  <use xlink:href="#glyph5-4" x="37.447484" y="16.059"/>
  <use xlink:href="#glyph5-3" x="41.043983" y="16.059"/>
  <use xlink:href="#glyph5-5" x="43.415082" y="16.059"/>
</g>
<g style="fill:rgb(0%,0%,0%);fill-opacity:1;">
  <use xlink:href="#glyph6-1" x="18.902" y="74.082"/>
  <use xlink:href="#glyph6-2" x="24.291767" y="74.082"/>
  <use xlink:href="#glyph6-3" x="28.715161" y="74.082"/>
  <use xlink:href="#glyph6-4" x="33.218256" y="74.082"/>
  <use xlink:href="#glyph6-5" x="36.615503" y="74.082"/>
  <use xlink:href="#glyph6-6" x="41.756204" y="74.082"/>
  <use xlink:href="#glyph6-5" x="44.127303" y="74.082"/>
  <use xlink:href="#glyph6-7" x="49.268005" y="74.082"/>
</g>
<g style="fill:rgb(0%,0%,0%);fill-opacity:1;">
  <use xlink:href="#glyph7-1" x="20.438" y="86.037"/>
  <use xlink:href="#glyph7-2" x="24.861394" y="86.037"/>
  <use xlink:href="#glyph7-1" x="27.232493" y="86.037"/>
  <use xlink:href="#glyph7-3" x="31.655888" y="86.037"/>
  <use xlink:href="#glyph7-1" x="39.566192" y="86.037"/>
  <use xlink:href="#glyph7-4" x="43.989586" y="86.037"/>
  <use xlink:href="#glyph7-5" x="49.130288" y="86.037"/>
</g>
<path style=" stroke:none;fill-rule:evenodd;fill:rgb(100%,100%,87.8%);fill-opacity:1;" d="M 76.601562 64.601562 L 76.601562 88.601562 L 156.601562 88.601562 L 156.601562 64.601562 Z M 76.601562 64.601562 "/>
<g style="fill:rgb(0%,0%,0%);fill-opacity:1;">
  <use xlink:href="#glyph8-1" x="76.708" y="74.082"/>
  <use xlink:href="#glyph8-2" x="86.112694" y="74.082"/>
  <use xlink:href="#glyph8-3" x="91.253396" y="74.082"/>
  <use xlink:href="#glyph8-4" x="96.035444" y="74.082"/>
  <use xlink:href="#glyph8-5" x="102.949488" y="74.082"/>
  <use xlink:href="#glyph8-4" x="105.320587" y="74.082"/>
  <use xlink:href="#glyph8-6" x="112.244594" y="74.082"/>
  <use xlink:href="#glyph8-5" x="119.04905" y="74.082"/>
  <use xlink:href="#glyph8-7" x="121.420149" y="74.082"/>
  <use xlink:href="#glyph8-7" x="123.791248" y="74.082"/>
  <use xlink:href="#glyph8-8" x="129.479892" y="74.082"/>
  <use xlink:href="#glyph8-9" x="134.899547" y="74.082"/>
  <use xlink:href="#glyph8-7" x="142.640487" y="74.082"/>
  <use xlink:href="#glyph8-5" x="145.011586" y="74.082"/>
  <use xlink:href="#glyph8-10" x="147.382684" y="74.082"/>
  <use xlink:href="#glyph8-9" x="151.96548" y="74.082"/>
</g>
<g style="fill:rgb(0%,0%,0%);fill-opacity:1;">
  <use xlink:href="#glyph9-1" x="84.816" y="86.037"/>
  <use xlink:href="#glyph9-2" x="87.187099" y="86.037"/>
  <use xlink:href="#glyph9-3" x="93.543238" y="86.037"/>
  <use xlink:href="#glyph9-4" x="99.630386" y="86.037"/>
  <use xlink:href="#glyph9-5" x="104.771088" y="86.037"/>
  <use xlink:href="#glyph9-6" x="113.069934" y="86.037"/>
  <use xlink:href="#glyph9-7" x="117.851982" y="86.037"/>
  <use xlink:href="#glyph9-8" x="122.275376" y="86.037"/>
  <use xlink:href="#glyph9-1" x="125.871875" y="86.037"/>
  <use xlink:href="#glyph9-5" x="128.242973" y="86.037"/>
  <use xlink:href="#glyph9-9" x="133.224273" y="86.037"/>
  <use xlink:href="#glyph9-10" x="141.682521" y="86.037"/>
</g>
<path style="fill:none;stroke-width:0.4;stroke-linecap:round;stroke-linejoin:round;stroke:rgb(46.3%,93.3%,77.6%);stroke-opacity:1;stroke-miterlimit:10;" d="M 104.001563 759.998438 L 104.001563 759.998438 " transform="matrix(1,0,0,-1,-15.4,832.6)"/>
<path style="fill:none;stroke-width:1.2;stroke-linecap:butt;stroke-linejoin:round;stroke:rgb(0%,0%,0%);stroke-opacity:1;stroke-miterlimit:10;" d="M 132.001563 743.998438 L 132.001563 695.998438 " transform="matrix(1,0,0,-1,-15.4,832.6)"/>
<path style="fill-rule:evenodd;fill:rgb(0%,0%,0%);fill-opacity:1;stroke-width:1.2;stroke-linecap:butt;stroke-linejoin:round;stroke:rgb(0%,0%,0%);stroke-opacity:1;stroke-miterlimit:10;" d="M 132.001563 695.998438 L 134.329688 702.998438 L 129.669531 702.998438 Z M 132.001563 695.998438 " transform="matrix(1,0,0,-1,-15.4,832.6)"/>
<path style="fill:none;stroke-width:0.4;stroke-linecap:butt;stroke-linejoin:round;stroke:rgb(0%,0%,0%);stroke-opacity:1;stroke-miterlimit:10;" d="M 108.001563 819.998438 L 80.001563 819.998438 " transform="matrix(1,0,0,-1,-15.4,832.6)"/>
<path style="fill-rule:evenodd;fill:rgb(0%,0%,0%);fill-opacity:1;stroke-width:0.4;stroke-linecap:butt;stroke-linejoin:round;stroke:rgb(0%,0%,0%);stroke-opacity:1;stroke-miterlimit:10;" d="M 80.001563 819.998438 L 87.001563 817.670313 L 87.001563 822.330469 Z M 80.001563 819.998438 " transform="matrix(1,0,0,-1,-15.4,832.6)"/>
<path style="fill:none;stroke-width:1.2;stroke-linecap:butt;stroke-linejoin:round;stroke:rgb(0%,0%,0%);stroke-opacity:1;stroke-miterlimit:10;" d="M 52.001562 811.998438 L 52.001562 767.998438 " transform="matrix(1,0,0,-1,-15.4,832.6)"/>
<path style="fill-rule:evenodd;fill:rgb(0%,0%,0%);fill-opacity:1;stroke-width:1.2;stroke-linecap:butt;stroke-linejoin:round;stroke:rgb(0%,0%,0%);stroke-opacity:1;stroke-miterlimit:10;" d="M 52.001562 767.998438 L 54.329687 774.998438 L 49.669531 774.998438 Z M 52.001562 767.998438 " transform="matrix(1,0,0,-1,-15.4,832.6)"/>
<path style="fill:none;stroke-width:0.4;stroke-linecap:butt;stroke-linejoin:round;stroke:rgb(0%,0%,0%);stroke-opacity:1;stroke-miterlimit:10;" d="M 80.001563 763.998438 L 92.001563 763.998438 " transform="matrix(1,0,0,-1,-15.4,832.6)"/>
<path style="fill-rule:evenodd;fill:rgb(0%,0%,0%);fill-opacity:1;stroke-width:0.4;stroke-linecap:butt;stroke-linejoin:round;stroke:rgb(0%,0%,0%);stroke-opacity:1;stroke-miterlimit:10;" d="M 92.001563 763.998438 L 85.001563 766.330469 L 85.001563 761.670313 Z M 92.001563 763.998438 " transform="matrix(1,0,0,-1,-15.4,832.6)"/>
<path style="fill:none;stroke-width:0.4;stroke-linecap:butt;stroke-linejoin:round;stroke:rgb(0%,0%,0%);stroke-opacity:1;stroke-miterlimit:10;" d="M 92.001563 747.998438 L 80.001563 747.998438 " transform="matrix(1,0,0,-1,-15.4,832.6)"/>
<path style="fill-rule:evenodd;fill:rgb(0%,0%,0%);fill-opacity:1;stroke-width:0.4;stroke-linecap:butt;stroke-linejoin:round;stroke:rgb(0%,0%,0%);stroke-opacity:1;stroke-miterlimit:10;" d="M 80.001563 747.998438 L 87.001563 745.670313 L 87.001563 750.330469 Z M 80.001563 747.998438 " transform="matrix(1,0,0,-1,-15.4,832.6)"/>
<g style="fill:rgb(0%,0%,0%);fill-opacity:1;">
  <use xlink:href="#glyph10-1" x="4.6" y="156.6"/>
  <use xlink:href="#glyph10-2" x="10.956139" y="156.6"/>
  <use xlink:href="#glyph10-3" x="17.59123" y="156.6"/>
  <use xlink:href="#glyph10-4" x="23.538903" y="156.6"/>
  <use xlink:href="#glyph10-5" x="30.592423" y="156.6"/>
</g>
<path style="fill:none;stroke-width:1.2;stroke-linecap:butt;stroke-linejoin:round;stroke:rgb(0%,0%,0%);stroke-opacity:1;stroke-miterlimit:10;" d="M 52.001562 743.998438 L 52.001562 711.998438 " transform="matrix(1,0,0,-1,-15.4,832.6)"/>
<path style="fill-rule:evenodd;fill:rgb(0%,0%,0%);fill-opacity:1;stroke-width:1.2;stroke-linecap:butt;stroke-linejoin:round;stroke:rgb(0%,0%,0%);stroke-opacity:1;stroke-miterlimit:10;" d="M 52.001562 711.998438 L 54.329687 718.998438 L 49.669531 718.998438 Z M 52.001562 711.998438 " transform="matrix(1,0,0,-1,-15.4,832.6)"/>
</g>
</svg>
