<?xml version="1.0" encoding="UTF-8"?>
<svg xmlns="http://www.w3.org/2000/svg" xmlns:xlink="http://www.w3.org/1999/xlink" width="611pt" height="402pt" viewBox="0 0 611 402" version="1.1">
<defs>
<g>
<symbol overflow="visible" id="glyph0-0">
<path style="stroke:none;" d=""/>
</symbol>
<symbol overflow="visible" id="glyph0-1">
<path style="stroke:none;" d="M 2.703125 -19.359375 L 2.703125 0 L 10.0625 0 C 14.078125 0 17.015625 -2.515625 17.015625 -5.25 C 17.015625 -7.671875 14.59375 -9.65625 11.625 -10.125 C 14.171875 -10.765625 16.265625 -12.390625 16.265625 -14.5 C 16.265625 -17.0625 13.28125 -19.359375 9.3125 -19.359375 Z M 5.015625 -10.90625 L 5.015625 -17.796875 L 8.53125 -17.796875 C 11.625 -17.796875 14.078125 -16.3125 14.078125 -14.46875 C 14.078125 -12.796875 12.109375 -10.90625 8.25 -10.90625 Z M 5.015625 -1.5625 L 5.015625 -9.203125 L 9.0625 -9.203125 C 12.015625 -9.203125 14.75 -7.5 14.75 -5.265625 C 14.75 -3.171875 12.296875 -1.5625 9.28125 -1.5625 Z M 5.015625 -1.5625 "/>
</symbol>
<symbol overflow="visible" id="glyph0-2">
<path style="stroke:none;" d="M 12.125 -12.390625 L 9.953125 -12.390625 L 9.953125 -4.296875 C 9.953125 -2.203125 8.390625 -1.234375 6.609375 -1.234375 C 4.625 -1.234375 4.4375 -1.953125 4.4375 -3.15625 L 4.4375 -12.390625 L 2.265625 -12.390625 L 2.265625 -3.046875 C 2.265625 -1.03125 2.90625 0.3125 5.21875 0.3125 C 6.6875 0.3125 8.671875 -0.140625 10.046875 -1.34375 L 10.046875 0 L 12.125 0 Z M 12.125 -12.390625 "/>
</symbol>
<symbol overflow="visible" id="glyph0-3">
<path style="stroke:none;" d="M 4.375 -5.96875 C 4.375 -8.75 6.390625 -10.765625 9.125 -10.828125 L 9.125 -12.6875 C 6.640625 -12.65625 5.109375 -11.296875 4.234375 -10.015625 L 4.234375 -12.546875 L 2.28125 -12.546875 L 2.28125 0 L 4.375 0 Z M 4.375 -5.96875 "/>
</symbol>
<symbol overflow="visible" id="glyph0-4">
<path style="stroke:none;" d="M 9.8125 -10.90625 C 10.4375 -10.90625 11.21875 -11.015625 11.875 -11.015625 C 12.390625 -11.015625 13.46875 -10.9375 13.53125 -10.9375 L 13.21875 -12.6875 C 11.265625 -12.6875 9.65625 -12.15625 8.8125 -11.796875 C 8.234375 -12.265625 7.28125 -12.6875 6.15625 -12.6875 C 3.765625 -12.6875 1.734375 -10.6875 1.734375 -8.140625 C 1.734375 -7.109375 2.09375 -6.109375 2.65625 -5.390625 C 1.84375 -4.234375 1.84375 -3.15625 1.84375 -3.015625 C 1.84375 -2.28125 2.09375 -1.484375 2.5625 -0.890625 C 1.109375 -0.03125 0.78125 1.25 0.78125 1.984375 C 0.78125 4.078125 3.546875 5.75 6.9375 5.75 C 10.375 5.75 13.140625 4.09375 13.140625 1.953125 C 13.140625 -1.921875 8.484375 -1.921875 7.390625 -1.921875 L 4.9375 -1.921875 C 4.578125 -1.921875 3.3125 -1.921875 3.3125 -3.40625 C 3.3125 -3.703125 3.4375 -4.15625 3.625 -4.40625 C 4.21875 -3.984375 5.125 -3.59375 6.15625 -3.59375 C 8.671875 -3.59375 10.625 -5.65625 10.625 -8.140625 C 10.625 -9.484375 10.015625 -10.515625 9.703125 -10.9375 Z M 6.15625 -5.1875 C 5.125 -5.1875 3.6875 -5.828125 3.6875 -8.140625 C 3.6875 -10.453125 5.125 -11.09375 6.15625 -11.09375 C 7.359375 -11.09375 8.671875 -10.3125 8.671875 -8.140625 C 8.671875 -5.96875 7.359375 -5.1875 6.15625 -5.1875 Z M 7.421875 0.078125 C 8.03125 0.078125 11.1875 0.078125 11.1875 2.015625 C 11.1875 3.234375 9.265625 4.15625 6.96875 4.15625 C 4.71875 4.15625 2.734375 3.296875 2.734375 1.984375 C 2.734375 1.890625 2.734375 0.078125 4.90625 0.078125 Z M 7.421875 0.078125 "/>
</symbol>
<symbol overflow="visible" id="glyph0-5">
<path style="stroke:none;" d="M 4.34375 -19.359375 L 2.265625 -19.359375 L 2.265625 0 L 4.34375 0 Z M 4.34375 -19.359375 "/>
</symbol>
<symbol overflow="visible" id="glyph0-6">
<path style="stroke:none;" d="M 11.125 -8.0625 C 11.125 -10.90625 9.09375 -12.859375 6.53125 -12.859375 C 4.71875 -12.859375 3.453125 -12.40625 2.140625 -11.65625 L 2.3125 -9.8125 C 3.765625 -10.84375 5.15625 -11.21875 6.53125 -11.21875 C 7.84375 -11.21875 8.953125 -10.09375 8.953125 -8.03125 L 8.953125 -6.828125 C 4.765625 -6.78125 1.234375 -5.609375 1.234375 -3.15625 C 1.234375 -1.953125 1.984375 0.3125 4.40625 0.3125 C 4.796875 0.3125 7.421875 0.25 9.03125 -1 L 9.03125 0 L 11.125 0 Z M 8.953125 -3.6875 C 8.953125 -3.15625 8.953125 -2.453125 8 -1.921875 C 7.203125 -1.421875 6.140625 -1.390625 5.828125 -1.390625 C 4.484375 -1.390625 3.234375 -2.03125 3.234375 -3.203125 C 3.234375 -5.15625 7.75 -5.359375 8.953125 -5.40625 Z M 8.953125 -3.6875 "/>
</symbol>
<symbol overflow="visible" id="glyph0-7">
<path style="stroke:none;" d="M 12.4375 -12.390625 L 10.34375 -12.390625 C 6.71875 -3.515625 6.671875 -2.234375 6.640625 -1.59375 L 6.609375 -1.59375 C 6.4375 -3.453125 4.21875 -8.640625 4.09375 -8.890625 L 2.59375 -12.390625 L 0.390625 -12.390625 L 5.796875 0 C 5.46875 0.859375 4.90625 2.265625 4.796875 2.515625 C 4.078125 4.125 3.59375 4.125 3.203125 4.125 C 2.765625 4.125 1.875 4.015625 1.03125 3.6875 L 1.203125 5.5 C 1.8125 5.640625 2.59375 5.71875 3.203125 5.71875 C 4.1875 5.71875 5.21875 5.390625 6.359375 2.53125 Z M 12.4375 -12.390625 "/>
</symbol>
<symbol overflow="visible" id="glyph0-8">
<path style="stroke:none;" d="M 14.3125 -9.171875 L 14.3125 -10.875 L 5.109375 -10.875 L 5.109375 -17.484375 L 8.953125 -17.484375 C 9.28125 -17.484375 9.625 -17.453125 9.953125 -17.453125 L 15.0625 -17.453125 L 15.0625 -19.265625 L 2.625 -19.265625 L 2.625 0 L 15.453125 0 L 15.453125 -1.984375 L 11.9375 -1.984375 C 11.609375 -1.984375 11.265625 -1.953125 10.9375 -1.953125 L 5.109375 -1.953125 L 5.109375 -9.171875 Z M 14.3125 -9.171875 "/>
</symbol>
<symbol overflow="visible" id="glyph0-9">
<path style="stroke:none;" d="M 4.875 -10.765625 L 8.8125 -10.765625 L 8.8125 -12.390625 L 4.875 -12.390625 L 4.875 -15.921875 L 2.953125 -15.921875 L 2.953125 -12.390625 L 0.53125 -12.390625 L 0.53125 -10.765625 L 2.875 -10.765625 L 2.875 -3.3125 C 2.875 -1.640625 3.265625 0.3125 5.1875 0.3125 C 7.140625 0.3125 8.5625 -0.390625 9.265625 -0.75 L 8.8125 -2.40625 C 8.09375 -1.8125 7.203125 -1.484375 6.296875 -1.484375 C 5.265625 -1.484375 4.875 -2.3125 4.875 -3.796875 Z M 4.875 -10.765625 "/>
</symbol>
<symbol overflow="visible" id="glyph0-10">
<path style="stroke:none;" d="M 12.125 -8.3125 C 12.125 -10.15625 11.71875 -12.6875 8.3125 -12.6875 C 6.578125 -12.6875 5.25 -11.828125 4.34375 -10.6875 L 4.34375 -19.359375 L 2.265625 -19.359375 L 2.265625 0 L 4.4375 0 L 4.4375 -6.828125 C 4.4375 -8.671875 5.125 -10.984375 7.25 -10.984375 C 9.921875 -10.984375 9.953125 -9.015625 9.953125 -8.109375 L 9.953125 0 L 12.125 0 Z M 12.125 -8.3125 "/>
</symbol>
<symbol overflow="visible" id="glyph0-11">
<path style="stroke:none;" d="M 12.109375 -12.6875 L 10.015625 -12.6875 L 10.015625 -10.796875 C 9.734375 -11.15625 8.375 -12.6875 6.1875 -12.6875 C 3.40625 -12.6875 1 -9.921875 1 -6.15625 C 1 -2.625 3.046875 0.3125 5.71875 0.3125 C 7.28125 0.3125 8.75 -0.328125 9.921875 -1.390625 L 9.921875 5.40625 L 12.109375 5.40625 Z M 10.015625 -3.90625 C 10.015625 -3.40625 10.015625 -3.34375 9.734375 -2.984375 C 9.015625 -1.875 7.984375 -1.390625 6.96875 -1.390625 C 4.859375 -1.390625 3.171875 -3.5625 3.171875 -6.15625 C 3.171875 -9.015625 5.1875 -10.90625 7.21875 -10.90625 C 9.140625 -10.90625 10.015625 -8.921875 10.015625 -7.8125 Z M 10.015625 -3.90625 "/>
</symbol>
<symbol overflow="visible" id="glyph0-12">
<path style="stroke:none;" d="M 7.84375 -7.59375 L 12.515625 -12.390625 L 10.015625 -12.390625 L 4.34375 -6.578125 L 4.34375 -19.359375 L 2.34375 -19.359375 L 2.34375 0 L 4.265625 0 L 4.265625 -3.9375 L 6.5 -6.25 L 10.84375 0 L 13.140625 0 Z M 7.84375 -7.59375 "/>
</symbol>
<symbol overflow="visible" id="glyph0-13">
<path style="stroke:none;" d="M 11.546875 -6.109375 C 11.546875 -7.0625 11.515625 -9.140625 10.4375 -10.828125 C 9.28125 -12.546875 7.59375 -12.859375 6.578125 -12.859375 C 3.484375 -12.859375 0.96875 -9.90625 0.96875 -6.296875 C 0.96875 -2.625 3.65625 0.3125 7 0.3125 C 8.75 0.3125 10.34375 -0.359375 11.4375 -1.140625 L 11.265625 -2.953125 C 9.515625 -1.5 7.671875 -1.390625 7.03125 -1.390625 C 4.796875 -1.390625 3.015625 -3.375 2.921875 -6.109375 Z M 3.0625 -7.640625 C 3.515625 -9.765625 5 -11.15625 6.578125 -11.15625 C 8.03125 -11.15625 9.59375 -10.203125 9.953125 -7.640625 Z M 3.0625 -7.640625 "/>
</symbol>
<symbol overflow="visible" id="glyph0-14">
<path style="stroke:none;" d="M 10.515625 -19.359375 L 8.0625 -19.359375 L 0.78125 0 L 2.84375 0 L 5 -5.6875 L 13.109375 -5.6875 L 15.234375 0 L 17.796875 0 Z M 12.5 -7.25 L 5.578125 -7.25 L 7.390625 -12.296875 C 7.984375 -13.953125 8.84375 -16.3125 9.03125 -17.34375 L 9.0625 -17.34375 C 9.125 -16.953125 9.3125 -16.265625 9.953125 -14.421875 Z M 12.5 -7.25 "/>
</symbol>
<symbol overflow="visible" id="glyph0-15">
<path style="stroke:none;" d="M 19.890625 -8.3125 C 19.890625 -10.1875 19.4375 -12.6875 16.0625 -12.6875 C 14.390625 -12.6875 12.9375 -11.90625 11.90625 -10.40625 C 11.1875 -12.515625 9.234375 -12.6875 8.34375 -12.6875 C 6.328125 -12.6875 5.015625 -11.546875 4.265625 -10.546875 L 4.265625 -12.546875 L 2.265625 -12.546875 L 2.265625 0 L 4.4375 0 L 4.4375 -6.828125 C 4.4375 -8.734375 5.1875 -10.984375 7.25 -10.984375 C 9.84375 -10.984375 9.984375 -9.171875 9.984375 -8.109375 L 9.984375 0 L 12.15625 0 L 12.15625 -6.828125 C 12.15625 -8.734375 12.90625 -10.984375 14.984375 -10.984375 C 17.578125 -10.984375 17.703125 -9.171875 17.703125 -8.109375 L 17.703125 0 L 19.890625 0 Z M 19.890625 -8.3125 "/>
</symbol>
<symbol overflow="visible" id="glyph0-16">
<path style="stroke:none;" d="M 10.828125 -19.359375 L 8.421875 -19.359375 L 8.421875 -4.234375 C 8.421875 -3.765625 8.421875 -1.09375 5.125 -1.09375 C 3.953125 -1.09375 2.515625 -1.59375 1.5625 -2.65625 L 1.171875 -0.5625 C 1.84375 -0.21875 3.59375 0.609375 5.9375 0.609375 C 8.8125 0.609375 10.828125 -1 10.828125 -4.15625 Z M 10.828125 -19.359375 "/>
</symbol>
<symbol overflow="visible" id="glyph0-17">
<path style="stroke:none;" d="M 13.078125 -6.140625 C 13.078125 -9.875 10.296875 -12.859375 6.96875 -12.859375 C 3.546875 -12.859375 0.84375 -9.796875 0.84375 -6.140625 C 0.84375 -2.453125 3.6875 0.3125 6.9375 0.3125 C 10.296875 0.3125 13.078125 -2.515625 13.078125 -6.140625 Z M 6.9375 -1.484375 C 5.015625 -1.484375 3.015625 -3.046875 3.015625 -6.421875 C 3.015625 -9.796875 5.125 -11.15625 6.9375 -11.15625 C 8.890625 -11.15625 10.90625 -9.703125 10.90625 -6.421875 C 10.90625 -3.125 9.015625 -1.484375 6.9375 -1.484375 Z M 6.9375 -1.484375 "/>
</symbol>
<symbol overflow="visible" id="glyph0-18">
<path style="stroke:none;" d="M 12.125 -8.3125 C 12.125 -10.15625 11.71875 -12.6875 8.3125 -12.6875 C 5.796875 -12.6875 4.4375 -10.796875 4.265625 -10.578125 L 4.265625 -12.546875 L 2.265625 -12.546875 L 2.265625 0 L 4.4375 0 L 4.4375 -6.828125 C 4.4375 -8.671875 5.125 -10.984375 7.25 -10.984375 C 9.921875 -10.984375 9.953125 -9.015625 9.953125 -8.109375 L 9.953125 0 L 12.125 0 Z M 12.125 -8.3125 "/>
</symbol>
<symbol overflow="visible" id="glyph0-19">
<path style="stroke:none;" d="M 16.234375 -3.171875 C 14.59375 -2.09375 13.640625 -1.5 10.875 -1.5 C 6.859375 -1.5 4.34375 -5.6875 4.34375 -9.703125 C 4.34375 -13.5 6.671875 -17.875 10.9375 -17.875 C 12.90625 -17.875 14.171875 -17.40625 15.703125 -16.421875 L 16.09375 -18.71875 C 14.890625 -19.296875 12.75 -19.65625 10.96875 -19.65625 C 5.796875 -19.65625 1.84375 -15.3125 1.84375 -9.453125 C 1.84375 -5.046875 5.15625 0.3125 10.96875 0.3125 C 13.53125 0.3125 14.59375 -0.140625 16.40625 -1.25 Z M 16.234375 -3.171875 "/>
</symbol>
<symbol overflow="visible" id="glyph0-20">
<path style="stroke:none;" d="M 9.5625 -11.96875 C 8.109375 -12.640625 6.96875 -12.859375 5.546875 -12.859375 C 4.859375 -12.859375 0.921875 -12.859375 0.921875 -9.203125 C 0.921875 -7.84375 1.734375 -6.9375 2.421875 -6.421875 C 3.296875 -5.796875 3.90625 -5.6875 5.4375 -5.390625 C 6.4375 -5.1875 8.0625 -4.859375 8.0625 -3.375 C 8.0625 -1.453125 5.859375 -1.453125 5.4375 -1.453125 C 3.171875 -1.453125 1.625 -2.484375 1.109375 -2.8125 L 0.78125 -0.921875 C 1.671875 -0.46875 3.203125 0.3125 5.46875 0.3125 C 5.96875 0.3125 7.5 0.3125 8.703125 -0.578125 C 9.5625 -1.25 10.046875 -2.375 10.046875 -3.5625 C 10.046875 -5.109375 9.015625 -6.046875 8.953125 -6.140625 C 7.859375 -7.109375 7.109375 -7.28125 5.71875 -7.53125 C 4.1875 -7.84375 2.90625 -8.109375 2.90625 -9.484375 C 2.90625 -11.21875 4.90625 -11.21875 5.265625 -11.21875 C 6.15625 -11.21875 7.640625 -11.09375 9.234375 -10.15625 Z M 9.5625 -11.96875 "/>
</symbol>
<symbol overflow="visible" id="glyph0-21">
<path style="stroke:none;" d="M 14.78125 -9.90625 C 13.8125 -7.359375 12.5 -3.90625 12.1875 -2.59375 L 12.15625 -2.59375 C 12.015625 -3.171875 11.6875 -4.21875 11.265625 -5.390625 L 6.890625 -16.921875 L 5.9375 -19.359375 L 2.796875 -19.359375 L 2.796875 0 L 4.96875 0 L 4.96875 -17.296875 L 5 -17.296875 C 5.15625 -16.40625 6.28125 -13.359375 7 -11.46875 L 11.125 -0.609375 L 13.171875 -0.609375 L 16.875 -10.3125 C 17.765625 -12.609375 18.015625 -13.296875 18.21875 -13.859375 C 18.484375 -14.671875 19.25 -16.671875 19.390625 -17.3125 L 19.40625 -17.296875 L 19.40625 0 L 21.59375 0 L 21.59375 -19.359375 L 18.40625 -19.359375 Z M 14.78125 -9.90625 "/>
</symbol>
<symbol overflow="visible" id="glyph1-0">
<path style="stroke:none;" d=""/>
</symbol>
<symbol overflow="visible" id="glyph1-1">
<path style="stroke:none;" d="M 9.8125 -8.0625 C 13.28125 -8.0625 16.234375 -10.59375 16.234375 -13.71875 C 16.234375 -16.703125 13.46875 -19.359375 9.625 -19.359375 L 2.671875 -19.359375 L 2.671875 0 L 5.15625 0 L 5.15625 -8.0625 Z M 9.015625 -17.796875 C 12.078125 -17.796875 13.96875 -16.09375 13.96875 -13.71875 C 13.96875 -11.515625 12.21875 -9.671875 9.015625 -9.671875 L 5.078125 -9.671875 L 5.078125 -17.796875 Z M 9.015625 -17.796875 "/>
</symbol>
<symbol overflow="visible" id="glyph1-2">
<path style="stroke:none;" d="M 7.5625 -20.921875 C 6.671875 -20.078125 4.796875 -18.375 3.515625 -14.953125 C 2.40625 -11.96875 2.203125 -9.015625 2.203125 -6.96875 C 2.203125 2.03125 6.21875 5.75 7.5625 6.96875 L 9.265625 6.96875 C 7.921875 5.640625 4.375 2.03125 4.375 -6.96875 C 4.375 -8.53125 4.46875 -11.796875 5.609375 -15.09375 C 6.75 -18.328125 8.34375 -20 9.265625 -20.921875 Z M 7.5625 -20.921875 "/>
</symbol>
<symbol overflow="visible" id="glyph1-3">
<path style="stroke:none;" d="M 2.703125 -19.359375 L 2.703125 0 L 10.0625 0 C 14.078125 0 17.015625 -2.515625 17.015625 -5.25 C 17.015625 -7.671875 14.59375 -9.65625 11.625 -10.125 C 14.171875 -10.765625 16.265625 -12.390625 16.265625 -14.5 C 16.265625 -17.0625 13.28125 -19.359375 9.3125 -19.359375 Z M 5.015625 -10.90625 L 5.015625 -17.796875 L 8.53125 -17.796875 C 11.625 -17.796875 14.078125 -16.3125 14.078125 -14.46875 C 14.078125 -12.796875 12.109375 -10.90625 8.25 -10.90625 Z M 5.015625 -1.5625 L 5.015625 -9.203125 L 9.0625 -9.203125 C 12.015625 -9.203125 14.75 -7.5 14.75 -5.265625 C 14.75 -3.171875 12.296875 -1.5625 9.28125 -1.5625 Z M 5.015625 -1.5625 "/>
</symbol>
<symbol overflow="visible" id="glyph1-4">
<path style="stroke:none;" d="M 3.265625 6.96875 C 4.15625 6.140625 6.03125 4.4375 7.3125 1 C 8.421875 -1.984375 8.625 -4.9375 8.625 -6.96875 C 8.625 -15.984375 4.609375 -19.6875 3.265625 -20.921875 L 1.5625 -20.921875 C 2.90625 -19.578125 6.4375 -15.984375 6.4375 -6.96875 C 6.4375 -5.40625 6.359375 -2.140625 5.21875 1.140625 C 4.078125 4.375 2.484375 6.046875 1.5625 6.96875 Z M 3.265625 6.96875 "/>
</symbol>
<symbol overflow="visible" id="glyph1-5">
<path style="stroke:none;" d="M 14.3125 -9.171875 L 14.3125 -10.875 L 5.109375 -10.875 L 5.109375 -17.484375 L 8.953125 -17.484375 C 9.28125 -17.484375 9.625 -17.453125 9.953125 -17.453125 L 15.0625 -17.453125 L 15.0625 -19.265625 L 2.625 -19.265625 L 2.625 0 L 15.453125 0 L 15.453125 -1.984375 L 11.9375 -1.984375 C 11.609375 -1.984375 11.265625 -1.953125 10.9375 -1.953125 L 5.109375 -1.953125 L 5.109375 -9.171875 Z M 14.3125 -9.171875 "/>
</symbol>
<symbol overflow="visible" id="glyph2-0">
<path style="stroke:none;" d=""/>
</symbol>
<symbol overflow="visible" id="glyph2-1">
<path style="stroke:none;" d="M 12.75 -9.09375 C 12.75 -11.296875 12.640625 -13.890625 11.46875 -16.15625 C 10.3125 -18.234375 8.390625 -18.90625 6.96875 -18.90625 C 5.328125 -18.90625 3.375 -18.15625 2.234375 -15.671875 C 1.3125 -13.640625 1.171875 -11.328125 1.171875 -9.09375 C 1.171875 -6.890625 1.28125 -4.859375 2.125 -2.8125 C 3.234375 -0.140625 5.359375 0.609375 6.9375 0.609375 C 8.984375 0.609375 10.734375 -0.53125 11.625 -2.453125 C 12.46875 -4.265625 12.75 -6.109375 12.75 -9.09375 Z M 6.96875 -1.09375 C 5.515625 -1.09375 4.375 -2.140625 3.828125 -4.15625 C 3.375 -5.75 3.34375 -7.25 3.34375 -9.421875 C 3.34375 -11.1875 3.34375 -12.859375 3.828125 -14.390625 C 3.984375 -14.921875 4.6875 -17.203125 6.9375 -17.203125 C 9.125 -17.203125 9.84375 -15.09375 10.046875 -14.59375 C 10.578125 -13.03125 10.578125 -11.15625 10.578125 -9.421875 C 10.578125 -7.59375 10.578125 -5.828125 10.0625 -4.078125 C 9.34375 -1.53125 7.859375 -1.09375 6.96875 -1.09375 Z M 6.96875 -1.09375 "/>
</symbol>
<symbol overflow="visible" id="glyph2-2">
<path style="stroke:none;" d="M 5.015625 -2.3125 L 2.703125 -2.3125 L 2.703125 0 L 5.015625 0 Z M 5.015625 -2.3125 "/>
</symbol>
<symbol overflow="visible" id="glyph2-3">
<path style="stroke:none;" d="M 8.34375 -18.90625 L 7.78125 -18.90625 C 6.140625 -17.203125 3.828125 -17.125 2.484375 -17.0625 L 2.484375 -15.453125 C 3.40625 -15.484375 4.734375 -15.53125 6.140625 -16.125 L 6.140625 -1.625 L 2.65625 -1.625 L 2.65625 0 L 11.828125 0 L 11.828125 -1.625 L 8.34375 -1.625 Z M 8.34375 -18.90625 "/>
</symbol>
<symbol overflow="visible" id="glyph2-4">
<path style="stroke:none;" d="M 4.859375 -5.25 L 1.390625 -1.78125 L 1.390625 0 L 12.515625 0 L 12.515625 -1.984375 L 7.453125 -1.984375 C 7.109375 -1.984375 6.78125 -1.953125 6.4375 -1.953125 L 3.40625 -1.953125 C 4.296875 -2.734375 6.421875 -4.828125 7.28125 -5.640625 C 7.8125 -6.140625 9.234375 -7.3125 9.765625 -7.8125 C 11.015625 -9.0625 12.515625 -10.546875 12.515625 -12.90625 C 12.515625 -16.125 10.265625 -18.90625 6.578125 -18.90625 C 3.40625 -18.90625 1.84375 -16.734375 1.171875 -14.328125 C 1.5 -13.859375 1.640625 -13.6875 1.703125 -13.609375 C 1.75 -13.5625 2.03125 -13.1875 2.3125 -12.796875 C 2.875 -14.953125 3.65625 -17.125 6.1875 -17.125 C 8.8125 -17.125 10.234375 -15.03125 10.234375 -12.859375 C 10.234375 -10.484375 8.640625 -8.890625 7 -7.21875 Z M 4.859375 -5.25 "/>
</symbol>
<symbol overflow="visible" id="glyph3-0">
<path style="stroke:none;" d=""/>
</symbol>
<symbol overflow="visible" id="glyph3-1">
<path style="stroke:none;" d="M 2.703125 -19.359375 L 2.703125 0 L 10.0625 0 C 14.078125 0 17.015625 -2.515625 17.015625 -5.25 C 17.015625 -7.671875 14.59375 -9.65625 11.625 -10.125 C 14.171875 -10.765625 16.265625 -12.390625 16.265625 -14.5 C 16.265625 -17.0625 13.28125 -19.359375 9.3125 -19.359375 Z M 5.015625 -10.90625 L 5.015625 -17.796875 L 8.53125 -17.796875 C 11.625 -17.796875 14.078125 -16.3125 14.078125 -14.46875 C 14.078125 -12.796875 12.109375 -10.90625 8.25 -10.90625 Z M 5.015625 -1.5625 L 5.015625 -9.203125 L 9.0625 -9.203125 C 12.015625 -9.203125 14.75 -7.5 14.75 -5.265625 C 14.75 -3.171875 12.296875 -1.5625 9.28125 -1.5625 Z M 5.015625 -1.5625 "/>
</symbol>
<symbol overflow="visible" id="glyph3-2">
<path style="stroke:none;" d="M 14.3125 -9.171875 L 14.3125 -10.875 L 5.109375 -10.875 L 5.109375 -17.484375 L 8.953125 -17.484375 C 9.28125 -17.484375 9.625 -17.453125 9.953125 -17.453125 L 15.0625 -17.453125 L 15.0625 -19.265625 L 2.625 -19.265625 L 2.625 0 L 15.453125 0 L 15.453125 -1.984375 L 11.9375 -1.984375 C 11.609375 -1.984375 11.265625 -1.953125 10.9375 -1.953125 L 5.109375 -1.953125 L 5.109375 -9.171875 Z M 14.3125 -9.171875 "/>
</symbol>
<symbol overflow="visible" id="glyph4-0">
<path style="stroke:none;" d=""/>
</symbol>
<symbol overflow="visible" id="glyph4-1">
<path style="stroke:none;" d="M 9.8125 -8.0625 C 13.28125 -8.0625 16.234375 -10.59375 16.234375 -13.71875 C 16.234375 -16.703125 13.46875 -19.359375 9.625 -19.359375 L 2.671875 -19.359375 L 2.671875 0 L 5.15625 0 L 5.15625 -8.0625 Z M 9.015625 -17.796875 C 12.078125 -17.796875 13.96875 -16.09375 13.96875 -13.71875 C 13.96875 -11.515625 12.21875 -9.671875 9.015625 -9.671875 L 5.078125 -9.671875 L 5.078125 -17.796875 Z M 9.015625 -17.796875 "/>
</symbol>
<symbol overflow="visible" id="glyph4-2">
<path style="stroke:none;" d="M 7.5625 -20.921875 C 6.671875 -20.078125 4.796875 -18.375 3.515625 -14.953125 C 2.40625 -11.96875 2.203125 -9.015625 2.203125 -6.96875 C 2.203125 2.03125 6.21875 5.75 7.5625 6.96875 L 9.265625 6.96875 C 7.921875 5.640625 4.375 2.03125 4.375 -6.96875 C 4.375 -8.53125 4.46875 -11.796875 5.609375 -15.09375 C 6.75 -18.328125 8.34375 -20 9.265625 -20.921875 Z M 7.5625 -20.921875 "/>
</symbol>
<symbol overflow="visible" id="glyph4-3">
<path style="stroke:none;" d="M 10.515625 -19.359375 L 8.0625 -19.359375 L 0.78125 0 L 2.84375 0 L 5 -5.6875 L 13.109375 -5.6875 L 15.234375 0 L 17.796875 0 Z M 12.5 -7.25 L 5.578125 -7.25 L 7.390625 -12.296875 C 7.984375 -13.953125 8.84375 -16.3125 9.03125 -17.34375 L 9.0625 -17.34375 C 9.125 -16.953125 9.3125 -16.265625 9.953125 -14.421875 Z M 12.5 -7.25 "/>
</symbol>
<symbol overflow="visible" id="glyph5-0">
<path style="stroke:none;" d=""/>
</symbol>
<symbol overflow="visible" id="glyph5-1">
<path style="stroke:none;" d="M 4.4375 -19.90625 C 4.4375 -20.421875 4.4375 -20.921875 3.875 -20.921875 C 3.3125 -20.921875 3.3125 -20.421875 3.3125 -19.90625 L 3.3125 5.96875 C 3.3125 6.46875 3.3125 6.96875 3.875 6.96875 C 4.4375 6.96875 4.4375 6.46875 4.4375 5.96875 Z M 4.4375 -19.90625 "/>
</symbol>
<symbol overflow="visible" id="glyph6-0">
<path style="stroke:none;" d=""/>
</symbol>
<symbol overflow="visible" id="glyph6-1">
<path style="stroke:none;" d="M 2.703125 -19.359375 L 2.703125 0 L 10.0625 0 C 14.078125 0 17.015625 -2.515625 17.015625 -5.25 C 17.015625 -7.671875 14.59375 -9.65625 11.625 -10.125 C 14.171875 -10.765625 16.265625 -12.390625 16.265625 -14.5 C 16.265625 -17.0625 13.28125 -19.359375 9.3125 -19.359375 Z M 5.015625 -10.90625 L 5.015625 -17.796875 L 8.53125 -17.796875 C 11.625 -17.796875 14.078125 -16.3125 14.078125 -14.46875 C 14.078125 -12.796875 12.109375 -10.90625 8.25 -10.90625 Z M 5.015625 -1.5625 L 5.015625 -9.203125 L 9.0625 -9.203125 C 12.015625 -9.203125 14.75 -7.5 14.75 -5.265625 C 14.75 -3.171875 12.296875 -1.5625 9.28125 -1.5625 Z M 5.015625 -1.5625 "/>
</symbol>
<symbol overflow="visible" id="glyph6-2">
<path style="stroke:none;" d="M 5.015625 -0.03125 L 5.015625 -2.3125 L 2.703125 -2.3125 L 2.703125 0 L 3.40625 0 L 2.703125 3.484375 L 3.84375 3.484375 Z M 5.015625 -0.03125 "/>
</symbol>
<symbol overflow="visible" id="glyph6-3">
<path style="stroke:none;" d="M 14.3125 -9.171875 L 14.3125 -10.875 L 5.109375 -10.875 L 5.109375 -17.484375 L 8.953125 -17.484375 C 9.28125 -17.484375 9.625 -17.453125 9.953125 -17.453125 L 15.0625 -17.453125 L 15.0625 -19.265625 L 2.625 -19.265625 L 2.625 0 L 15.453125 0 L 15.453125 -1.984375 L 11.9375 -1.984375 C 11.609375 -1.984375 11.265625 -1.953125 10.9375 -1.953125 L 5.109375 -1.953125 L 5.109375 -9.171875 Z M 14.3125 -9.171875 "/>
</symbol>
<symbol overflow="visible" id="glyph6-4">
<path style="stroke:none;" d="M 3.265625 6.96875 C 4.15625 6.140625 6.03125 4.4375 7.3125 1 C 8.421875 -1.984375 8.625 -4.9375 8.625 -6.96875 C 8.625 -15.984375 4.609375 -19.6875 3.265625 -20.921875 L 1.5625 -20.921875 C 2.90625 -19.578125 6.4375 -15.984375 6.4375 -6.96875 C 6.4375 -5.40625 6.359375 -2.140625 5.21875 1.140625 C 4.078125 4.375 2.484375 6.046875 1.5625 6.96875 Z M 3.265625 6.96875 "/>
</symbol>
<symbol overflow="visible" id="glyph7-0">
<path style="stroke:none;" d=""/>
</symbol>
<symbol overflow="visible" id="glyph7-1">
<path style="stroke:none;" d="M 12.75 -9.09375 C 12.75 -11.296875 12.640625 -13.890625 11.46875 -16.15625 C 10.3125 -18.234375 8.390625 -18.90625 6.96875 -18.90625 C 5.328125 -18.90625 3.375 -18.15625 2.234375 -15.671875 C 1.3125 -13.640625 1.171875 -11.328125 1.171875 -9.09375 C 1.171875 -6.890625 1.28125 -4.859375 2.125 -2.8125 C 3.234375 -0.140625 5.359375 0.609375 6.9375 0.609375 C 8.984375 0.609375 10.734375 -0.53125 11.625 -2.453125 C 12.46875 -4.265625 12.75 -6.109375 12.75 -9.09375 Z M 6.96875 -1.09375 C 5.515625 -1.09375 4.375 -2.140625 3.828125 -4.15625 C 3.375 -5.75 3.34375 -7.25 3.34375 -9.421875 C 3.34375 -11.1875 3.34375 -12.859375 3.828125 -14.390625 C 3.984375 -14.921875 4.6875 -17.203125 6.9375 -17.203125 C 9.125 -17.203125 9.84375 -15.09375 10.046875 -14.59375 C 10.578125 -13.03125 10.578125 -11.15625 10.578125 -9.421875 C 10.578125 -7.59375 10.578125 -5.828125 10.0625 -4.078125 C 9.34375 -1.53125 7.859375 -1.09375 6.96875 -1.09375 Z M 6.96875 -1.09375 "/>
</symbol>
<symbol overflow="visible" id="glyph7-2">
<path style="stroke:none;" d="M 5.015625 -2.3125 L 2.703125 -2.3125 L 2.703125 0 L 5.015625 0 Z M 5.015625 -2.3125 "/>
</symbol>
<symbol overflow="visible" id="glyph7-3">
<path style="stroke:none;" d="M 8.34375 -18.90625 L 7.78125 -18.90625 C 6.140625 -17.203125 3.828125 -17.125 2.484375 -17.0625 L 2.484375 -15.453125 C 3.40625 -15.484375 4.734375 -15.53125 6.140625 -16.125 L 6.140625 -1.625 L 2.65625 -1.625 L 2.65625 0 L 11.828125 0 L 11.828125 -1.625 L 8.34375 -1.625 Z M 8.34375 -18.90625 "/>
</symbol>
<symbol overflow="visible" id="glyph8-0">
<path style="stroke:none;" d=""/>
</symbol>
<symbol overflow="visible" id="glyph8-1">
<path style="stroke:none;" d="M 12.75 -9.09375 C 12.75 -11.296875 12.640625 -13.890625 11.46875 -16.15625 C 10.3125 -18.234375 8.390625 -18.90625 6.96875 -18.90625 C 5.328125 -18.90625 3.375 -18.15625 2.234375 -15.671875 C 1.3125 -13.640625 1.171875 -11.328125 1.171875 -9.09375 C 1.171875 -6.890625 1.28125 -4.859375 2.125 -2.8125 C 3.234375 -0.140625 5.359375 0.609375 6.9375 0.609375 C 8.984375 0.609375 10.734375 -0.53125 11.625 -2.453125 C 12.46875 -4.265625 12.75 -6.109375 12.75 -9.09375 Z M 6.96875 -1.09375 C 5.515625 -1.09375 4.375 -2.140625 3.828125 -4.15625 C 3.375 -5.75 3.34375 -7.25 3.34375 -9.421875 C 3.34375 -11.1875 3.34375 -12.859375 3.828125 -14.390625 C 3.984375 -14.921875 4.6875 -17.203125 6.9375 -17.203125 C 9.125 -17.203125 9.84375 -15.09375 10.046875 -14.59375 C 10.578125 -13.03125 10.578125 -11.15625 10.578125 -9.421875 C 10.578125 -7.59375 10.578125 -5.828125 10.0625 -4.078125 C 9.34375 -1.53125 7.859375 -1.09375 6.96875 -1.09375 Z M 6.96875 -1.09375 "/>
</symbol>
<symbol overflow="visible" id="glyph8-2">
<path style="stroke:none;" d="M 8.34375 -18.90625 L 7.78125 -18.90625 C 6.140625 -17.203125 3.828125 -17.125 2.484375 -17.0625 L 2.484375 -15.453125 C 3.40625 -15.484375 4.734375 -15.53125 6.140625 -16.125 L 6.140625 -1.625 L 2.65625 -1.625 L 2.65625 0 L 11.828125 0 L 11.828125 -1.625 L 8.34375 -1.625 Z M 8.34375 -18.90625 "/>
</symbol>
<symbol overflow="visible" id="glyph9-0">
<path style="stroke:none;" d=""/>
</symbol>
<symbol overflow="visible" id="glyph9-1">
<path style="stroke:none;" d="M 12.75 -9.09375 C 12.75 -11.296875 12.640625 -13.890625 11.46875 -16.15625 C 10.3125 -18.234375 8.390625 -18.90625 6.96875 -18.90625 C 5.328125 -18.90625 3.375 -18.15625 2.234375 -15.671875 C 1.3125 -13.640625 1.171875 -11.328125 1.171875 -9.09375 C 1.171875 -6.890625 1.28125 -4.859375 2.125 -2.8125 C 3.234375 -0.140625 5.359375 0.609375 6.9375 0.609375 C 8.984375 0.609375 10.734375 -0.53125 11.625 -2.453125 C 12.46875 -4.265625 12.75 -6.109375 12.75 -9.09375 Z M 6.96875 -1.09375 C 5.515625 -1.09375 4.375 -2.140625 3.828125 -4.15625 C 3.375 -5.75 3.34375 -7.25 3.34375 -9.421875 C 3.34375 -11.1875 3.34375 -12.859375 3.828125 -14.390625 C 3.984375 -14.921875 4.6875 -17.203125 6.9375 -17.203125 C 9.125 -17.203125 9.84375 -15.09375 10.046875 -14.59375 C 10.578125 -13.03125 10.578125 -11.15625 10.578125 -9.421875 C 10.578125 -7.59375 10.578125 -5.828125 10.0625 -4.078125 C 9.34375 -1.53125 7.859375 -1.09375 6.96875 -1.09375 Z M 6.96875 -1.09375 "/>
</symbol>
<symbol overflow="visible" id="glyph9-2">
<path style="stroke:none;" d="M 5.015625 -2.3125 L 2.703125 -2.3125 L 2.703125 0 L 5.015625 0 Z M 5.015625 -2.3125 "/>
</symbol>
<symbol overflow="visible" id="glyph9-3">
<path style="stroke:none;" d="M 4.859375 -5.25 L 1.390625 -1.78125 L 1.390625 0 L 12.515625 0 L 12.515625 -1.984375 L 7.453125 -1.984375 C 7.109375 -1.984375 6.78125 -1.953125 6.4375 -1.953125 L 3.40625 -1.953125 C 4.296875 -2.734375 6.421875 -4.828125 7.28125 -5.640625 C 7.8125 -6.140625 9.234375 -7.3125 9.765625 -7.8125 C 11.015625 -9.0625 12.515625 -10.546875 12.515625 -12.90625 C 12.515625 -16.125 10.265625 -18.90625 6.578125 -18.90625 C 3.40625 -18.90625 1.84375 -16.734375 1.171875 -14.328125 C 1.5 -13.859375 1.640625 -13.6875 1.703125 -13.609375 C 1.75 -13.5625 2.03125 -13.1875 2.3125 -12.796875 C 2.875 -14.953125 3.65625 -17.125 6.1875 -17.125 C 8.8125 -17.125 10.234375 -15.03125 10.234375 -12.859375 C 10.234375 -10.484375 8.640625 -8.890625 7 -7.21875 Z M 4.859375 -5.25 "/>
</symbol>
<symbol overflow="visible" id="glyph9-4">
<path style="stroke:none;" d="M 2.015625 -0.671875 C 2.953125 0.03125 3.984375 0.609375 5.71875 0.609375 C 9.375 0.609375 12.75 -3.265625 12.75 -9.34375 C 12.75 -17.15625 9.421875 -18.90625 7.0625 -18.90625 C 5.109375 -18.90625 3.953125 -18.078125 2.984375 -17.046875 C 1.234375 -15.140625 1.171875 -13.296875 1.171875 -12.109375 C 1.171875 -8.53125 3.015625 -5.40625 5.6875 -5.40625 C 7.421875 -5.40625 9.203125 -6.21875 10.40625 -7.71875 C 10.09375 -3.234375 7.953125 -1.09375 5.75 -1.09375 C 4.796875 -1.09375 3.875 -1.3125 2.875 -2.140625 Z M 10.3125 -12.125 C 10.34375 -11.9375 10.34375 -11.65625 10.34375 -11.46875 C 10.34375 -9.171875 8.984375 -7.109375 6.78125 -7.109375 C 5.46875 -7.109375 4.6875 -7.75 4.09375 -8.78125 C 3.484375 -9.875 3.453125 -10.90625 3.453125 -12.109375 C 3.453125 -13.328125 3.484375 -14.46875 4.265625 -15.703125 C 4.828125 -16.515625 5.609375 -17.296875 7.0625 -17.296875 C 9.796875 -17.296875 10.265625 -13.5 10.3125 -12.125 Z M 10.3125 -12.125 "/>
</symbol>
<symbol overflow="visible" id="glyph10-0">
<path style="stroke:none;" d=""/>
</symbol>
<symbol overflow="visible" id="glyph10-1">
<path style="stroke:none;" d="M 8.34375 -18.90625 L 7.78125 -18.90625 C 6.140625 -17.203125 3.828125 -17.125 2.484375 -17.0625 L 2.484375 -15.453125 C 3.40625 -15.484375 4.734375 -15.53125 6.140625 -16.125 L 6.140625 -1.625 L 2.65625 -1.625 L 2.65625 0 L 11.828125 0 L 11.828125 -1.625 L 8.34375 -1.625 Z M 8.34375 -18.90625 "/>
</symbol>
<symbol overflow="visible" id="glyph10-2">
<path style="stroke:none;" d="M 12.75 -9.09375 C 12.75 -11.296875 12.640625 -13.890625 11.46875 -16.15625 C 10.3125 -18.234375 8.390625 -18.90625 6.96875 -18.90625 C 5.328125 -18.90625 3.375 -18.15625 2.234375 -15.671875 C 1.3125 -13.640625 1.171875 -11.328125 1.171875 -9.09375 C 1.171875 -6.890625 1.28125 -4.859375 2.125 -2.8125 C 3.234375 -0.140625 5.359375 0.609375 6.9375 0.609375 C 8.984375 0.609375 10.734375 -0.53125 11.625 -2.453125 C 12.46875 -4.265625 12.75 -6.109375 12.75 -9.09375 Z M 6.96875 -1.09375 C 5.515625 -1.09375 4.375 -2.140625 3.828125 -4.15625 C 3.375 -5.75 3.34375 -7.25 3.34375 -9.421875 C 3.34375 -11.1875 3.34375 -12.859375 3.828125 -14.390625 C 3.984375 -14.921875 4.6875 -17.203125 6.9375 -17.203125 C 9.125 -17.203125 9.84375 -15.09375 10.046875 -14.59375 C 10.578125 -13.03125 10.578125 -11.15625 10.578125 -9.421875 C 10.578125 -7.59375 10.578125 -5.828125 10.0625 -4.078125 C 9.34375 -1.53125 7.859375 -1.09375 6.96875 -1.09375 Z M 6.96875 -1.09375 "/>
</symbol>
<symbol overflow="visible" id="glyph11-0">
<path style="stroke:none;" d=""/>
</symbol>
<symbol overflow="visible" id="glyph11-1">
<path style="stroke:none;" d="M 12.75 -9.09375 C 12.75 -11.296875 12.640625 -13.890625 11.46875 -16.15625 C 10.3125 -18.234375 8.390625 -18.90625 6.96875 -18.90625 C 5.328125 -18.90625 3.375 -18.15625 2.234375 -15.671875 C 1.3125 -13.640625 1.171875 -11.328125 1.171875 -9.09375 C 1.171875 -6.890625 1.28125 -4.859375 2.125 -2.8125 C 3.234375 -0.140625 5.359375 0.609375 6.9375 0.609375 C 8.984375 0.609375 10.734375 -0.53125 11.625 -2.453125 C 12.46875 -4.265625 12.75 -6.109375 12.75 -9.09375 Z M 6.96875 -1.09375 C 5.515625 -1.09375 4.375 -2.140625 3.828125 -4.15625 C 3.375 -5.75 3.34375 -7.25 3.34375 -9.421875 C 3.34375 -11.1875 3.34375 -12.859375 3.828125 -14.390625 C 3.984375 -14.921875 4.6875 -17.203125 6.9375 -17.203125 C 9.125 -17.203125 9.84375 -15.09375 10.046875 -14.59375 C 10.578125 -13.03125 10.578125 -11.15625 10.578125 -9.421875 C 10.578125 -7.59375 10.578125 -5.828125 10.0625 -4.078125 C 9.34375 -1.53125 7.859375 -1.09375 6.96875 -1.09375 Z M 6.96875 -1.09375 "/>
</symbol>
<symbol overflow="visible" id="glyph11-2">
<path style="stroke:none;" d="M 5.015625 -2.3125 L 2.703125 -2.3125 L 2.703125 0 L 5.015625 0 Z M 5.015625 -2.3125 "/>
</symbol>
<symbol overflow="visible" id="glyph11-3">
<path style="stroke:none;" d="M 2.015625 -0.671875 C 2.953125 0.03125 3.984375 0.609375 5.71875 0.609375 C 9.375 0.609375 12.75 -3.265625 12.75 -9.34375 C 12.75 -17.15625 9.421875 -18.90625 7.0625 -18.90625 C 5.109375 -18.90625 3.953125 -18.078125 2.984375 -17.046875 C 1.234375 -15.140625 1.171875 -13.296875 1.171875 -12.109375 C 1.171875 -8.53125 3.015625 -5.40625 5.6875 -5.40625 C 7.421875 -5.40625 9.203125 -6.21875 10.40625 -7.71875 C 10.09375 -3.234375 7.953125 -1.09375 5.75 -1.09375 C 4.796875 -1.09375 3.875 -1.3125 2.875 -2.140625 Z M 10.3125 -12.125 C 10.34375 -11.9375 10.34375 -11.65625 10.34375 -11.46875 C 10.34375 -9.171875 8.984375 -7.109375 6.78125 -7.109375 C 5.46875 -7.109375 4.6875 -7.75 4.09375 -8.78125 C 3.484375 -9.875 3.453125 -10.90625 3.453125 -12.109375 C 3.453125 -13.328125 3.484375 -14.46875 4.265625 -15.703125 C 4.828125 -16.515625 5.609375 -17.296875 7.0625 -17.296875 C 9.796875 -17.296875 10.265625 -13.5 10.3125 -12.125 Z M 10.3125 -12.125 "/>
</symbol>
<symbol overflow="visible" id="glyph11-4">
<path style="stroke:none;" d="M 10.375 -4.765625 L 13.140625 -4.765625 L 13.140625 -6.46875 L 10.375 -6.46875 L 10.375 -18.296875 L 7.84375 -18.296875 L 0.78125 -6.46875 L 0.78125 -4.765625 L 8.171875 -4.765625 L 8.171875 0 L 10.375 0 Z M 2.953125 -6.46875 C 4.40625 -8.875 8.34375 -15.484375 8.34375 -17.0625 L 8.34375 -6.46875 Z M 2.953125 -6.46875 "/>
</symbol>
<symbol overflow="visible" id="glyph12-0">
<path style="stroke:none;" d=""/>
</symbol>
<symbol overflow="visible" id="glyph12-1">
<path style="stroke:none;" d="M 8.34375 -18.90625 L 7.78125 -18.90625 C 6.140625 -17.203125 3.828125 -17.125 2.484375 -17.0625 L 2.484375 -15.453125 C 3.40625 -15.484375 4.734375 -15.53125 6.140625 -16.125 L 6.140625 -1.625 L 2.65625 -1.625 L 2.65625 0 L 11.828125 0 L 11.828125 -1.625 L 8.34375 -1.625 Z M 8.34375 -18.90625 "/>
</symbol>
<symbol overflow="visible" id="glyph13-0">
<path style="stroke:none;" d=""/>
</symbol>
<symbol overflow="visible" id="glyph13-1">
<path style="stroke:none;" d="M 12.75 -9.09375 C 12.75 -11.296875 12.640625 -13.890625 11.46875 -16.15625 C 10.3125 -18.234375 8.390625 -18.90625 6.96875 -18.90625 C 5.328125 -18.90625 3.375 -18.15625 2.234375 -15.671875 C 1.3125 -13.640625 1.171875 -11.328125 1.171875 -9.09375 C 1.171875 -6.890625 1.28125 -4.859375 2.125 -2.8125 C 3.234375 -0.140625 5.359375 0.609375 6.9375 0.609375 C 8.984375 0.609375 10.734375 -0.53125 11.625 -2.453125 C 12.46875 -4.265625 12.75 -6.109375 12.75 -9.09375 Z M 6.96875 -1.09375 C 5.515625 -1.09375 4.375 -2.140625 3.828125 -4.15625 C 3.375 -5.75 3.34375 -7.25 3.34375 -9.421875 C 3.34375 -11.1875 3.34375 -12.859375 3.828125 -14.390625 C 3.984375 -14.921875 4.6875 -17.203125 6.9375 -17.203125 C 9.125 -17.203125 9.84375 -15.09375 10.046875 -14.59375 C 10.578125 -13.03125 10.578125 -11.15625 10.578125 -9.421875 C 10.578125 -7.59375 10.578125 -5.828125 10.0625 -4.078125 C 9.34375 -1.53125 7.859375 -1.09375 6.96875 -1.09375 Z M 6.96875 -1.09375 "/>
</symbol>
<symbol overflow="visible" id="glyph13-2">
<path style="stroke:none;" d="M 5.015625 -2.3125 L 2.703125 -2.3125 L 2.703125 0 L 5.015625 0 Z M 5.015625 -2.3125 "/>
</symbol>
<symbol overflow="visible" id="glyph13-3">
<path style="stroke:none;" d="M 2.015625 -0.671875 C 2.953125 0.03125 3.984375 0.609375 5.71875 0.609375 C 9.375 0.609375 12.75 -3.265625 12.75 -9.34375 C 12.75 -17.15625 9.421875 -18.90625 7.0625 -18.90625 C 5.109375 -18.90625 3.953125 -18.078125 2.984375 -17.046875 C 1.234375 -15.140625 1.171875 -13.296875 1.171875 -12.109375 C 1.171875 -8.53125 3.015625 -5.40625 5.6875 -5.40625 C 7.421875 -5.40625 9.203125 -6.21875 10.40625 -7.71875 C 10.09375 -3.234375 7.953125 -1.09375 5.75 -1.09375 C 4.796875 -1.09375 3.875 -1.3125 2.875 -2.140625 Z M 10.3125 -12.125 C 10.34375 -11.9375 10.34375 -11.65625 10.34375 -11.46875 C 10.34375 -9.171875 8.984375 -7.109375 6.78125 -7.109375 C 5.46875 -7.109375 4.6875 -7.75 4.09375 -8.78125 C 3.484375 -9.875 3.453125 -10.90625 3.453125 -12.109375 C 3.453125 -13.328125 3.484375 -14.46875 4.265625 -15.703125 C 4.828125 -16.515625 5.609375 -17.296875 7.0625 -17.296875 C 9.796875 -17.296875 10.265625 -13.5 10.3125 -12.125 Z M 10.3125 -12.125 "/>
</symbol>
<symbol overflow="visible" id="glyph13-4">
<path style="stroke:none;" d="M 4.265625 -16.515625 L 11.609375 -16.515625 L 11.609375 -18.296875 L 2.265625 -18.296875 L 2.265625 -8 L 4.09375 -8 C 4.578125 -9.125 5.609375 -10.203125 7.21875 -10.203125 C 8.53125 -10.203125 10.046875 -9.0625 10.046875 -5.71875 C 10.046875 -1.09375 6.640625 -1.09375 6.390625 -1.09375 C 4.515625 -1.09375 2.8125 -2.171875 2.015625 -3.6875 L 1.09375 -2.125 C 2.234375 -0.53125 4.15625 0.609375 6.421875 0.609375 C 9.734375 0.609375 12.515625 -2.140625 12.515625 -5.65625 C 12.515625 -9.140625 10.125 -11.90625 7.25 -11.90625 C 6.140625 -11.90625 5.078125 -11.484375 4.265625 -10.765625 Z M 4.265625 -16.515625 "/>
</symbol>
<symbol overflow="visible" id="glyph14-0">
<path style="stroke:none;" d=""/>
</symbol>
<symbol overflow="visible" id="glyph14-1">
<path style="stroke:none;" d="M 10.515625 -19.359375 L 8.0625 -19.359375 L 0.78125 0 L 2.84375 0 L 5 -5.6875 L 13.109375 -5.6875 L 15.234375 0 L 17.796875 0 Z M 12.5 -7.25 L 5.578125 -7.25 L 7.390625 -12.296875 C 7.984375 -13.953125 8.84375 -16.3125 9.03125 -17.34375 L 9.0625 -17.34375 C 9.125 -16.953125 9.3125 -16.265625 9.953125 -14.421875 Z M 12.5 -7.25 "/>
</symbol>
<symbol overflow="visible" id="glyph15-0">
<path style="stroke:none;" d=""/>
</symbol>
<symbol overflow="visible" id="glyph15-1">
<path style="stroke:none;" d="M 9.8125 -8.0625 C 13.28125 -8.0625 16.234375 -10.59375 16.234375 -13.71875 C 16.234375 -16.703125 13.46875 -19.359375 9.625 -19.359375 L 2.671875 -19.359375 L 2.671875 0 L 5.15625 0 L 5.15625 -8.0625 Z M 9.015625 -17.796875 C 12.078125 -17.796875 13.96875 -16.09375 13.96875 -13.71875 C 13.96875 -11.515625 12.21875 -9.671875 9.015625 -9.671875 L 5.078125 -9.671875 L 5.078125 -17.796875 Z M 9.015625 -17.796875 "/>
</symbol>
<symbol overflow="visible" id="glyph15-2">
<path style="stroke:none;" d="M 7.5625 -20.921875 C 6.671875 -20.078125 4.796875 -18.375 3.515625 -14.953125 C 2.40625 -11.96875 2.203125 -9.015625 2.203125 -6.96875 C 2.203125 2.03125 6.21875 5.75 7.5625 6.96875 L 9.265625 6.96875 C 7.921875 5.640625 4.375 2.03125 4.375 -6.96875 C 4.375 -8.53125 4.46875 -11.796875 5.609375 -15.09375 C 6.75 -18.328125 8.34375 -20 9.265625 -20.921875 Z M 7.5625 -20.921875 "/>
</symbol>
<symbol overflow="visible" id="glyph15-3">
<path style="stroke:none;" d="M 10.828125 -19.359375 L 8.421875 -19.359375 L 8.421875 -4.234375 C 8.421875 -3.765625 8.421875 -1.09375 5.125 -1.09375 C 3.953125 -1.09375 2.515625 -1.59375 1.5625 -2.65625 L 1.171875 -0.5625 C 1.84375 -0.21875 3.59375 0.609375 5.9375 0.609375 C 8.8125 0.609375 10.828125 -1 10.828125 -4.15625 Z M 10.828125 -19.359375 "/>
</symbol>
<symbol overflow="visible" id="glyph15-4">
<path style="stroke:none;" d="M 14.78125 -9.90625 C 13.8125 -7.359375 12.5 -3.90625 12.1875 -2.59375 L 12.15625 -2.59375 C 12.015625 -3.171875 11.6875 -4.21875 11.265625 -5.390625 L 6.890625 -16.921875 L 5.9375 -19.359375 L 2.796875 -19.359375 L 2.796875 0 L 4.96875 0 L 4.96875 -17.296875 L 5 -17.296875 C 5.15625 -16.40625 6.28125 -13.359375 7 -11.46875 L 11.125 -0.609375 L 13.171875 -0.609375 L 16.875 -10.3125 C 17.765625 -12.609375 18.015625 -13.296875 18.21875 -13.859375 C 18.484375 -14.671875 19.25 -16.671875 19.390625 -17.3125 L 19.40625 -17.296875 L 19.40625 0 L 21.59375 0 L 21.59375 -19.359375 L 18.40625 -19.359375 Z M 14.78125 -9.90625 "/>
</symbol>
<symbol overflow="visible" id="glyph16-0">
<path style="stroke:none;" d=""/>
</symbol>
<symbol overflow="visible" id="glyph16-1">
<path style="stroke:none;" d="M 4.4375 -19.90625 C 4.4375 -20.421875 4.4375 -20.921875 3.875 -20.921875 C 3.3125 -20.921875 3.3125 -20.421875 3.3125 -19.90625 L 3.3125 5.96875 C 3.3125 6.46875 3.3125 6.96875 3.875 6.96875 C 4.4375 6.96875 4.4375 6.46875 4.4375 5.96875 Z M 4.4375 -19.90625 "/>
</symbol>
<symbol overflow="visible" id="glyph17-0">
<path style="stroke:none;" d=""/>
</symbol>
<symbol overflow="visible" id="glyph17-1">
<path style="stroke:none;" d="M 10.515625 -19.359375 L 8.0625 -19.359375 L 0.78125 0 L 2.84375 0 L 5 -5.6875 L 13.109375 -5.6875 L 15.234375 0 L 17.796875 0 Z M 12.5 -7.25 L 5.578125 -7.25 L 7.390625 -12.296875 C 7.984375 -13.953125 8.84375 -16.3125 9.03125 -17.34375 L 9.0625 -17.34375 C 9.125 -16.953125 9.3125 -16.265625 9.953125 -14.421875 Z M 12.5 -7.25 "/>
</symbol>
<symbol overflow="visible" id="glyph17-2">
<path style="stroke:none;" d="M 3.265625 6.96875 C 4.15625 6.140625 6.03125 4.4375 7.3125 1 C 8.421875 -1.984375 8.625 -4.9375 8.625 -6.96875 C 8.625 -15.984375 4.609375 -19.6875 3.265625 -20.921875 L 1.5625 -20.921875 C 2.90625 -19.578125 6.4375 -15.984375 6.4375 -6.96875 C 6.4375 -5.40625 6.359375 -2.140625 5.21875 1.140625 C 4.078125 4.375 2.484375 6.046875 1.5625 6.96875 Z M 3.265625 6.96875 "/>
</symbol>
<symbol overflow="visible" id="glyph18-0">
<path style="stroke:none;" d=""/>
</symbol>
<symbol overflow="visible" id="glyph18-1">
<path style="stroke:none;" d="M 12.75 -9.09375 C 12.75 -11.296875 12.640625 -13.890625 11.46875 -16.15625 C 10.3125 -18.234375 8.390625 -18.90625 6.96875 -18.90625 C 5.328125 -18.90625 3.375 -18.15625 2.234375 -15.671875 C 1.3125 -13.640625 1.171875 -11.328125 1.171875 -9.09375 C 1.171875 -6.890625 1.28125 -4.859375 2.125 -2.8125 C 3.234375 -0.140625 5.359375 0.609375 6.9375 0.609375 C 8.984375 0.609375 10.734375 -0.53125 11.625 -2.453125 C 12.46875 -4.265625 12.75 -6.109375 12.75 -9.09375 Z M 6.96875 -1.09375 C 5.515625 -1.09375 4.375 -2.140625 3.828125 -4.15625 C 3.375 -5.75 3.34375 -7.25 3.34375 -9.421875 C 3.34375 -11.1875 3.34375 -12.859375 3.828125 -14.390625 C 3.984375 -14.921875 4.6875 -17.203125 6.9375 -17.203125 C 9.125 -17.203125 9.84375 -15.09375 10.046875 -14.59375 C 10.578125 -13.03125 10.578125 -11.15625 10.578125 -9.421875 C 10.578125 -7.59375 10.578125 -5.828125 10.0625 -4.078125 C 9.34375 -1.53125 7.859375 -1.09375 6.96875 -1.09375 Z M 6.96875 -1.09375 "/>
</symbol>
<symbol overflow="visible" id="glyph19-0">
<path style="stroke:none;" d=""/>
</symbol>
<symbol overflow="visible" id="glyph19-1">
<path style="stroke:none;" d="M 12.75 -9.09375 C 12.75 -11.296875 12.640625 -13.890625 11.46875 -16.15625 C 10.3125 -18.234375 8.390625 -18.90625 6.96875 -18.90625 C 5.328125 -18.90625 3.375 -18.15625 2.234375 -15.671875 C 1.3125 -13.640625 1.171875 -11.328125 1.171875 -9.09375 C 1.171875 -6.890625 1.28125 -4.859375 2.125 -2.8125 C 3.234375 -0.140625 5.359375 0.609375 6.9375 0.609375 C 8.984375 0.609375 10.734375 -0.53125 11.625 -2.453125 C 12.46875 -4.265625 12.75 -6.109375 12.75 -9.09375 Z M 6.96875 -1.09375 C 5.515625 -1.09375 4.375 -2.140625 3.828125 -4.15625 C 3.375 -5.75 3.34375 -7.25 3.34375 -9.421875 C 3.34375 -11.1875 3.34375 -12.859375 3.828125 -14.390625 C 3.984375 -14.921875 4.6875 -17.203125 6.9375 -17.203125 C 9.125 -17.203125 9.84375 -15.09375 10.046875 -14.59375 C 10.578125 -13.03125 10.578125 -11.15625 10.578125 -9.421875 C 10.578125 -7.59375 10.578125 -5.828125 10.0625 -4.078125 C 9.34375 -1.53125 7.859375 -1.09375 6.96875 -1.09375 Z M 6.96875 -1.09375 "/>
</symbol>
<symbol overflow="visible" id="glyph19-2">
<path style="stroke:none;" d="M 5.015625 -2.3125 L 2.703125 -2.3125 L 2.703125 0 L 5.015625 0 Z M 5.015625 -2.3125 "/>
</symbol>
<symbol overflow="visible" id="glyph19-3">
<path style="stroke:none;" d="M 4.265625 -16.515625 L 11.609375 -16.515625 L 11.609375 -18.296875 L 2.265625 -18.296875 L 2.265625 -8 L 4.09375 -8 C 4.578125 -9.125 5.609375 -10.203125 7.21875 -10.203125 C 8.53125 -10.203125 10.046875 -9.0625 10.046875 -5.71875 C 10.046875 -1.09375 6.640625 -1.09375 6.390625 -1.09375 C 4.515625 -1.09375 2.8125 -2.171875 2.015625 -3.6875 L 1.09375 -2.125 C 2.234375 -0.53125 4.15625 0.609375 6.421875 0.609375 C 9.734375 0.609375 12.515625 -2.140625 12.515625 -5.65625 C 12.515625 -9.140625 10.125 -11.90625 7.25 -11.90625 C 6.140625 -11.90625 5.078125 -11.484375 4.265625 -10.765625 Z M 4.265625 -16.515625 "/>
</symbol>
<symbol overflow="visible" id="glyph19-4">
<path style="stroke:none;" d="M 8.34375 -18.90625 L 7.78125 -18.90625 C 6.140625 -17.203125 3.828125 -17.125 2.484375 -17.0625 L 2.484375 -15.453125 C 3.40625 -15.484375 4.734375 -15.53125 6.140625 -16.125 L 6.140625 -1.625 L 2.65625 -1.625 L 2.65625 0 L 11.828125 0 L 11.828125 -1.625 L 8.34375 -1.625 Z M 8.34375 -18.90625 "/>
</symbol>
<symbol overflow="visible" id="glyph20-0">
<path style="stroke:none;" d=""/>
</symbol>
<symbol overflow="visible" id="glyph20-1">
<path style="stroke:none;" d="M 8.34375 -18.90625 L 7.78125 -18.90625 C 6.140625 -17.203125 3.828125 -17.125 2.484375 -17.0625 L 2.484375 -15.453125 C 3.40625 -15.484375 4.734375 -15.53125 6.140625 -16.125 L 6.140625 -1.625 L 2.65625 -1.625 L 2.65625 0 L 11.828125 0 L 11.828125 -1.625 L 8.34375 -1.625 Z M 8.34375 -18.90625 "/>
</symbol>
<symbol overflow="visible" id="glyph21-0">
<path style="stroke:none;" d=""/>
</symbol>
<symbol overflow="visible" id="glyph21-1">
<path style="stroke:none;" d="M 12.75 -9.09375 C 12.75 -11.296875 12.640625 -13.890625 11.46875 -16.15625 C 10.3125 -18.234375 8.390625 -18.90625 6.96875 -18.90625 C 5.328125 -18.90625 3.375 -18.15625 2.234375 -15.671875 C 1.3125 -13.640625 1.171875 -11.328125 1.171875 -9.09375 C 1.171875 -6.890625 1.28125 -4.859375 2.125 -2.8125 C 3.234375 -0.140625 5.359375 0.609375 6.9375 0.609375 C 8.984375 0.609375 10.734375 -0.53125 11.625 -2.453125 C 12.46875 -4.265625 12.75 -6.109375 12.75 -9.09375 Z M 6.96875 -1.09375 C 5.515625 -1.09375 4.375 -2.140625 3.828125 -4.15625 C 3.375 -5.75 3.34375 -7.25 3.34375 -9.421875 C 3.34375 -11.1875 3.34375 -12.859375 3.828125 -14.390625 C 3.984375 -14.921875 4.6875 -17.203125 6.9375 -17.203125 C 9.125 -17.203125 9.84375 -15.09375 10.046875 -14.59375 C 10.578125 -13.03125 10.578125 -11.15625 10.578125 -9.421875 C 10.578125 -7.59375 10.578125 -5.828125 10.0625 -4.078125 C 9.34375 -1.53125 7.859375 -1.09375 6.96875 -1.09375 Z M 6.96875 -1.09375 "/>
</symbol>
<symbol overflow="visible" id="glyph21-2">
<path style="stroke:none;" d="M 5.015625 -2.3125 L 2.703125 -2.3125 L 2.703125 0 L 5.015625 0 Z M 5.015625 -2.3125 "/>
</symbol>
<symbol overflow="visible" id="glyph21-3">
<path style="stroke:none;" d="M 2.015625 -0.671875 C 2.953125 0.03125 3.984375 0.609375 5.71875 0.609375 C 9.375 0.609375 12.75 -3.265625 12.75 -9.34375 C 12.75 -17.15625 9.421875 -18.90625 7.0625 -18.90625 C 5.109375 -18.90625 3.953125 -18.078125 2.984375 -17.046875 C 1.234375 -15.140625 1.171875 -13.296875 1.171875 -12.109375 C 1.171875 -8.53125 3.015625 -5.40625 5.6875 -5.40625 C 7.421875 -5.40625 9.203125 -6.21875 10.40625 -7.71875 C 10.09375 -3.234375 7.953125 -1.09375 5.75 -1.09375 C 4.796875 -1.09375 3.875 -1.3125 2.875 -2.140625 Z M 10.3125 -12.125 C 10.34375 -11.9375 10.34375 -11.65625 10.34375 -11.46875 C 10.34375 -9.171875 8.984375 -7.109375 6.78125 -7.109375 C 5.46875 -7.109375 4.6875 -7.75 4.09375 -8.78125 C 3.484375 -9.875 3.453125 -10.90625 3.453125 -12.109375 C 3.453125 -13.328125 3.484375 -14.46875 4.265625 -15.703125 C 4.828125 -16.515625 5.609375 -17.296875 7.0625 -17.296875 C 9.796875 -17.296875 10.265625 -13.5 10.3125 -12.125 Z M 10.3125 -12.125 "/>
</symbol>
<symbol overflow="visible" id="glyph21-4">
<path style="stroke:none;" d="M 6.46875 -16.3125 C 6.8125 -16.3125 7.140625 -16.34375 7.46875 -16.34375 L 10.84375 -16.34375 C 6.71875 -11.796875 4.234375 -6.21875 4.234375 0.3125 L 6.578125 0.3125 C 6.578125 -8.0625 10.578125 -14.03125 12.75 -16.484375 L 12.75 -18.296875 L 1.171875 -18.296875 L 1.171875 -16.3125 Z M 6.46875 -16.3125 "/>
</symbol>
<symbol overflow="visible" id="glyph22-0">
<path style="stroke:none;" d=""/>
</symbol>
<symbol overflow="visible" id="glyph22-1">
<path style="stroke:none;" d="M 4.4375 -19.90625 C 4.4375 -20.421875 4.4375 -20.921875 3.875 -20.921875 C 3.3125 -20.921875 3.3125 -20.421875 3.3125 -19.90625 L 3.3125 5.96875 C 3.3125 6.46875 3.3125 6.96875 3.875 6.96875 C 4.4375 6.96875 4.4375 6.46875 4.4375 5.96875 Z M 4.4375 -19.90625 "/>
</symbol>
<symbol overflow="visible" id="glyph23-0">
<path style="stroke:none;" d=""/>
</symbol>
<symbol overflow="visible" id="glyph23-1">
<path style="stroke:none;" d="M 10.515625 -19.359375 L 8.0625 -19.359375 L 0.78125 0 L 2.84375 0 L 5 -5.6875 L 13.109375 -5.6875 L 15.234375 0 L 17.796875 0 Z M 12.5 -7.25 L 5.578125 -7.25 L 7.390625 -12.296875 C 7.984375 -13.953125 8.84375 -16.3125 9.03125 -17.34375 L 9.0625 -17.34375 C 9.125 -16.953125 9.3125 -16.265625 9.953125 -14.421875 Z M 12.5 -7.25 "/>
</symbol>
<symbol overflow="visible" id="glyph23-2">
<path style="stroke:none;" d="M 3.265625 6.96875 C 4.15625 6.140625 6.03125 4.4375 7.3125 1 C 8.421875 -1.984375 8.625 -4.9375 8.625 -6.96875 C 8.625 -15.984375 4.609375 -19.6875 3.265625 -20.921875 L 1.5625 -20.921875 C 2.90625 -19.578125 6.4375 -15.984375 6.4375 -6.96875 C 6.4375 -5.40625 6.359375 -2.140625 5.21875 1.140625 C 4.078125 4.375 2.484375 6.046875 1.5625 6.96875 Z M 3.265625 6.96875 "/>
</symbol>
</g>
</defs>
<g id="surface1">
<g style="fill:rgb(0%,0%,0%);fill-opacity:1;">
  <use xlink:href="#glyph0-1" x="1" y="20.9804"/>
  <use xlink:href="#glyph0-2" x="19.578256" y="20.9804"/>
  <use xlink:href="#glyph0-3" x="33.97222" y="20.9804"/>
  <use xlink:href="#glyph0-4" x="43.484511" y="20.9804"/>
  <use xlink:href="#glyph0-5" x="57.43215" y="20.9804"/>
  <use xlink:href="#glyph0-6" x="64.071227" y="20.9804"/>
  <use xlink:href="#glyph0-3" x="76.679893" y="20.9804"/>
  <use xlink:href="#glyph0-7" x="86.192184" y="20.9804"/>
</g>
<g style="fill:rgb(0%,0%,0%);fill-opacity:1;">
  <use xlink:href="#glyph0-8" x="309" y="24.9804"/>
  <use xlink:href="#glyph0-6" x="325.653482" y="24.9804"/>
  <use xlink:href="#glyph0-3" x="338.262148" y="24.9804"/>
  <use xlink:href="#glyph0-9" x="347.774439" y="24.9804"/>
  <use xlink:href="#glyph0-10" x="357.844634" y="24.9804"/>
  <use xlink:href="#glyph0-11" x="372.238599" y="24.9804"/>
  <use xlink:href="#glyph0-2" x="386.632563" y="24.9804"/>
  <use xlink:href="#glyph0-6" x="401.026527" y="24.9804"/>
  <use xlink:href="#glyph0-12" x="414.416261" y="24.9804"/>
  <use xlink:href="#glyph0-13" x="427.24809" y="24.9804"/>
</g>
<path style="fill:none;stroke-width:0.398;stroke-linecap:butt;stroke-linejoin:miter;stroke:rgb(0%,0%,0%);stroke-opacity:1;stroke-miterlimit:10;" d="M 0.000000000000007105 -0.000591538 L 34.648438 -0.000591538 " transform="matrix(2.8,0,0,-2.8,117,12.346)"/>
<path style="fill:none;stroke-width:0.398;stroke-linecap:butt;stroke-linejoin:miter;stroke:rgb(0%,0%,0%);stroke-opacity:1;stroke-miterlimit:10;" d="M 0.000000000000007105 0.000390398 L 0.000000000000007105 11.954911 " transform="matrix(2.8,0,0,-2.8,117,46.379999)"/>
<g style="fill:rgb(0%,0%,0%);fill-opacity:1;">
  <use xlink:href="#glyph1-1" x="133.7384" y="36.3364"/>
  <use xlink:href="#glyph1-2" x="151.535588" y="36.3364"/>
  <use xlink:href="#glyph1-3" x="162.358957" y="36.3364"/>
  <use xlink:href="#glyph1-4" x="180.937213" y="36.3364"/>
</g>
<path style="fill:none;stroke-width:0.398;stroke-linecap:butt;stroke-linejoin:miter;stroke:rgb(0%,0%,0%);stroke-opacity:1;stroke-miterlimit:10;" d="M 0.00043809 0.000390398 L 0.00043809 11.954911 " transform="matrix(2.8,0,0,-2.8,214.014398,46.379999)"/>
<path style="fill:none;stroke-width:0.398;stroke-linecap:butt;stroke-linejoin:miter;stroke:rgb(0%,0%,0%);stroke-opacity:1;stroke-miterlimit:10;" d="M 0.000000000000007105 -0.000107374 L 34.648438 -0.000107374 " transform="matrix(2.8,0,0,-2.8,117,46.937199)"/>
<path style="fill:none;stroke-width:0.398;stroke-linecap:butt;stroke-linejoin:miter;stroke:rgb(0%,0%,0%);stroke-opacity:1;stroke-miterlimit:10;" d="M 0.000000000000007105 -0.000520527 L 0.000000000000007105 11.955395 " transform="matrix(2.8,0,0,-2.8,117,80.971199)"/>
<g style="fill:rgb(0%,0%,0%);fill-opacity:1;">
  <use xlink:href="#glyph2-1" x="133.7384" y="70.927599"/>
  <use xlink:href="#glyph2-2" x="147.686039" y="70.927599"/>
  <use xlink:href="#glyph2-1" x="155.413032" y="70.927599"/>
  <use xlink:href="#glyph2-1" x="169.360672" y="70.927599"/>
  <use xlink:href="#glyph2-3" x="183.308311" y="70.927599"/>
</g>
<path style="fill:none;stroke-width:0.398;stroke-linecap:butt;stroke-linejoin:miter;stroke:rgb(0%,0%,0%);stroke-opacity:1;stroke-miterlimit:10;" d="M 0.00043809 -0.000520527 L 0.00043809 11.955395 " transform="matrix(2.8,0,0,-2.8,214.014398,80.971199)"/>
<path style="fill:none;stroke-width:0.398;stroke-linecap:butt;stroke-linejoin:miter;stroke:rgb(0%,0%,0%);stroke-opacity:1;stroke-miterlimit:10;" d="M 0.000000000000007105 0.000376791 L 34.648438 0.000376791 " transform="matrix(2.8,0,0,-2.8,117,81.528399)"/>
<path style="fill:none;stroke-width:0.398;stroke-linecap:butt;stroke-linejoin:miter;stroke:rgb(0%,0%,0%);stroke-opacity:1;stroke-miterlimit:10;" d="M -0.000000000000028422 -0.000591538 L 34.648438 -0.000591538 " transform="matrix(2.8,0,0,-2.8,453,12.346)"/>
<path style="fill:none;stroke-width:0.398;stroke-linecap:butt;stroke-linejoin:miter;stroke:rgb(0%,0%,0%);stroke-opacity:1;stroke-miterlimit:10;" d="M -0.000000000000028422 0.000390398 L -0.000000000000028422 11.954911 " transform="matrix(2.8,0,0,-2.8,453,46.379999)"/>
<g style="fill:rgb(0%,0%,0%);fill-opacity:1;">
  <use xlink:href="#glyph1-1" x="469.7384" y="36.3364"/>
  <use xlink:href="#glyph1-2" x="487.535588" y="36.3364"/>
  <use xlink:href="#glyph1-5" x="498.358957" y="36.3364"/>
  <use xlink:href="#glyph1-4" x="515.012438" y="36.3364"/>
</g>
<path style="fill:none;stroke-width:0.398;stroke-linecap:butt;stroke-linejoin:miter;stroke:rgb(0%,0%,0%);stroke-opacity:1;stroke-miterlimit:10;" d="M 0.00043809 0.000390398 L 0.00043809 11.954911 " transform="matrix(2.8,0,0,-2.8,550.014398,46.379999)"/>
<path style="fill:none;stroke-width:0.398;stroke-linecap:butt;stroke-linejoin:miter;stroke:rgb(0%,0%,0%);stroke-opacity:1;stroke-miterlimit:10;" d="M -0.000000000000028422 -0.000107374 L 34.648438 -0.000107374 " transform="matrix(2.8,0,0,-2.8,453,46.937199)"/>
<path style="fill:none;stroke-width:0.398;stroke-linecap:butt;stroke-linejoin:miter;stroke:rgb(0%,0%,0%);stroke-opacity:1;stroke-miterlimit:10;" d="M -0.000000000000028422 -0.000520527 L -0.000000000000028422 11.955395 " transform="matrix(2.8,0,0,-2.8,453,80.971199)"/>
<g style="fill:rgb(0%,0%,0%);fill-opacity:1;">
  <use xlink:href="#glyph2-1" x="469.7384" y="70.927599"/>
  <use xlink:href="#glyph2-2" x="483.686039" y="70.927599"/>
  <use xlink:href="#glyph2-1" x="491.413032" y="70.927599"/>
  <use xlink:href="#glyph2-1" x="505.360672" y="70.927599"/>
  <use xlink:href="#glyph2-4" x="519.308311" y="70.927599"/>
</g>
<path style="fill:none;stroke-width:0.398;stroke-linecap:butt;stroke-linejoin:miter;stroke:rgb(0%,0%,0%);stroke-opacity:1;stroke-miterlimit:10;" d="M 0.00043809 -0.000520527 L 0.00043809 11.955395 " transform="matrix(2.8,0,0,-2.8,550.014398,80.971199)"/>
<path style="fill:none;stroke-width:0.398;stroke-linecap:butt;stroke-linejoin:miter;stroke:rgb(0%,0%,0%);stroke-opacity:1;stroke-miterlimit:10;" d="M -0.000000000000028422 0.000376791 L 34.648438 0.000376791 " transform="matrix(2.8,0,0,-2.8,453,81.528399)"/>
<g style="fill:rgb(0%,0%,0%);fill-opacity:1;">
  <use xlink:href="#glyph0-14" x="157" y="181"/>
  <use xlink:href="#glyph0-5" x="175.578256" y="181"/>
  <use xlink:href="#glyph0-6" x="182.217333" y="181"/>
  <use xlink:href="#glyph0-3" x="194.825999" y="181"/>
  <use xlink:href="#glyph0-15" x="204.338289" y="181"/>
</g>
<path style="fill:none;stroke-width:0.398;stroke-linecap:butt;stroke-linejoin:miter;stroke:rgb(0%,0%,0%);stroke-opacity:1;stroke-miterlimit:10;" d="M 0 0.000408462 L 87.339566 0.000408462 " transform="matrix(2.8,0,0,-2.8,341,104.3488)"/>
<path style="fill:none;stroke-width:0.398;stroke-linecap:butt;stroke-linejoin:miter;stroke:rgb(0%,0%,0%);stroke-opacity:1;stroke-miterlimit:10;" d="M 0 0.000390398 L 0 11.954911 " transform="matrix(2.8,0,0,-2.8,341,138.379999)"/>
<g style="fill:rgb(0%,0%,0%);fill-opacity:1;">
  <use xlink:href="#glyph3-1" x="357.7384" y="128.3392"/>
  <use xlink:href="#glyph3-2" x="409.790991" y="128.3392"/>
</g>
<path style="fill:none;stroke-width:0.398;stroke-linecap:butt;stroke-linejoin:miter;stroke:rgb(0%,0%,0%);stroke-opacity:1;stroke-miterlimit:10;" d="M 0.000511782 0.000390398 L 0.000511782 11.954911 " transform="matrix(2.8,0,0,-2.8,443.205598,138.379999)"/>
<g style="fill:rgb(0%,0%,0%);fill-opacity:1;">
  <use xlink:href="#glyph4-1" x="459.943998" y="128.3392"/>
  <use xlink:href="#glyph4-2" x="477.741186" y="128.3392"/>
  <use xlink:href="#glyph4-3" x="488.564555" y="128.3392"/>
</g>
<g style="fill:rgb(0%,0%,0%);fill-opacity:1;">
  <use xlink:href="#glyph5-1" x="507.210797" y="128.3392"/>
</g>
<g style="fill:rgb(0%,0%,0%);fill-opacity:1;">
  <use xlink:href="#glyph6-1" x="514.958397" y="128.3392"/>
  <use xlink:href="#glyph6-2" x="533.536653" y="128.3392"/>
  <use xlink:href="#glyph6-3" x="541.263646" y="128.3392"/>
  <use xlink:href="#glyph6-4" x="557.917128" y="128.3392"/>
</g>
<path style="fill:none;stroke-width:0.398;stroke-linecap:butt;stroke-linejoin:miter;stroke:rgb(0%,0%,0%);stroke-opacity:1;stroke-miterlimit:10;" d="M 0.00056622 0.000390398 L 0.00056622 11.954911 " transform="matrix(2.8,0,0,-2.8,585.549196,138.379999)"/>
<path style="fill:none;stroke-width:0.398;stroke-linecap:butt;stroke-linejoin:miter;stroke:rgb(0%,0%,0%);stroke-opacity:1;stroke-miterlimit:10;" d="M 0 -0.000502463 L 87.339566 -0.000502463 " transform="matrix(2.8,0,0,-2.8,341,138.939999)"/>
<path style="fill:none;stroke-width:0.398;stroke-linecap:butt;stroke-linejoin:miter;stroke:rgb(0%,0%,0%);stroke-opacity:1;stroke-miterlimit:10;" d="M 0 -0.000520527 L 0 11.955395 " transform="matrix(2.8,0,0,-2.8,341,172.971199)"/>
<g style="fill:rgb(0%,0%,0%);fill-opacity:1;">
  <use xlink:href="#glyph2-1" x="357.7384" y="162.927599"/>
  <use xlink:href="#glyph2-1" x="409.818887" y="162.927599"/>
</g>
<path style="fill:none;stroke-width:0.398;stroke-linecap:butt;stroke-linejoin:miter;stroke:rgb(0%,0%,0%);stroke-opacity:1;stroke-miterlimit:10;" d="M 0.000511782 -0.000520527 L 0.000511782 11.955395 " transform="matrix(2.8,0,0,-2.8,443.205598,172.971199)"/>
<g style="fill:rgb(0%,0%,0%);fill-opacity:1;">
  <use xlink:href="#glyph7-1" x="459.943998" y="162.927599"/>
  <use xlink:href="#glyph7-2" x="473.891638" y="162.927599"/>
  <use xlink:href="#glyph7-1" x="481.61863" y="162.927599"/>
  <use xlink:href="#glyph7-1" x="495.56627" y="162.927599"/>
  <use xlink:href="#glyph7-3" x="509.51391" y="162.927599"/>
</g>
<path style="fill:none;stroke-width:0.398;stroke-linecap:butt;stroke-linejoin:miter;stroke:rgb(0%,0%,0%);stroke-opacity:1;stroke-miterlimit:10;" d="M 0.00056622 -0.000520527 L 0.00056622 11.955395 " transform="matrix(2.8,0,0,-2.8,585.549196,172.971199)"/>
<path style="fill:none;stroke-width:0.398;stroke-linecap:butt;stroke-linejoin:miter;stroke:rgb(0%,0%,0%);stroke-opacity:1;stroke-miterlimit:10;" d="M 0 -0.0000408199 L 0 11.954479 " transform="matrix(2.8,0,0,-2.8,341,206.445198)"/>
<g style="fill:rgb(0%,0%,0%);fill-opacity:1;">
  <use xlink:href="#glyph8-1" x="357.7384" y="196.404398"/>
  <use xlink:href="#glyph8-2" x="409.818887" y="196.404398"/>
</g>
<path style="fill:none;stroke-width:0.398;stroke-linecap:butt;stroke-linejoin:miter;stroke:rgb(0%,0%,0%);stroke-opacity:1;stroke-miterlimit:10;" d="M 0.000511782 -0.0000408199 L 0.000511782 11.954479 " transform="matrix(2.8,0,0,-2.8,443.205598,206.445198)"/>
<g style="fill:rgb(0%,0%,0%);fill-opacity:1;">
  <use xlink:href="#glyph9-1" x="459.943998" y="196.404398"/>
  <use xlink:href="#glyph9-2" x="473.891638" y="196.404398"/>
  <use xlink:href="#glyph9-3" x="481.61863" y="196.404398"/>
  <use xlink:href="#glyph9-4" x="495.56627" y="196.404398"/>
</g>
<path style="fill:none;stroke-width:0.398;stroke-linecap:butt;stroke-linejoin:miter;stroke:rgb(0%,0%,0%);stroke-opacity:1;stroke-miterlimit:10;" d="M 0.00056622 -0.0000408199 L 0.00056622 11.954479 " transform="matrix(2.8,0,0,-2.8,585.549196,206.445198)"/>
<path style="fill:none;stroke-width:0.398;stroke-linecap:butt;stroke-linejoin:miter;stroke:rgb(0%,0%,0%);stroke-opacity:1;stroke-miterlimit:10;" d="M 0 0.000438887 L 0 11.954959 " transform="matrix(2.8,0,0,-2.8,341,239.919198)"/>
<g style="fill:rgb(0%,0%,0%);fill-opacity:1;">
  <use xlink:href="#glyph10-1" x="357.7384" y="229.878398"/>
  <use xlink:href="#glyph10-2" x="409.818887" y="229.878398"/>
</g>
<path style="fill:none;stroke-width:0.398;stroke-linecap:butt;stroke-linejoin:miter;stroke:rgb(0%,0%,0%);stroke-opacity:1;stroke-miterlimit:10;" d="M 0.000511782 0.000438887 L 0.000511782 11.954959 " transform="matrix(2.8,0,0,-2.8,443.205598,239.919198)"/>
<g style="fill:rgb(0%,0%,0%);fill-opacity:1;">
  <use xlink:href="#glyph11-1" x="459.943998" y="229.878398"/>
  <use xlink:href="#glyph11-2" x="473.891638" y="229.878398"/>
  <use xlink:href="#glyph11-3" x="481.61863" y="229.878398"/>
  <use xlink:href="#glyph11-4" x="495.56627" y="229.878398"/>
</g>
<path style="fill:none;stroke-width:0.398;stroke-linecap:butt;stroke-linejoin:miter;stroke:rgb(0%,0%,0%);stroke-opacity:1;stroke-miterlimit:10;" d="M 0.00056622 0.000438887 L 0.00056622 11.954959 " transform="matrix(2.8,0,0,-2.8,585.549196,239.919198)"/>
<path style="fill:none;stroke-width:0.398;stroke-linecap:butt;stroke-linejoin:miter;stroke:rgb(0%,0%,0%);stroke-opacity:1;stroke-miterlimit:10;" d="M 0 -0.000476495 L 0 11.955439 " transform="matrix(2.8,0,0,-2.8,341,273.393197)"/>
<g style="fill:rgb(0%,0%,0%);fill-opacity:1;">
  <use xlink:href="#glyph12-1" x="357.7384" y="263.352397"/>
  <use xlink:href="#glyph12-1" x="409.818887" y="263.352397"/>
</g>
<path style="fill:none;stroke-width:0.398;stroke-linecap:butt;stroke-linejoin:miter;stroke:rgb(0%,0%,0%);stroke-opacity:1;stroke-miterlimit:10;" d="M 0.000511782 -0.000476495 L 0.000511782 11.955439 " transform="matrix(2.8,0,0,-2.8,443.205598,273.393197)"/>
<g style="fill:rgb(0%,0%,0%);fill-opacity:1;">
  <use xlink:href="#glyph13-1" x="459.943998" y="263.352397"/>
  <use xlink:href="#glyph13-2" x="473.891638" y="263.352397"/>
  <use xlink:href="#glyph13-3" x="481.61863" y="263.352397"/>
  <use xlink:href="#glyph13-4" x="495.56627" y="263.352397"/>
</g>
<path style="fill:none;stroke-width:0.398;stroke-linecap:butt;stroke-linejoin:miter;stroke:rgb(0%,0%,0%);stroke-opacity:1;stroke-miterlimit:10;" d="M 0.00056622 -0.000476495 L 0.00056622 11.955439 " transform="matrix(2.8,0,0,-2.8,585.549196,273.393197)"/>
<path style="fill:none;stroke-width:0.398;stroke-linecap:butt;stroke-linejoin:miter;stroke:rgb(0%,0%,0%);stroke-opacity:1;stroke-miterlimit:10;" d="M 0 0.0000257338 L 87.339566 0.0000257338 " transform="matrix(2.8,0,0,-2.8,341,273.953197)"/>
<g style="fill:rgb(0%,0%,0%);fill-opacity:1;">
  <use xlink:href="#glyph0-16" x="1" y="313"/>
  <use xlink:href="#glyph0-17" x="14.166572" y="313"/>
  <use xlink:href="#glyph0-10" x="28.114212" y="313"/>
  <use xlink:href="#glyph0-18" x="42.508176" y="313"/>
  <use xlink:href="#glyph0-19" x="56.90214" y="313"/>
  <use xlink:href="#glyph0-6" x="74.699329" y="313"/>
  <use xlink:href="#glyph0-5" x="88.089063" y="313"/>
  <use xlink:href="#glyph0-5" x="94.728139" y="313"/>
  <use xlink:href="#glyph0-20" x="101.367216" y="313"/>
</g>
<path style="fill:none;stroke-width:0.398;stroke-linecap:butt;stroke-linejoin:miter;stroke:rgb(0%,0%,0%);stroke-opacity:1;stroke-miterlimit:10;" d="M 0 -0.000497771 L 58.780693 -0.000497771 " transform="matrix(2.8,0,0,-2.8,121,297.5572)"/>
<path style="fill:none;stroke-width:0.398;stroke-linecap:butt;stroke-linejoin:miter;stroke:rgb(0%,0%,0%);stroke-opacity:1;stroke-miterlimit:10;" d="M 0 0.000484165 L 0 11.955004 " transform="matrix(2.8,0,0,-2.8,121,331.591199)"/>
<g style="fill:rgb(0%,0%,0%);fill-opacity:1;">
  <use xlink:href="#glyph14-1" x="137.7384" y="321.5476"/>
</g>
<path style="fill:none;stroke-width:0.398;stroke-linecap:butt;stroke-linejoin:miter;stroke:rgb(0%,0%,0%);stroke-opacity:1;stroke-miterlimit:10;" d="M -0.000459505 0.000484165 L -0.000459505 11.955004 " transform="matrix(2.8,0,0,-2.8,173.071599,331.591199)"/>
<g style="fill:rgb(0%,0%,0%);fill-opacity:1;">
  <use xlink:href="#glyph15-1" x="189.809999" y="321.5476"/>
  <use xlink:href="#glyph15-2" x="207.607187" y="321.5476"/>
  <use xlink:href="#glyph15-3" x="218.430556" y="321.5476"/>
</g>
<g style="fill:rgb(0%,0%,0%);fill-opacity:1;">
  <use xlink:href="#glyph16-1" x="231.653198" y="321.5476"/>
</g>
<g style="fill:rgb(0%,0%,0%);fill-opacity:1;">
  <use xlink:href="#glyph17-1" x="239.400798" y="321.5476"/>
  <use xlink:href="#glyph17-2" x="257.979054" y="321.5476"/>
</g>
<path style="fill:none;stroke-width:0.398;stroke-linecap:butt;stroke-linejoin:miter;stroke:rgb(0%,0%,0%);stroke-opacity:1;stroke-miterlimit:10;" d="M 0.000692965 0.000484165 L 0.000692965 11.955004 " transform="matrix(2.8,0,0,-2.8,285.583997,331.591199)"/>
<path style="fill:none;stroke-width:0.398;stroke-linecap:butt;stroke-linejoin:miter;stroke:rgb(0%,0%,0%);stroke-opacity:1;stroke-miterlimit:10;" d="M 0 -0.0000136066 L 58.780693 -0.0000136066 " transform="matrix(2.8,0,0,-2.8,121,332.148399)"/>
<path style="fill:none;stroke-width:0.398;stroke-linecap:butt;stroke-linejoin:miter;stroke:rgb(0%,0%,0%);stroke-opacity:1;stroke-miterlimit:10;" d="M 0 -0.0000316708 L 0 11.954489 " transform="matrix(2.8,0,0,-2.8,121,366.179599)"/>
<g style="fill:rgb(0%,0%,0%);fill-opacity:1;">
  <use xlink:href="#glyph18-1" x="137.7384" y="356.138799"/>
</g>
<path style="fill:none;stroke-width:0.398;stroke-linecap:butt;stroke-linejoin:miter;stroke:rgb(0%,0%,0%);stroke-opacity:1;stroke-miterlimit:10;" d="M -0.000459505 -0.0000316708 L -0.000459505 11.954489 " transform="matrix(2.8,0,0,-2.8,173.071599,366.179599)"/>
<g style="fill:rgb(0%,0%,0%);fill-opacity:1;">
  <use xlink:href="#glyph19-1" x="189.809999" y="356.138799"/>
  <use xlink:href="#glyph19-2" x="203.757639" y="356.138799"/>
  <use xlink:href="#glyph19-1" x="211.484631" y="356.138799"/>
  <use xlink:href="#glyph19-3" x="225.432271" y="356.138799"/>
</g>
<path style="fill:none;stroke-width:0.398;stroke-linecap:butt;stroke-linejoin:miter;stroke:rgb(0%,0%,0%);stroke-opacity:1;stroke-miterlimit:10;" d="M 0.000692965 -0.0000316708 L 0.000692965 11.954489 " transform="matrix(2.8,0,0,-2.8,285.583997,366.179599)"/>
<path style="fill:none;stroke-width:0.398;stroke-linecap:butt;stroke-linejoin:miter;stroke:rgb(0%,0%,0%);stroke-opacity:1;stroke-miterlimit:10;" d="M 0 0.0000529471 L 0 11.954573 " transform="matrix(2.8,0,0,-2.8,121,399.656398)"/>
<g style="fill:rgb(0%,0%,0%);fill-opacity:1;">
  <use xlink:href="#glyph20-1" x="137.7384" y="389.612798"/>
</g>
<path style="fill:none;stroke-width:0.398;stroke-linecap:butt;stroke-linejoin:miter;stroke:rgb(0%,0%,0%);stroke-opacity:1;stroke-miterlimit:10;" d="M -0.000459505 0.0000529471 L -0.000459505 11.954573 " transform="matrix(2.8,0,0,-2.8,173.071599,399.656398)"/>
<g style="fill:rgb(0%,0%,0%);fill-opacity:1;">
  <use xlink:href="#glyph21-1" x="189.809999" y="389.612798"/>
  <use xlink:href="#glyph21-2" x="203.757639" y="389.612798"/>
  <use xlink:href="#glyph21-3" x="211.484631" y="389.612798"/>
</g>
<path style="fill:none;stroke-width:0.398;stroke-linecap:butt;stroke-linejoin:miter;stroke:rgb(0%,0%,0%);stroke-opacity:1;stroke-miterlimit:10;" d="M 0.000692965 0.0000529471 L 0.000692965 11.954573 " transform="matrix(2.8,0,0,-2.8,285.583997,399.656398)"/>
<path style="fill:none;stroke-width:0.398;stroke-linecap:butt;stroke-linejoin:miter;stroke:rgb(0%,0%,0%);stroke-opacity:1;stroke-miterlimit:10;" d="M 0 -0.000444824 L 58.780693 -0.000444824 " transform="matrix(2.8,0,0,-2.8,121,400.213598)"/>
<g style="fill:rgb(0%,0%,0%);fill-opacity:1;">
  <use xlink:href="#glyph0-21" x="305" y="316.9804"/>
  <use xlink:href="#glyph0-6" x="329.40837" y="316.9804"/>
  <use xlink:href="#glyph0-3" x="342.017036" y="316.9804"/>
  <use xlink:href="#glyph0-7" x="351.529326" y="316.9804"/>
  <use xlink:href="#glyph0-19" x="364.38905" y="316.9804"/>
  <use xlink:href="#glyph0-6" x="382.186238" y="316.9804"/>
  <use xlink:href="#glyph0-5" x="395.575973" y="316.9804"/>
  <use xlink:href="#glyph0-5" x="402.215049" y="316.9804"/>
  <use xlink:href="#glyph0-20" x="408.854126" y="316.9804"/>
</g>
<path style="fill:none;stroke-width:0.398;stroke-linecap:butt;stroke-linejoin:miter;stroke:rgb(0%,0%,0%);stroke-opacity:1;stroke-miterlimit:10;" d="M 0 -0.000497771 L 62.791575 -0.000497771 " transform="matrix(2.8,0,0,-2.8,433,297.5572)"/>
<path style="fill:none;stroke-width:0.398;stroke-linecap:butt;stroke-linejoin:miter;stroke:rgb(0%,0%,0%);stroke-opacity:1;stroke-miterlimit:10;" d="M 0 0.000484165 L 0 11.955004 " transform="matrix(2.8,0,0,-2.8,433,331.591199)"/>
<g style="fill:rgb(0%,0%,0%);fill-opacity:1;">
  <use xlink:href="#glyph14-1" x="449.7384" y="321.5476"/>
</g>
<path style="fill:none;stroke-width:0.398;stroke-linecap:butt;stroke-linejoin:miter;stroke:rgb(0%,0%,0%);stroke-opacity:1;stroke-miterlimit:10;" d="M -0.000459505 0.000484165 L -0.000459505 11.955004 " transform="matrix(2.8,0,0,-2.8,485.071599,331.591199)"/>
<g style="fill:rgb(0%,0%,0%);fill-opacity:1;">
  <use xlink:href="#glyph15-1" x="501.809999" y="321.5476"/>
  <use xlink:href="#glyph15-2" x="519.607187" y="321.5476"/>
  <use xlink:href="#glyph15-4" x="530.430556" y="321.5476"/>
</g>
<g style="fill:rgb(0%,0%,0%);fill-opacity:1;">
  <use xlink:href="#glyph22-1" x="554.886798" y="321.5476"/>
</g>
<g style="fill:rgb(0%,0%,0%);fill-opacity:1;">
  <use xlink:href="#glyph23-1" x="562.637198" y="321.5476"/>
  <use xlink:href="#glyph23-2" x="581.215454" y="321.5476"/>
</g>
<path style="fill:none;stroke-width:0.398;stroke-linecap:butt;stroke-linejoin:miter;stroke:rgb(0%,0%,0%);stroke-opacity:1;stroke-miterlimit:10;" d="M -0.00042527 0.000484165 L -0.00042527 11.955004 " transform="matrix(2.8,0,0,-2.8,608.817597,331.591199)"/>
<path style="fill:none;stroke-width:0.398;stroke-linecap:butt;stroke-linejoin:miter;stroke:rgb(0%,0%,0%);stroke-opacity:1;stroke-miterlimit:10;" d="M 0 -0.0000136066 L 62.791575 -0.0000136066 " transform="matrix(2.8,0,0,-2.8,433,332.148399)"/>
<path style="fill:none;stroke-width:0.398;stroke-linecap:butt;stroke-linejoin:miter;stroke:rgb(0%,0%,0%);stroke-opacity:1;stroke-miterlimit:10;" d="M 0 -0.0000316708 L 0 11.954489 " transform="matrix(2.8,0,0,-2.8,433,366.179599)"/>
<g style="fill:rgb(0%,0%,0%);fill-opacity:1;">
  <use xlink:href="#glyph18-1" x="449.7384" y="356.138799"/>
</g>
<path style="fill:none;stroke-width:0.398;stroke-linecap:butt;stroke-linejoin:miter;stroke:rgb(0%,0%,0%);stroke-opacity:1;stroke-miterlimit:10;" d="M -0.000459505 -0.0000316708 L -0.000459505 11.954489 " transform="matrix(2.8,0,0,-2.8,485.071599,366.179599)"/>
<g style="fill:rgb(0%,0%,0%);fill-opacity:1;">
  <use xlink:href="#glyph19-1" x="501.809999" y="356.138799"/>
  <use xlink:href="#glyph19-2" x="515.757639" y="356.138799"/>
  <use xlink:href="#glyph19-1" x="523.484631" y="356.138799"/>
  <use xlink:href="#glyph19-4" x="537.432271" y="356.138799"/>
</g>
<path style="fill:none;stroke-width:0.398;stroke-linecap:butt;stroke-linejoin:miter;stroke:rgb(0%,0%,0%);stroke-opacity:1;stroke-miterlimit:10;" d="M -0.00042527 -0.0000316708 L -0.00042527 11.954489 " transform="matrix(2.8,0,0,-2.8,608.817597,366.179599)"/>
<path style="fill:none;stroke-width:0.398;stroke-linecap:butt;stroke-linejoin:miter;stroke:rgb(0%,0%,0%);stroke-opacity:1;stroke-miterlimit:10;" d="M 0 0.0000529471 L 0 11.954573 " transform="matrix(2.8,0,0,-2.8,433,399.656398)"/>
<g style="fill:rgb(0%,0%,0%);fill-opacity:1;">
  <use xlink:href="#glyph20-1" x="449.7384" y="389.612798"/>
</g>
<path style="fill:none;stroke-width:0.398;stroke-linecap:butt;stroke-linejoin:miter;stroke:rgb(0%,0%,0%);stroke-opacity:1;stroke-miterlimit:10;" d="M -0.000459505 0.0000529471 L -0.000459505 11.954573 " transform="matrix(2.8,0,0,-2.8,485.071599,399.656398)"/>
<g style="fill:rgb(0%,0%,0%);fill-opacity:1;">
  <use xlink:href="#glyph21-1" x="501.809999" y="389.612798"/>
  <use xlink:href="#glyph21-2" x="515.757639" y="389.612798"/>
  <use xlink:href="#glyph21-4" x="523.484631" y="389.612798"/>
</g>
<path style="fill:none;stroke-width:0.398;stroke-linecap:butt;stroke-linejoin:miter;stroke:rgb(0%,0%,0%);stroke-opacity:1;stroke-miterlimit:10;" d="M -0.00042527 0.0000529471 L -0.00042527 11.954573 " transform="matrix(2.8,0,0,-2.8,608.817597,399.656398)"/>
<path style="fill:none;stroke-width:0.398;stroke-linecap:butt;stroke-linejoin:miter;stroke:rgb(0%,0%,0%);stroke-opacity:1;stroke-miterlimit:10;" d="M 0 -0.000444824 L 62.791575 -0.000444824 " transform="matrix(2.8,0,0,-2.8,433,400.213598)"/>
<path style="fill:none;stroke-width:1.2;stroke-linecap:butt;stroke-linejoin:round;stroke:rgb(0%,0%,0%);stroke-opacity:1;stroke-miterlimit:10;" d="M 88 496 L 188 384 " transform="matrix(1,0,0,-1,-15,533)"/>
<path style="fill-rule:evenodd;fill:rgb(0%,0%,0%);fill-opacity:1;stroke-width:1.2;stroke-linecap:butt;stroke-linejoin:round;stroke:rgb(0%,0%,0%);stroke-opacity:1;stroke-miterlimit:10;" d="M 188 384 L 181.734375 398.515625 L 174.285156 391.863281 Z M 188 384 " transform="matrix(1,0,0,-1,-15,533)"/>
<path style="fill:none;stroke-width:1.2;stroke-linecap:butt;stroke-linejoin:round;stroke:rgb(0%,0%,0%);stroke-opacity:1;stroke-miterlimit:10;" d="M 340 496 L 228 384 " transform="matrix(1,0,0,-1,-15,533)"/>
<path style="fill-rule:evenodd;fill:rgb(0%,0%,0%);fill-opacity:1;stroke-width:1.2;stroke-linecap:butt;stroke-linejoin:round;stroke:rgb(0%,0%,0%);stroke-opacity:1;stroke-miterlimit:10;" d="M 228 384 L 242.136719 391.074219 L 235.074219 398.136719 Z M 228 384 " transform="matrix(1,0,0,-1,-15,533)"/>
<path style="fill:none;stroke-width:1.2;stroke-linecap:butt;stroke-linejoin:round;stroke:rgb(0%,0%,0%);stroke-opacity:1;stroke-miterlimit:10;" d="M 184 340 L 76 248 " transform="matrix(1,0,0,-1,-15,533)"/>
<path style="fill-rule:evenodd;fill:rgb(0%,0%,0%);fill-opacity:1;stroke-width:1.2;stroke-linecap:butt;stroke-linejoin:round;stroke:rgb(0%,0%,0%);stroke-opacity:1;stroke-miterlimit:10;" d="M 76 248 L 90.65625 253.925781 L 84.179688 261.53125 Z M 76 248 " transform="matrix(1,0,0,-1,-15,533)"/>
<path style="fill:none;stroke-width:1.2;stroke-linecap:butt;stroke-linejoin:round;stroke:rgb(0%,0%,0%);stroke-opacity:1;stroke-miterlimit:10;" d="M 232 340 L 336 244 " transform="matrix(1,0,0,-1,-15,533)"/>
<path style="fill-rule:evenodd;fill:rgb(0%,0%,0%);fill-opacity:1;stroke-width:1.2;stroke-linecap:butt;stroke-linejoin:round;stroke:rgb(0%,0%,0%);stroke-opacity:1;stroke-miterlimit:10;" d="M 336 244 L 328.367188 257.84375 L 321.589844 250.503906 Z M 336 244 " transform="matrix(1,0,0,-1,-15,533)"/>
</g>
</svg>
