<?xml version="1.0" encoding="UTF-8"?>
<svg xmlns="http://www.w3.org/2000/svg" xmlns:xlink="http://www.w3.org/1999/xlink" width="177pt" height="106pt" viewBox="0 0 177 106" version="1.1">
<defs>
<g>
<symbol overflow="visible" id="glyph0-0">
<path style="stroke:none;" d=""/>
</symbol>
<symbol overflow="visible" id="glyph0-1">
<path style="stroke:none;" d="M 10.453125 -17.125 C 10.625 -17.796875 10.703125 -18.078125 11.234375 -18.15625 C 11.484375 -18.1875 12.390625 -18.1875 12.9375 -18.1875 C 14.921875 -18.1875 18.015625 -18.1875 18.015625 -15.421875 C 18.015625 -14.46875 17.578125 -12.546875 16.484375 -11.46875 C 15.765625 -10.734375 14.28125 -9.84375 11.765625 -9.84375 L 8.640625 -9.84375 Z M 14.46875 -9.484375 C 17.296875 -10.09375 20.609375 -12.046875 20.609375 -14.859375 C 20.609375 -17.265625 18.09375 -19.046875 14.453125 -19.046875 L 6.5 -19.046875 C 5.9375 -19.046875 5.6875 -19.046875 5.6875 -18.484375 C 5.6875 -18.1875 5.9375 -18.1875 6.46875 -18.1875 C 6.53125 -18.1875 7.0625 -18.1875 7.53125 -18.125 C 8.03125 -18.078125 8.28125 -18.046875 8.28125 -17.6875 C 8.28125 -17.578125 8.25 -17.484375 8.171875 -17.15625 L 4.4375 -2.171875 C 4.15625 -1.09375 4.09375 -0.859375 1.890625 -0.859375 C 1.390625 -0.859375 1.140625 -0.859375 1.140625 -0.3125 C 1.140625 0 1.484375 0 1.53125 0 C 2.3125 0 4.265625 -0.078125 5.046875 -0.078125 C 5.828125 -0.078125 7.8125 0 8.59375 0 C 8.8125 0 9.140625 0 9.140625 -0.5625 C 9.140625 -0.859375 8.890625 -0.859375 8.375 -0.859375 C 7.328125 -0.859375 6.546875 -0.859375 6.546875 -1.359375 C 6.546875 -1.53125 6.609375 -1.671875 6.640625 -1.84375 L 8.484375 -9.234375 L 11.796875 -9.234375 C 14.328125 -9.234375 14.84375 -7.671875 14.84375 -6.6875 C 14.84375 -6.28125 14.609375 -5.40625 14.453125 -4.765625 C 14.25 -3.984375 14 -2.953125 14 -2.40625 C 14 0.609375 17.34375 0.609375 17.703125 0.609375 C 20.078125 0.609375 21.0625 -2.203125 21.0625 -2.59375 C 21.0625 -2.921875 20.75 -2.921875 20.71875 -2.921875 C 20.46875 -2.921875 20.421875 -2.734375 20.359375 -2.53125 C 19.65625 -0.46875 18.46875 0 17.828125 0 C 16.90625 0 16.703125 -0.609375 16.703125 -1.703125 C 16.703125 -2.5625 16.875 -3.984375 16.984375 -4.875 C 17.046875 -5.265625 17.09375 -5.796875 17.09375 -6.1875 C 17.09375 -8.34375 15.234375 -9.203125 14.46875 -9.484375 Z M 14.46875 -9.484375 "/>
</symbol>
<symbol overflow="visible" id="glyph0-2">
<path style="stroke:none;" d="M 17.703125 -16.125 C 17.984375 -17.265625 18.484375 -18.09375 20.71875 -18.1875 C 20.859375 -18.1875 21.203125 -18.21875 21.203125 -18.75 C 21.203125 -18.765625 21.203125 -19.046875 20.828125 -19.046875 C 19.90625 -19.046875 18.9375 -18.96875 17.984375 -18.96875 C 17.046875 -18.96875 16.015625 -19.046875 15.09375 -19.046875 C 14.921875 -19.046875 14.59375 -19.046875 14.59375 -18.484375 C 14.59375 -18.1875 14.859375 -18.1875 15.09375 -18.1875 C 16.671875 -18.15625 16.984375 -17.578125 16.984375 -16.953125 C 16.984375 -16.875 16.921875 -16.453125 16.90625 -16.375 L 14.390625 -6.421875 C 13.4375 -2.671875 10.234375 -0.25 7.453125 -0.25 C 5.546875 -0.25 4.046875 -1.484375 4.046875 -3.875 C 4.046875 -3.9375 4.046875 -4.828125 4.34375 -6.046875 L 7.0625 -16.90625 C 7.3125 -17.90625 7.359375 -18.1875 9.40625 -18.1875 C 10.125 -18.1875 10.34375 -18.1875 10.34375 -18.75 C 10.34375 -19.046875 10.046875 -19.046875 9.953125 -19.046875 C 9.171875 -19.046875 7.171875 -18.96875 6.390625 -18.96875 C 5.578125 -18.96875 3.59375 -19.046875 2.796875 -19.046875 C 2.5625 -19.046875 2.265625 -19.046875 2.265625 -18.484375 C 2.265625 -18.1875 2.515625 -18.1875 3.046875 -18.1875 C 3.09375 -18.1875 3.625 -18.1875 4.09375 -18.125 C 4.609375 -18.078125 4.859375 -18.046875 4.859375 -17.6875 C 4.859375 -17.515625 4.546875 -16.34375 4.375 -15.703125 L 3.765625 -13.25 C 3.515625 -12.15625 2.171875 -6.890625 2.0625 -6.359375 C 1.875 -5.578125 1.875 -5.15625 1.875 -4.734375 C 1.875 -1.34375 4.40625 0.609375 7.328125 0.609375 C 10.84375 0.609375 14.3125 -2.53125 15.234375 -6.21875 Z M 17.703125 -16.125 "/>
</symbol>
<symbol overflow="visible" id="glyph0-3">
<path style="stroke:none;" d="M 11.90625 -16.921875 C 12.109375 -17.703125 12.21875 -17.875 12.546875 -17.96875 C 12.796875 -18.015625 13.71875 -18.015625 14.3125 -18.015625 C 17.125 -18.015625 18.375 -17.90625 18.375 -15.734375 C 18.375 -15.3125 18.265625 -14.21875 18.15625 -13.5 C 18.125 -13.390625 18.078125 -13.046875 18.078125 -12.96875 C 18.078125 -12.796875 18.15625 -12.609375 18.40625 -12.609375 C 18.71875 -12.609375 18.765625 -12.828125 18.828125 -13.25 L 19.578125 -18.09375 C 19.609375 -18.21875 19.640625 -18.484375 19.640625 -18.578125 C 19.640625 -18.875 19.359375 -18.875 18.875 -18.875 L 3.40625 -18.875 C 2.734375 -18.875 2.703125 -18.859375 2.515625 -18.328125 L 0.84375 -13.421875 C 0.8125 -13.359375 0.671875 -12.96875 0.671875 -12.90625 C 0.671875 -12.75 0.8125 -12.609375 1 -12.609375 C 1.28125 -12.609375 1.3125 -12.75 1.484375 -13.1875 C 2.984375 -17.515625 3.703125 -18.015625 7.84375 -18.015625 L 8.921875 -18.015625 C 9.703125 -18.015625 9.703125 -17.90625 9.703125 -17.6875 C 9.703125 -17.515625 9.625 -17.1875 9.59375 -17.09375 L 5.859375 -2.203125 C 5.609375 -1.171875 5.515625 -0.859375 2.53125 -0.859375 C 1.53125 -0.859375 1.359375 -0.859375 1.359375 -0.328125 C 1.359375 0 1.671875 0 1.84375 0 C 2.59375 0 3.375 -0.0625 4.125 -0.0625 C 4.90625 -0.0625 5.71875 -0.078125 6.5 -0.078125 C 7.28125 -0.078125 8.0625 -0.0625 8.8125 -0.0625 C 9.625 -0.0625 10.453125 0 11.234375 0 C 11.515625 0 11.859375 0 11.859375 -0.5625 C 11.859375 -0.859375 11.625 -0.859375 10.90625 -0.859375 C 10.203125 -0.859375 9.84375 -0.859375 9.125 -0.921875 C 8.3125 -1 8.09375 -1.09375 8.09375 -1.53125 C 8.09375 -1.5625 8.09375 -1.703125 8.203125 -2.125 Z M 11.90625 -16.921875 "/>
</symbol>
</g>
</defs>
<g id="surface1">
<g style="fill:rgb(0%,0%,0%);fill-opacity:1;">
  <use xlink:href="#glyph0-1" x="81" y="21"/>
</g>
<g style="fill:rgb(0%,0%,0%);fill-opacity:1;">
  <use xlink:href="#glyph0-2" x="153" y="105"/>
</g>
<g style="fill:rgb(0%,0%,0%);fill-opacity:1;">
  <use xlink:href="#glyph0-3" x="1" y="105"/>
</g>
<path style="fill:none;stroke-width:1.2;stroke-linecap:butt;stroke-linejoin:round;stroke:rgb(0%,0%,0%);stroke-opacity:1;stroke-miterlimit:10;" d="M 80 512 L 28 448 " transform="matrix(1,0,0,-1,1,533)"/>
<path style="fill-rule:evenodd;fill:rgb(0%,0%,0%);fill-opacity:1;stroke-width:1.2;stroke-linecap:butt;stroke-linejoin:round;stroke:rgb(0%,0%,0%);stroke-opacity:1;stroke-miterlimit:10;" d="M 28 448 L 41.335938 456.492188 L 33.582031 462.792969 Z M 28 448 " transform="matrix(1,0,0,-1,1,533)"/>
<path style="fill:none;stroke-width:1.2;stroke-linecap:butt;stroke-linejoin:round;stroke:rgb(0%,0%,0%);stroke-opacity:1;stroke-miterlimit:10;" d="M 104 512 L 148 448 " transform="matrix(1,0,0,-1,1,533)"/>
<path style="fill-rule:evenodd;fill:rgb(0%,0%,0%);fill-opacity:1;stroke-width:1.2;stroke-linecap:butt;stroke-linejoin:round;stroke:rgb(0%,0%,0%);stroke-opacity:1;stroke-miterlimit:10;" d="M 148 448 L 143.617188 463.191406 L 135.386719 457.53125 Z M 148 448 " transform="matrix(1,0,0,-1,1,533)"/>
<path style="fill:none;stroke-width:1.2;stroke-linecap:butt;stroke-linejoin:round;stroke:rgb(0%,0%,0%);stroke-opacity:1;stroke-miterlimit:10;" d="M 24 436 L 148 436 " transform="matrix(1,0,0,-1,1,533)"/>
<path style="fill-rule:evenodd;fill:rgb(0%,0%,0%);fill-opacity:1;stroke-width:1.2;stroke-linecap:butt;stroke-linejoin:round;stroke:rgb(0%,0%,0%);stroke-opacity:1;stroke-miterlimit:10;" d="M 148 436 L 133 440.996094 L 133 431.003906 Z M 148 436 " transform="matrix(1,0,0,-1,1,533)"/>
<path style="fill-rule:evenodd;fill:rgb(0%,0%,0%);fill-opacity:1;stroke-width:1.2;stroke-linecap:butt;stroke-linejoin:round;stroke:rgb(0%,0%,0%);stroke-opacity:1;stroke-miterlimit:10;" d="M 24 436 L 39 431.003906 L 39 440.996094 Z M 24 436 " transform="matrix(1,0,0,-1,1,533)"/>
</g>
</svg>
