<?xml version="1.0" encoding="UTF-8"?>
<svg xmlns="http://www.w3.org/2000/svg" xmlns:xlink="http://www.w3.org/1999/xlink" width="215pt" height="22pt" viewBox="0 0 215 22" version="1.1">
<defs>
<g>
<symbol overflow="visible" id="glyph0-0">
<path style="stroke:none;" d=""/>
</symbol>
<symbol overflow="visible" id="glyph0-1">
<path style="stroke:none;" d="M 8.453125 -9.0625 L 11.15625 -9.0625 C 13.25 -9.0625 13.46875 -8.625 13.46875 -7.8125 C 13.46875 -7.609375 13.46875 -7.28125 13.28125 -6.4375 C 13.21875 -6.296875 13.1875 -6.1875 13.1875 -6.140625 C 13.1875 -5.90625 13.359375 -5.796875 13.53125 -5.796875 C 13.8125 -5.796875 13.8125 -5.890625 13.953125 -6.390625 L 15.484375 -12.4375 C 15.5625 -12.75 15.5625 -12.796875 15.5625 -12.890625 C 15.5625 -12.9375 15.5 -13.1875 15.234375 -13.1875 C 14.953125 -13.1875 14.921875 -13.046875 14.8125 -12.609375 C 14.21875 -10.4375 13.578125 -9.921875 11.21875 -9.921875 L 8.671875 -9.921875 L 10.453125 -17.015625 C 10.703125 -17.984375 10.734375 -18.09375 11.96875 -18.09375 L 15.640625 -18.09375 C 19.078125 -18.09375 19.71875 -17.1875 19.71875 -15.03125 C 19.71875 -14.390625 19.71875 -14.28125 19.640625 -13.53125 C 19.578125 -13.171875 19.578125 -13.109375 19.578125 -13.03125 C 19.578125 -12.890625 19.65625 -12.6875 19.90625 -12.6875 C 20.21875 -12.6875 20.25 -12.859375 20.296875 -13.390625 L 20.859375 -18.21875 C 20.953125 -18.96875 20.8125 -18.96875 20.109375 -18.96875 L 6.4375 -18.96875 C 5.890625 -18.96875 5.609375 -18.96875 5.609375 -18.40625 C 5.609375 -18.09375 5.859375 -18.09375 6.390625 -18.09375 C 7.421875 -18.09375 8.203125 -18.09375 8.203125 -17.59375 C 8.203125 -17.484375 8.203125 -17.4375 8.0625 -16.921875 L 4.375 -2.171875 C 4.09375 -1.09375 4.046875 -0.859375 1.84375 -0.859375 C 1.359375 -0.859375 1.0625 -0.859375 1.0625 -0.328125 C 1.0625 0 1.390625 0 1.484375 0 C 2.28125 0 4.34375 -0.078125 5.15625 -0.078125 C 6.078125 -0.078125 8.390625 0 9.3125 0 C 9.5625 0 9.90625 0 9.90625 -0.53125 C 9.90625 -0.75 9.734375 -0.8125 9.734375 -0.84375 C 9.65625 -0.859375 9.59375 -0.859375 8.953125 -0.859375 C 8.34375 -0.859375 8.203125 -0.859375 7.5 -0.921875 C 6.6875 -1 6.609375 -1.109375 6.609375 -1.484375 C 6.609375 -1.53125 6.609375 -1.703125 6.71875 -2.125 Z M 8.453125 -9.0625 "/>
</symbol>
<symbol overflow="visible" id="glyph0-2">
<path style="stroke:none;" d="M 17.984375 -19.390625 C 17.984375 -19.46875 17.9375 -19.65625 17.6875 -19.65625 C 17.546875 -19.65625 17.515625 -19.640625 17.1875 -19.25 L 15.84375 -17.65625 C 15.109375 -18.96875 13.671875 -19.65625 11.859375 -19.65625 C 8.3125 -19.65625 4.96875 -16.453125 4.96875 -13.078125 C 4.96875 -10.828125 6.4375 -9.53125 7.859375 -9.125 L 10.84375 -8.34375 C 11.875 -8.09375 13.421875 -7.671875 13.421875 -5.390625 C 13.421875 -2.875 11.125 -0.25 8.390625 -0.25 C 6.609375 -0.25 3.515625 -0.859375 3.515625 -4.328125 C 3.515625 -5 3.65625 -5.65625 3.6875 -5.828125 C 3.703125 -5.9375 3.734375 -5.96875 3.734375 -6.03125 C 3.734375 -6.296875 3.546875 -6.328125 3.40625 -6.328125 C 3.265625 -6.328125 3.203125 -6.296875 3.125 -6.21875 C 3.015625 -6.109375 1.453125 0.25 1.453125 0.328125 C 1.453125 0.5 1.59375 0.609375 1.75 0.609375 C 1.890625 0.609375 1.921875 0.578125 2.265625 0.1875 L 3.625 -1.390625 C 4.828125 0.21875 6.71875 0.609375 8.34375 0.609375 C 12.125 0.609375 15.421875 -3.09375 15.421875 -6.546875 C 15.421875 -8.484375 14.46875 -9.421875 14.0625 -9.8125 C 13.421875 -10.453125 13 -10.578125 10.515625 -11.21875 C 9.90625 -11.375 8.890625 -11.65625 8.640625 -11.71875 C 7.890625 -11.96875 6.9375 -12.78125 6.9375 -14.25 C 6.9375 -16.515625 9.171875 -18.875 11.828125 -18.875 C 14.140625 -18.875 15.84375 -17.6875 15.84375 -14.5625 C 15.84375 -13.671875 15.734375 -13.171875 15.734375 -13 C 15.734375 -12.96875 15.734375 -12.71875 16.0625 -12.71875 C 16.34375 -12.71875 16.375 -12.796875 16.484375 -13.28125 Z M 17.984375 -19.390625 "/>
</symbol>
<symbol overflow="visible" id="glyph0-3">
<path style="stroke:none;" d="M 5 -3.203125 C 3.875 -1.34375 2.796875 -0.953125 1.5625 -0.859375 C 1.234375 -0.84375 0.96875 -0.84375 0.96875 -0.3125 C 0.96875 -0.140625 1.109375 0 1.34375 0 C 2.09375 0 2.953125 -0.078125 3.734375 -0.078125 C 4.65625 -0.078125 5.640625 0 6.53125 0 C 6.6875 0 7.0625 0 7.0625 -0.53125 C 7.0625 -0.84375 6.8125 -0.859375 6.609375 -0.859375 C 5.96875 -0.921875 5.296875 -1.140625 5.296875 -1.84375 C 5.296875 -2.171875 5.46875 -2.484375 5.6875 -2.875 L 7.8125 -6.4375 L 14.8125 -6.4375 C 14.859375 -5.859375 15.25 -2.0625 15.25 -1.78125 C 15.25 -0.953125 13.8125 -0.859375 13.25 -0.859375 C 12.859375 -0.859375 12.578125 -0.859375 12.578125 -0.3125 C 12.578125 0 12.90625 0 12.96875 0 C 14.109375 0 15.3125 -0.078125 16.453125 -0.078125 C 17.15625 -0.078125 18.90625 0 19.609375 0 C 19.78125 0 20.109375 0 20.109375 -0.5625 C 20.109375 -0.859375 19.828125 -0.859375 19.46875 -0.859375 C 17.734375 -0.859375 17.734375 -1.0625 17.65625 -1.875 L 15.953125 -19.296875 C 15.890625 -19.859375 15.890625 -19.96875 15.421875 -19.96875 C 14.984375 -19.96875 14.859375 -19.78125 14.703125 -19.5 Z M 8.34375 -7.3125 L 13.828125 -16.515625 L 14.71875 -7.3125 Z M 8.34375 -7.3125 "/>
</symbol>
</g>
</defs>
<g id="surface1">
<g style="fill:rgb(0%,0%,0%);fill-opacity:1;">
  <use xlink:href="#glyph0-1" x="1" y="21"/>
</g>
<g style="fill:rgb(0%,0%,0%);fill-opacity:1;">
  <use xlink:href="#glyph0-2" x="97" y="21"/>
</g>
<g style="fill:rgb(0%,0%,0%);fill-opacity:1;">
  <use xlink:href="#glyph0-3" x="193" y="21"/>
</g>
<path style="fill:none;stroke-width:1.2;stroke-linecap:butt;stroke-linejoin:round;stroke:rgb(0%,0%,0%);stroke-opacity:1;stroke-miterlimit:10;" d="M 28 504 L 100 504 " transform="matrix(1,0,0,-1,-3,517)"/>
<path style="fill-rule:evenodd;fill:rgb(0%,0%,0%);fill-opacity:1;stroke-width:1.2;stroke-linecap:butt;stroke-linejoin:round;stroke:rgb(0%,0%,0%);stroke-opacity:1;stroke-miterlimit:10;" d="M 100 504 L 85 508.996094 L 85 499.003906 Z M 100 504 " transform="matrix(1,0,0,-1,-3,517)"/>
<path style="fill:none;stroke-width:1.2;stroke-linecap:butt;stroke-linejoin:round;stroke:rgb(0%,0%,0%);stroke-opacity:1;stroke-miterlimit:10;" d="M 124 504 L 196 504 " transform="matrix(1,0,0,-1,-3,517)"/>
<path style="fill-rule:evenodd;fill:rgb(0%,0%,0%);fill-opacity:1;stroke-width:1.2;stroke-linecap:butt;stroke-linejoin:round;stroke:rgb(0%,0%,0%);stroke-opacity:1;stroke-miterlimit:10;" d="M 196 504 L 181 508.996094 L 181 499.003906 Z M 196 504 " transform="matrix(1,0,0,-1,-3,517)"/>
</g>
</svg>
