<?xml version="1.0" encoding="UTF-8"?>
<svg xmlns="http://www.w3.org/2000/svg" xmlns:xlink="http://www.w3.org/1999/xlink" width="226pt" height="162pt" viewBox="0 0 226 162" version="1.1">
<defs>
<g>
<symbol overflow="visible" id="glyph0-0">
<path style="stroke:none;" d=""/>
</symbol>
<symbol overflow="visible" id="glyph0-1">
<path style="stroke:none;" d="M 4.640625 -6.640625 C 4.09375 -6.96875 3.53125 -7.140625 2.8125 -7.140625 C 1.421875 -7.140625 0.5625 -6.15625 0.5625 -5.171875 C 0.5625 -4.75 0.703125 -4.328125 1.09375 -3.90625 C 1.515625 -3.453125 1.953125 -3.34375 2.546875 -3.203125 C 3.390625 -2.984375 3.484375 -2.953125 3.765625 -2.71875 C 3.96875 -2.546875 4.1875 -2.21875 4.1875 -1.78125 C 4.1875 -1.125 3.640625 -0.46875 2.734375 -0.46875 C 2.328125 -0.46875 1.421875 -0.5625 0.59375 -1.28125 L 0.4375 -0.46875 C 1.3125 0.078125 2.109375 0.21875 2.734375 0.21875 C 4.0625 0.21875 4.96875 -0.78125 4.96875 -1.890625 C 4.96875 -2.53125 4.671875 -3.015625 4.453125 -3.25 C 3.984375 -3.75 3.65625 -3.84375 2.734375 -4.0625 C 2.15625 -4.203125 2 -4.25 1.6875 -4.5 C 1.625 -4.5625 1.34375 -4.859375 1.34375 -5.296875 C 1.34375 -5.875 1.890625 -6.484375 2.796875 -6.484375 C 3.640625 -6.484375 4.109375 -6.15625 4.484375 -5.84375 Z M 4.640625 -6.640625 "/>
</symbol>
<symbol overflow="visible" id="glyph0-2">
<path style="stroke:none;" d="M 4.125 -2.1875 C 4.125 -2.515625 4.109375 -3.265625 3.734375 -3.875 C 3.3125 -4.484375 2.71875 -4.59375 2.359375 -4.59375 C 1.25 -4.59375 0.34375 -3.53125 0.34375 -2.25 C 0.34375 -0.9375 1.3125 0.109375 2.5 0.109375 C 3.125 0.109375 3.703125 -0.125 4.09375 -0.40625 L 4.03125 -1.0625 C 3.40625 -0.53125 2.734375 -0.5 2.515625 -0.5 C 1.71875 -0.5 1.078125 -1.203125 1.046875 -2.1875 Z M 1.09375 -2.734375 C 1.25 -3.484375 1.78125 -3.984375 2.359375 -3.984375 C 2.875 -3.984375 3.421875 -3.65625 3.5625 -2.734375 Z M 1.09375 -2.734375 "/>
</symbol>
<symbol overflow="visible" id="glyph0-3">
<path style="stroke:none;" d="M 4.34375 -2.96875 C 4.34375 -3.625 4.1875 -4.53125 2.96875 -4.53125 C 2.078125 -4.53125 1.578125 -3.859375 1.53125 -3.78125 L 1.53125 -4.484375 L 0.8125 -4.484375 L 0.8125 0 L 1.578125 0 L 1.578125 -2.4375 C 1.578125 -3.09375 1.828125 -3.921875 2.59375 -3.921875 C 3.546875 -3.921875 3.5625 -3.21875 3.5625 -2.90625 L 3.5625 0 L 4.34375 0 Z M 4.34375 -2.96875 "/>
</symbol>
<symbol overflow="visible" id="glyph0-4">
<path style="stroke:none;" d="M 3.421875 -4.28125 C 2.90625 -4.515625 2.5 -4.59375 1.984375 -4.59375 C 1.734375 -4.59375 0.328125 -4.59375 0.328125 -3.296875 C 0.328125 -2.796875 0.625 -2.484375 0.875 -2.296875 C 1.171875 -2.078125 1.390625 -2.03125 1.9375 -1.921875 C 2.296875 -1.859375 2.875 -1.734375 2.875 -1.203125 C 2.875 -0.515625 2.09375 -0.515625 1.9375 -0.515625 C 1.140625 -0.515625 0.578125 -0.890625 0.40625 -1 L 0.28125 -0.328125 C 0.59375 -0.171875 1.140625 0.109375 1.953125 0.109375 C 2.140625 0.109375 2.6875 0.109375 3.109375 -0.203125 C 3.421875 -0.453125 3.59375 -0.84375 3.59375 -1.28125 C 3.59375 -1.828125 3.21875 -2.15625 3.203125 -2.1875 C 2.8125 -2.546875 2.546875 -2.609375 2.046875 -2.6875 C 1.5 -2.796875 1.03125 -2.90625 1.03125 -3.390625 C 1.03125 -4 1.75 -4 1.890625 -4 C 2.203125 -4 2.734375 -3.96875 3.296875 -3.625 Z M 3.421875 -4.28125 "/>
</symbol>
<symbol overflow="visible" id="glyph0-5">
<path style="stroke:none;" d="M 4.671875 -2.1875 C 4.671875 -3.53125 3.671875 -4.59375 2.5 -4.59375 C 1.265625 -4.59375 0.296875 -3.5 0.296875 -2.1875 C 0.296875 -0.875 1.3125 0.109375 2.484375 0.109375 C 3.671875 0.109375 4.671875 -0.890625 4.671875 -2.1875 Z M 2.484375 -0.53125 C 1.796875 -0.53125 1.078125 -1.09375 1.078125 -2.296875 C 1.078125 -3.5 1.828125 -3.984375 2.484375 -3.984375 C 3.1875 -3.984375 3.890625 -3.46875 3.890625 -2.296875 C 3.890625 -1.109375 3.21875 -0.53125 2.484375 -0.53125 Z M 2.484375 -0.53125 "/>
</symbol>
<symbol overflow="visible" id="glyph0-6">
<path style="stroke:none;" d="M 1.5625 -2.140625 C 1.5625 -3.125 2.28125 -3.84375 3.265625 -3.875 L 3.265625 -4.53125 C 2.375 -4.53125 1.828125 -4.03125 1.515625 -3.578125 L 1.515625 -4.484375 L 0.8125 -4.484375 L 0.8125 0 L 1.5625 0 Z M 1.5625 -2.140625 "/>
</symbol>
<symbol overflow="visible" id="glyph1-0">
<path style="stroke:none;" d=""/>
</symbol>
<symbol overflow="visible" id="glyph1-1">
<path style="stroke:none;" d="M 3.328125 5.078125 L 3.9375 5.078125 L 3.90625 1.796875 L 6.265625 1.765625 L 6.28125 3.140625 C 6.28125 3.25 6.265625 3.375 6.265625 3.5 L 6.28125 5.328125 L 6.9375 5.328125 L 6.90625 0.875 L 0.015625 0.9375 L 0.0625 5.515625 L 0.765625 5.515625 L 0.75 4.265625 C 0.75 4.140625 0.75 4.03125 0.734375 3.90625 L 0.71875 1.828125 L 3.296875 1.796875 Z M 3.328125 5.078125 "/>
</symbol>
<symbol overflow="visible" id="glyph1-2">
<path style="stroke:none;" d="M 6.9375 2.125 L 6.9375 0.890625 L 0.015625 0.953125 L 0.015625 1.734375 L 6.21875 1.671875 L 6.21875 1.6875 C 5.8125 1.875 4.984375 2.3125 4.875 2.359375 L 0.046875 4.859375 L 0.0625 6.09375 L 6.984375 6.03125 L 6.96875 5.25 L 0.75 5.3125 L 0.75 5.296875 C 1.15625 5.09375 2.015625 4.671875 2.125 4.625 Z M 6.9375 2.125 "/>
</symbol>
<symbol overflow="visible" id="glyph1-3">
<path style="stroke:none;" d="M 6.984375 6.4375 L 6.984375 5.65625 L 3.5625 4.359375 C 3.140625 4.203125 1.203125 3.46875 0.75 3.40625 L 0.75 3.390625 C 1.140625 3.296875 2.25 2.859375 2.484375 2.765625 L 6.9375 1 L 6.921875 0.078125 L 0.03125 2.859375 L 0.03125 3.78125 Z M 6.984375 6.4375 "/>
</symbol>
<symbol overflow="visible" id="glyph1-4">
<path style="stroke:none;" d="M 6.9375 1.765625 L 6.9375 0.875 L 0.015625 0.9375 L 0.015625 1.828125 Z M 6.9375 1.765625 "/>
</symbol>
<symbol overflow="visible" id="glyph1-5">
<path style="stroke:none;" d="M 3.296875 4.140625 C 3.59375 5.171875 4.3125 5.828125 5.125 5.828125 C 6.109375 5.8125 6.96875 4.71875 6.953125 3.296875 L 6.9375 0.890625 L 0.015625 0.953125 L 0.015625 1.8125 L 3.171875 1.78125 L 3.1875 3.359375 L 0.046875 5.265625 L 0.0625 6.15625 Z M 3.78125 1.78125 L 6.375 1.75 L 6.390625 3.1875 C 6.40625 4.34375 5.8125 5 5.109375 5.015625 C 4.40625 5.015625 3.8125 4.390625 3.796875 3.21875 Z M 3.78125 1.78125 "/>
</symbol>
<symbol overflow="visible" id="glyph1-6">
<path style="stroke:none;" d="M 3.5 6.734375 C 5.59375 6.703125 7.1875 5.25 7.171875 3.59375 C 7.15625 1.890625 5.515625 0.5 3.4375 0.53125 C 1.328125 0.546875 -0.203125 2.03125 -0.1875 3.65625 C -0.171875 5.328125 1.40625 6.75 3.5 6.734375 Z M 0.453125 3.671875 C 0.453125 2.5 1.6875 1.4375 3.609375 1.421875 C 5.421875 1.40625 6.53125 2.484375 6.53125 3.59375 C 6.546875 4.75 5.4375 5.828125 3.65625 5.84375 C 1.703125 5.859375 0.46875 4.8125 0.453125 3.671875 Z M 0.453125 3.671875 "/>
</symbol>
<symbol overflow="visible" id="glyph1-7">
<path style="stroke:none;" d="M 3.578125 5.25 C 2.671875 4.90625 1.4375 4.453125 0.96875 4.34375 L 0.96875 4.328125 C 1.1875 4.28125 1.546875 4.15625 1.96875 4.015625 L 6.078125 2.40625 L 6.9375 2.0625 L 6.9375 0.9375 L 0.015625 1 L 0.015625 1.78125 L 6.203125 1.71875 C 5.875 1.78125 4.796875 2.203125 4.125 2.453125 L 0.265625 3.984375 L 0.265625 4.703125 L 3.75 6 C 4.5625 6.296875 4.8125 6.390625 5.015625 6.46875 C 5.3125 6.5625 6.03125 6.8125 6.25 6.859375 L 6.25 6.875 L 0.0625 6.9375 L 0.078125 7.71875 L 7 7.65625 L 6.984375 6.515625 Z M 3.578125 5.25 "/>
</symbol>
<symbol overflow="visible" id="glyph1-8">
<path style="stroke:none;" d="M 6.25 3.78125 L 6.265625 4.65625 C 6.265625 4.78125 6.25 4.90625 6.25 5.015625 L 6.265625 6.359375 L 6.921875 6.359375 L 6.859375 0.296875 L 6.203125 0.296875 L 6.21875 1.625 C 6.21875 1.75 6.234375 1.875 6.234375 1.984375 L 6.25 2.890625 L 0.03125 2.953125 L 0.03125 3.84375 Z M 6.25 3.78125 "/>
</symbol>
<symbol overflow="visible" id="glyph2-0">
<path style="stroke:none;" d=""/>
</symbol>
<symbol overflow="visible" id="glyph2-1">
<path style="stroke:none;" d="M 3.765625 -6.921875 L 2.875 -6.921875 L 0.28125 0 L 1.015625 0 L 1.78125 -2.03125 L 4.6875 -2.03125 L 5.4375 0 L 6.359375 0 Z M 4.46875 -2.59375 L 2 -2.59375 L 2.640625 -4.390625 C 2.84375 -4.984375 3.15625 -5.828125 3.234375 -6.203125 C 3.265625 -6.0625 3.328125 -5.8125 3.5625 -5.15625 Z M 4.46875 -2.59375 "/>
</symbol>
<symbol overflow="visible" id="glyph2-2">
<path style="stroke:none;" d="M 4.09375 -4.171875 C 3.5 -4.5 3.15625 -4.59375 2.546875 -4.59375 C 1.171875 -4.59375 0.359375 -3.390625 0.359375 -2.21875 C 0.359375 -0.984375 1.265625 0.109375 2.515625 0.109375 C 3.046875 0.109375 3.59375 -0.03125 4.140625 -0.40625 L 4.078125 -1.0625 C 3.5625 -0.671875 3.03125 -0.53125 2.515625 -0.53125 C 1.6875 -0.53125 1.140625 -1.25 1.140625 -2.21875 C 1.140625 -3 1.5 -3.953125 2.5625 -3.953125 C 3.078125 -3.953125 3.421875 -3.875 3.96875 -3.515625 Z M 4.09375 -4.171875 "/>
</symbol>
<symbol overflow="visible" id="glyph2-3">
<path style="stroke:none;" d="M 1.75 -3.84375 L 3.15625 -3.84375 L 3.15625 -4.421875 L 1.75 -4.421875 L 1.75 -5.6875 L 1.0625 -5.6875 L 1.0625 -4.421875 L 0.1875 -4.421875 L 0.1875 -3.84375 L 1.03125 -3.84375 L 1.03125 -1.1875 C 1.03125 -0.59375 1.171875 0.109375 1.859375 0.109375 C 2.546875 0.109375 3.0625 -0.140625 3.3125 -0.265625 L 3.15625 -0.859375 C 2.890625 -0.640625 2.578125 -0.53125 2.25 -0.53125 C 1.890625 -0.53125 1.75 -0.828125 1.75 -1.359375 Z M 1.75 -3.84375 "/>
</symbol>
<symbol overflow="visible" id="glyph2-4">
<path style="stroke:none;" d="M 4.34375 -4.421875 L 3.5625 -4.421875 L 3.5625 -1.53125 C 3.5625 -0.78125 3 -0.4375 2.359375 -0.4375 C 1.65625 -0.4375 1.578125 -0.703125 1.578125 -1.125 L 1.578125 -4.421875 L 0.8125 -4.421875 L 0.8125 -1.09375 C 0.8125 -0.375 1.03125 0.109375 1.859375 0.109375 C 2.390625 0.109375 3.09375 -0.046875 3.59375 -0.484375 L 3.59375 0 L 4.34375 0 Z M 4.34375 -4.421875 "/>
</symbol>
<symbol overflow="visible" id="glyph2-5">
<path style="stroke:none;" d="M 3.984375 -2.875 C 3.984375 -3.890625 3.25 -4.59375 2.328125 -4.59375 C 1.6875 -4.59375 1.234375 -4.4375 0.765625 -4.171875 L 0.828125 -3.515625 C 1.34375 -3.875 1.84375 -4 2.328125 -4 C 2.796875 -4 3.203125 -3.609375 3.203125 -2.875 L 3.203125 -2.4375 C 1.703125 -2.421875 0.4375 -2 0.4375 -1.125 C 0.4375 -0.703125 0.703125 0.109375 1.578125 0.109375 C 1.71875 0.109375 2.65625 0.09375 3.234375 -0.359375 L 3.234375 0 L 3.984375 0 Z M 3.203125 -1.3125 C 3.203125 -1.125 3.203125 -0.875 2.859375 -0.6875 C 2.578125 -0.515625 2.1875 -0.5 2.078125 -0.5 C 1.609375 -0.5 1.15625 -0.734375 1.15625 -1.140625 C 1.15625 -1.84375 2.765625 -1.90625 3.203125 -1.9375 Z M 3.203125 -1.3125 "/>
</symbol>
<symbol overflow="visible" id="glyph2-6">
<path style="stroke:none;" d="M 4.671875 -2.1875 C 4.671875 -3.53125 3.671875 -4.59375 2.5 -4.59375 C 1.265625 -4.59375 0.296875 -3.5 0.296875 -2.1875 C 0.296875 -0.875 1.3125 0.109375 2.484375 0.109375 C 3.671875 0.109375 4.671875 -0.890625 4.671875 -2.1875 Z M 2.484375 -0.53125 C 1.796875 -0.53125 1.078125 -1.09375 1.078125 -2.296875 C 1.078125 -3.5 1.828125 -3.984375 2.484375 -3.984375 C 3.1875 -3.984375 3.890625 -3.46875 3.890625 -2.296875 C 3.890625 -1.109375 3.21875 -0.53125 2.484375 -0.53125 Z M 2.484375 -0.53125 "/>
</symbol>
<symbol overflow="visible" id="glyph2-7">
<path style="stroke:none;" d="M 1.5625 -2.140625 C 1.5625 -3.125 2.28125 -3.84375 3.265625 -3.875 L 3.265625 -4.53125 C 2.375 -4.53125 1.828125 -4.03125 1.515625 -3.578125 L 1.515625 -4.484375 L 0.8125 -4.484375 L 0.8125 0 L 1.5625 0 Z M 1.5625 -2.140625 "/>
</symbol>
<symbol overflow="visible" id="glyph2-8">
<path style="stroke:none;" d="M 3.421875 -4.28125 C 2.90625 -4.515625 2.5 -4.59375 1.984375 -4.59375 C 1.734375 -4.59375 0.328125 -4.59375 0.328125 -3.296875 C 0.328125 -2.796875 0.625 -2.484375 0.875 -2.296875 C 1.171875 -2.078125 1.390625 -2.03125 1.9375 -1.921875 C 2.296875 -1.859375 2.875 -1.734375 2.875 -1.203125 C 2.875 -0.515625 2.09375 -0.515625 1.9375 -0.515625 C 1.140625 -0.515625 0.578125 -0.890625 0.40625 -1 L 0.28125 -0.328125 C 0.59375 -0.171875 1.140625 0.109375 1.953125 0.109375 C 2.140625 0.109375 2.6875 0.109375 3.109375 -0.203125 C 3.421875 -0.453125 3.59375 -0.84375 3.59375 -1.28125 C 3.59375 -1.828125 3.21875 -2.15625 3.203125 -2.1875 C 2.8125 -2.546875 2.546875 -2.609375 2.046875 -2.6875 C 1.5 -2.796875 1.03125 -2.90625 1.03125 -3.390625 C 1.03125 -4 1.75 -4 1.890625 -4 C 2.203125 -4 2.734375 -3.96875 3.296875 -3.625 Z M 3.421875 -4.28125 "/>
</symbol>
<symbol overflow="visible" id="glyph3-0">
<path style="stroke:none;" d=""/>
</symbol>
<symbol overflow="visible" id="glyph3-1">
<path style="stroke:none;" d="M 9.265625 -6.921875 L 8.546875 -6.921875 L 7.640625 -3.78125 C 7.375 -2.90625 6.890625 -1.21875 6.84375 -0.71875 C 6.84375 -0.734375 6.78125 -1.25 6.125 -3.515625 L 5.140625 -6.921875 L 4.34375 -6.921875 L 3.4375 -3.8125 C 3.21875 -3.046875 2.71875 -1.296875 2.671875 -0.734375 L 2.65625 -0.734375 C 2.625 -1.140625 2.359375 -2.109375 2.265625 -2.4375 L 1.796875 -4.109375 L 1 -6.921875 L 0.140625 -6.921875 L 2.15625 0 L 2.96875 0 L 3.96875 -3.453125 C 4.171875 -4.1875 4.609375 -5.671875 4.671875 -6.1875 C 4.71875 -5.890625 4.953125 -4.9375 5.21875 -4 L 6.375 0 L 7.234375 0 Z M 9.265625 -6.921875 "/>
</symbol>
<symbol overflow="visible" id="glyph3-2">
<path style="stroke:none;" d="M 4.34375 -2.96875 C 4.34375 -3.625 4.1875 -4.53125 2.96875 -4.53125 C 2.359375 -4.53125 1.875 -4.234375 1.5625 -3.8125 L 1.5625 -6.921875 L 0.8125 -6.921875 L 0.8125 0 L 1.578125 0 L 1.578125 -2.4375 C 1.578125 -3.09375 1.828125 -3.921875 2.59375 -3.921875 C 3.546875 -3.921875 3.5625 -3.21875 3.5625 -2.90625 L 3.5625 0 L 4.34375 0 Z M 4.34375 -2.96875 "/>
</symbol>
<symbol overflow="visible" id="glyph3-3">
<path style="stroke:none;" d="M 3.984375 -2.875 C 3.984375 -3.890625 3.25 -4.59375 2.328125 -4.59375 C 1.6875 -4.59375 1.234375 -4.4375 0.765625 -4.171875 L 0.828125 -3.515625 C 1.34375 -3.875 1.84375 -4 2.328125 -4 C 2.796875 -4 3.203125 -3.609375 3.203125 -2.875 L 3.203125 -2.4375 C 1.703125 -2.421875 0.4375 -2 0.4375 -1.125 C 0.4375 -0.703125 0.703125 0.109375 1.578125 0.109375 C 1.71875 0.109375 2.65625 0.09375 3.234375 -0.359375 L 3.234375 0 L 3.984375 0 Z M 3.203125 -1.3125 C 3.203125 -1.125 3.203125 -0.875 2.859375 -0.6875 C 2.578125 -0.515625 2.1875 -0.5 2.078125 -0.5 C 1.609375 -0.5 1.15625 -0.734375 1.15625 -1.140625 C 1.15625 -1.84375 2.765625 -1.90625 3.203125 -1.9375 Z M 3.203125 -1.3125 "/>
</symbol>
<symbol overflow="visible" id="glyph3-4">
<path style="stroke:none;" d="M 1.75 -3.84375 L 3.15625 -3.84375 L 3.15625 -4.421875 L 1.75 -4.421875 L 1.75 -5.6875 L 1.0625 -5.6875 L 1.0625 -4.421875 L 0.1875 -4.421875 L 0.1875 -3.84375 L 1.03125 -3.84375 L 1.03125 -1.1875 C 1.03125 -0.59375 1.171875 0.109375 1.859375 0.109375 C 2.546875 0.109375 3.0625 -0.140625 3.3125 -0.265625 L 3.15625 -0.859375 C 2.890625 -0.640625 2.578125 -0.53125 2.25 -0.53125 C 1.890625 -0.53125 1.75 -0.828125 1.75 -1.359375 Z M 1.75 -3.84375 "/>
</symbol>
<symbol overflow="visible" id="glyph3-5">
<path style="stroke:none;" d="M 4.09375 -4.171875 C 3.5 -4.5 3.15625 -4.59375 2.546875 -4.59375 C 1.171875 -4.59375 0.359375 -3.390625 0.359375 -2.21875 C 0.359375 -0.984375 1.265625 0.109375 2.515625 0.109375 C 3.046875 0.109375 3.59375 -0.03125 4.140625 -0.40625 L 4.078125 -1.0625 C 3.5625 -0.671875 3.03125 -0.53125 2.515625 -0.53125 C 1.6875 -0.53125 1.140625 -1.25 1.140625 -2.21875 C 1.140625 -3 1.5 -3.953125 2.5625 -3.953125 C 3.078125 -3.953125 3.421875 -3.875 3.96875 -3.515625 Z M 4.09375 -4.171875 "/>
</symbol>
<symbol overflow="visible" id="glyph3-6">
<path style="stroke:none;" d="M 1.625 -6.78125 L 0.734375 -6.78125 L 0.734375 -5.890625 L 1.625 -5.890625 Z M 1.5625 -4.421875 L 0.8125 -4.421875 L 0.8125 0 L 1.5625 0 Z M 1.5625 -4.421875 "/>
</symbol>
<symbol overflow="visible" id="glyph3-7">
<path style="stroke:none;" d="M 4.671875 -2.1875 C 4.671875 -3.53125 3.671875 -4.59375 2.5 -4.59375 C 1.265625 -4.59375 0.296875 -3.5 0.296875 -2.1875 C 0.296875 -0.875 1.3125 0.109375 2.484375 0.109375 C 3.671875 0.109375 4.671875 -0.890625 4.671875 -2.1875 Z M 2.484375 -0.53125 C 1.796875 -0.53125 1.078125 -1.09375 1.078125 -2.296875 C 1.078125 -3.5 1.828125 -3.984375 2.484375 -3.984375 C 3.1875 -3.984375 3.890625 -3.46875 3.890625 -2.296875 C 3.890625 -1.109375 3.21875 -0.53125 2.484375 -0.53125 Z M 2.484375 -0.53125 "/>
</symbol>
<symbol overflow="visible" id="glyph3-8">
<path style="stroke:none;" d="M 4.34375 -2.96875 C 4.34375 -3.625 4.1875 -4.53125 2.96875 -4.53125 C 2.078125 -4.53125 1.578125 -3.859375 1.53125 -3.78125 L 1.53125 -4.484375 L 0.8125 -4.484375 L 0.8125 0 L 1.578125 0 L 1.578125 -2.4375 C 1.578125 -3.09375 1.828125 -3.921875 2.59375 -3.921875 C 3.546875 -3.921875 3.5625 -3.21875 3.5625 -2.90625 L 3.5625 0 L 4.34375 0 Z M 4.34375 -2.96875 "/>
</symbol>
<symbol overflow="visible" id="glyph3-9">
<path style="stroke:none;" d="M 4.328125 -6.921875 L 3.578125 -6.921875 L 3.578125 -3.984375 C 3.046875 -4.421875 2.5 -4.53125 2.125 -4.53125 C 1.140625 -4.53125 0.359375 -3.5 0.359375 -2.21875 C 0.359375 -0.90625 1.125 0.109375 2.078125 0.109375 C 2.40625 0.109375 2.984375 0.015625 3.546875 -0.515625 L 3.546875 0 L 4.328125 0 Z M 3.546875 -1.390625 C 3.546875 -1.25 3.53125 -1.0625 3.21875 -0.78125 C 2.984375 -0.578125 2.734375 -0.5 2.484375 -0.5 C 1.859375 -0.5 1.140625 -0.96875 1.140625 -2.203125 C 1.140625 -3.515625 2 -3.921875 2.578125 -3.921875 C 3.03125 -3.921875 3.328125 -3.703125 3.546875 -3.375 Z M 3.546875 -1.390625 "/>
</symbol>
<symbol overflow="visible" id="glyph3-10">
<path style="stroke:none;" d="M 1.828125 -6.921875 L 0.9375 -6.921875 L 0.9375 0 L 1.828125 0 Z M 1.828125 -6.921875 "/>
</symbol>
<symbol overflow="visible" id="glyph4-0">
<path style="stroke:none;" d=""/>
</symbol>
<symbol overflow="visible" id="glyph4-1">
<path style="stroke:none;" d="M 4.328125 -6.921875 L 3.578125 -6.921875 L 3.578125 -3.984375 C 3.046875 -4.421875 2.5 -4.53125 2.125 -4.53125 C 1.140625 -4.53125 0.359375 -3.5 0.359375 -2.21875 C 0.359375 -0.90625 1.125 0.109375 2.078125 0.109375 C 2.40625 0.109375 2.984375 0.015625 3.546875 -0.515625 L 3.546875 0 L 4.328125 0 Z M 3.546875 -1.390625 C 3.546875 -1.25 3.53125 -1.0625 3.21875 -0.78125 C 2.984375 -0.578125 2.734375 -0.5 2.484375 -0.5 C 1.859375 -0.5 1.140625 -0.96875 1.140625 -2.203125 C 1.140625 -3.515625 2 -3.921875 2.578125 -3.921875 C 3.03125 -3.921875 3.328125 -3.703125 3.546875 -3.375 Z M 3.546875 -1.390625 "/>
</symbol>
<symbol overflow="visible" id="glyph4-2">
<path style="stroke:none;" d="M 4.671875 -2.1875 C 4.671875 -3.53125 3.671875 -4.59375 2.5 -4.59375 C 1.265625 -4.59375 0.296875 -3.5 0.296875 -2.1875 C 0.296875 -0.875 1.3125 0.109375 2.484375 0.109375 C 3.671875 0.109375 4.671875 -0.890625 4.671875 -2.1875 Z M 2.484375 -0.53125 C 1.796875 -0.53125 1.078125 -1.09375 1.078125 -2.296875 C 1.078125 -3.5 1.828125 -3.984375 2.484375 -3.984375 C 3.1875 -3.984375 3.890625 -3.46875 3.890625 -2.296875 C 3.890625 -1.109375 3.21875 -0.53125 2.484375 -0.53125 Z M 2.484375 -0.53125 "/>
</symbol>
<symbol overflow="visible" id="glyph4-3">
<path style="stroke:none;" d="M 4.34375 -2.96875 C 4.34375 -3.625 4.1875 -4.53125 2.96875 -4.53125 C 2.078125 -4.53125 1.578125 -3.859375 1.53125 -3.78125 L 1.53125 -4.484375 L 0.8125 -4.484375 L 0.8125 0 L 1.578125 0 L 1.578125 -2.4375 C 1.578125 -3.09375 1.828125 -3.921875 2.59375 -3.921875 C 3.546875 -3.921875 3.5625 -3.21875 3.5625 -2.90625 L 3.5625 0 L 4.34375 0 Z M 4.34375 -2.96875 "/>
</symbol>
<symbol overflow="visible" id="glyph4-4">
<path style="stroke:none;" d="M 6.65625 -4.421875 L 5.9375 -4.421875 L 5.296875 -2.3125 C 5.1875 -1.953125 4.890625 -0.96875 4.828125 -0.53125 C 4.78125 -0.84375 4.53125 -1.734375 4.359375 -2.296875 L 3.71875 -4.421875 L 3.015625 -4.421875 L 2.453125 -2.546875 C 2.34375 -2.203125 2 -1.0625 1.96875 -0.546875 L 1.953125 -0.546875 C 1.90625 -1.03125 1.578125 -2.15625 1.421875 -2.703125 L 0.890625 -4.421875 L 0.140625 -4.421875 L 1.5 0 L 2.296875 0 C 2.34375 -0.15625 2.6875 -1.28125 2.90625 -2.046875 C 3.046875 -2.515625 3.328125 -3.5 3.359375 -3.875 L 3.375 -3.875 C 3.390625 -3.59375 3.5625 -2.90625 3.6875 -2.46875 L 4.421875 0 L 5.296875 0 Z M 6.65625 -4.421875 "/>
</symbol>
<symbol overflow="visible" id="glyph5-0">
<path style="stroke:none;" d=""/>
</symbol>
<symbol overflow="visible" id="glyph5-1">
<path style="stroke:none;" d="M 9.265625 -6.921875 L 8.546875 -6.921875 L 7.640625 -3.78125 C 7.375 -2.90625 6.890625 -1.21875 6.84375 -0.71875 C 6.84375 -0.734375 6.78125 -1.25 6.125 -3.515625 L 5.140625 -6.921875 L 4.34375 -6.921875 L 3.4375 -3.8125 C 3.21875 -3.046875 2.71875 -1.296875 2.671875 -0.734375 L 2.65625 -0.734375 C 2.625 -1.140625 2.359375 -2.109375 2.265625 -2.4375 L 1.796875 -4.109375 L 1 -6.921875 L 0.140625 -6.921875 L 2.15625 0 L 2.96875 0 L 3.96875 -3.453125 C 4.171875 -4.1875 4.609375 -5.671875 4.671875 -6.1875 C 4.71875 -5.890625 4.953125 -4.9375 5.21875 -4 L 6.375 0 L 7.234375 0 Z M 9.265625 -6.921875 "/>
</symbol>
<symbol overflow="visible" id="glyph5-2">
<path style="stroke:none;" d="M 4.34375 -2.96875 C 4.34375 -3.625 4.1875 -4.53125 2.96875 -4.53125 C 2.359375 -4.53125 1.875 -4.234375 1.5625 -3.8125 L 1.5625 -6.921875 L 0.8125 -6.921875 L 0.8125 0 L 1.578125 0 L 1.578125 -2.4375 C 1.578125 -3.09375 1.828125 -3.921875 2.59375 -3.921875 C 3.546875 -3.921875 3.5625 -3.21875 3.5625 -2.90625 L 3.5625 0 L 4.34375 0 Z M 4.34375 -2.96875 "/>
</symbol>
<symbol overflow="visible" id="glyph5-3">
<path style="stroke:none;" d="M 3.984375 -2.875 C 3.984375 -3.890625 3.25 -4.59375 2.328125 -4.59375 C 1.6875 -4.59375 1.234375 -4.4375 0.765625 -4.171875 L 0.828125 -3.515625 C 1.34375 -3.875 1.84375 -4 2.328125 -4 C 2.796875 -4 3.203125 -3.609375 3.203125 -2.875 L 3.203125 -2.4375 C 1.703125 -2.421875 0.4375 -2 0.4375 -1.125 C 0.4375 -0.703125 0.703125 0.109375 1.578125 0.109375 C 1.71875 0.109375 2.65625 0.09375 3.234375 -0.359375 L 3.234375 0 L 3.984375 0 Z M 3.203125 -1.3125 C 3.203125 -1.125 3.203125 -0.875 2.859375 -0.6875 C 2.578125 -0.515625 2.1875 -0.5 2.078125 -0.5 C 1.609375 -0.5 1.15625 -0.734375 1.15625 -1.140625 C 1.15625 -1.84375 2.765625 -1.90625 3.203125 -1.9375 Z M 3.203125 -1.3125 "/>
</symbol>
<symbol overflow="visible" id="glyph5-4">
<path style="stroke:none;" d="M 1.75 -3.84375 L 3.15625 -3.84375 L 3.15625 -4.421875 L 1.75 -4.421875 L 1.75 -5.6875 L 1.0625 -5.6875 L 1.0625 -4.421875 L 0.1875 -4.421875 L 0.1875 -3.84375 L 1.03125 -3.84375 L 1.03125 -1.1875 C 1.03125 -0.59375 1.171875 0.109375 1.859375 0.109375 C 2.546875 0.109375 3.0625 -0.140625 3.3125 -0.265625 L 3.15625 -0.859375 C 2.890625 -0.640625 2.578125 -0.53125 2.25 -0.53125 C 1.890625 -0.53125 1.75 -0.828125 1.75 -1.359375 Z M 1.75 -3.84375 "/>
</symbol>
<symbol overflow="visible" id="glyph5-5">
<path style="stroke:none;" d="M 4.125 -2.1875 C 4.125 -2.515625 4.109375 -3.265625 3.734375 -3.875 C 3.3125 -4.484375 2.71875 -4.59375 2.359375 -4.59375 C 1.25 -4.59375 0.34375 -3.53125 0.34375 -2.25 C 0.34375 -0.9375 1.3125 0.109375 2.5 0.109375 C 3.125 0.109375 3.703125 -0.125 4.09375 -0.40625 L 4.03125 -1.0625 C 3.40625 -0.53125 2.734375 -0.5 2.515625 -0.5 C 1.71875 -0.5 1.078125 -1.203125 1.046875 -2.1875 Z M 1.09375 -2.734375 C 1.25 -3.484375 1.78125 -3.984375 2.359375 -3.984375 C 2.875 -3.984375 3.421875 -3.65625 3.5625 -2.734375 Z M 1.09375 -2.734375 "/>
</symbol>
<symbol overflow="visible" id="glyph5-6">
<path style="stroke:none;" d="M 6.65625 -4.421875 L 5.9375 -4.421875 L 5.296875 -2.3125 C 5.1875 -1.953125 4.890625 -0.96875 4.828125 -0.53125 C 4.78125 -0.84375 4.53125 -1.734375 4.359375 -2.296875 L 3.71875 -4.421875 L 3.015625 -4.421875 L 2.453125 -2.546875 C 2.34375 -2.203125 2 -1.0625 1.96875 -0.546875 L 1.953125 -0.546875 C 1.90625 -1.03125 1.578125 -2.15625 1.421875 -2.703125 L 0.890625 -4.421875 L 0.140625 -4.421875 L 1.5 0 L 2.296875 0 C 2.34375 -0.15625 2.6875 -1.28125 2.90625 -2.046875 C 3.046875 -2.515625 3.328125 -3.5 3.359375 -3.875 L 3.375 -3.875 C 3.390625 -3.59375 3.5625 -2.90625 3.6875 -2.46875 L 4.421875 0 L 5.296875 0 Z M 6.65625 -4.421875 "/>
</symbol>
<symbol overflow="visible" id="glyph5-7">
<path style="stroke:none;" d="M 4.671875 -2.1875 C 4.671875 -3.53125 3.671875 -4.59375 2.5 -4.59375 C 1.265625 -4.59375 0.296875 -3.5 0.296875 -2.1875 C 0.296875 -0.875 1.3125 0.109375 2.484375 0.109375 C 3.671875 0.109375 4.671875 -0.890625 4.671875 -2.1875 Z M 2.484375 -0.53125 C 1.796875 -0.53125 1.078125 -1.09375 1.078125 -2.296875 C 1.078125 -3.5 1.828125 -3.984375 2.484375 -3.984375 C 3.1875 -3.984375 3.890625 -3.46875 3.890625 -2.296875 C 3.890625 -1.109375 3.21875 -0.53125 2.484375 -0.53125 Z M 2.484375 -0.53125 "/>
</symbol>
<symbol overflow="visible" id="glyph5-8">
<path style="stroke:none;" d="M 1.5625 -2.140625 C 1.5625 -3.125 2.28125 -3.84375 3.265625 -3.875 L 3.265625 -4.53125 C 2.375 -4.53125 1.828125 -4.03125 1.515625 -3.578125 L 1.515625 -4.484375 L 0.8125 -4.484375 L 0.8125 0 L 1.5625 0 Z M 1.5625 -2.140625 "/>
</symbol>
<symbol overflow="visible" id="glyph5-9">
<path style="stroke:none;" d="M 1.5625 -6.921875 L 0.8125 -6.921875 L 0.8125 0 L 1.5625 0 Z M 1.5625 -6.921875 "/>
</symbol>
<symbol overflow="visible" id="glyph5-10">
<path style="stroke:none;" d="M 4.328125 -6.921875 L 3.578125 -6.921875 L 3.578125 -3.984375 C 3.046875 -4.421875 2.5 -4.53125 2.125 -4.53125 C 1.140625 -4.53125 0.359375 -3.5 0.359375 -2.21875 C 0.359375 -0.90625 1.125 0.109375 2.078125 0.109375 C 2.40625 0.109375 2.984375 0.015625 3.546875 -0.515625 L 3.546875 0 L 4.328125 0 Z M 3.546875 -1.390625 C 3.546875 -1.25 3.53125 -1.0625 3.21875 -0.78125 C 2.984375 -0.578125 2.734375 -0.5 2.484375 -0.5 C 1.859375 -0.5 1.140625 -0.96875 1.140625 -2.203125 C 1.140625 -3.515625 2 -3.921875 2.578125 -3.921875 C 3.03125 -3.921875 3.328125 -3.703125 3.546875 -3.375 Z M 3.546875 -1.390625 "/>
</symbol>
<symbol overflow="visible" id="glyph6-0">
<path style="stroke:none;" d=""/>
</symbol>
<symbol overflow="visible" id="glyph6-1">
<path style="stroke:none;" d="M 1.625 -6.78125 L 0.734375 -6.78125 L 0.734375 -5.890625 L 1.625 -5.890625 Z M 1.5625 -4.421875 L 0.8125 -4.421875 L 0.8125 0 L 1.5625 0 Z M 1.5625 -4.421875 "/>
</symbol>
<symbol overflow="visible" id="glyph6-2">
<path style="stroke:none;" d="M 3.421875 -4.28125 C 2.90625 -4.515625 2.5 -4.59375 1.984375 -4.59375 C 1.734375 -4.59375 0.328125 -4.59375 0.328125 -3.296875 C 0.328125 -2.796875 0.625 -2.484375 0.875 -2.296875 C 1.171875 -2.078125 1.390625 -2.03125 1.9375 -1.921875 C 2.296875 -1.859375 2.875 -1.734375 2.875 -1.203125 C 2.875 -0.515625 2.09375 -0.515625 1.9375 -0.515625 C 1.140625 -0.515625 0.578125 -0.890625 0.40625 -1 L 0.28125 -0.328125 C 0.59375 -0.171875 1.140625 0.109375 1.953125 0.109375 C 2.140625 0.109375 2.6875 0.109375 3.109375 -0.203125 C 3.421875 -0.453125 3.59375 -0.84375 3.59375 -1.28125 C 3.59375 -1.828125 3.21875 -2.15625 3.203125 -2.1875 C 2.8125 -2.546875 2.546875 -2.609375 2.046875 -2.6875 C 1.5 -2.796875 1.03125 -2.90625 1.03125 -3.390625 C 1.03125 -4 1.75 -4 1.890625 -4 C 2.203125 -4 2.734375 -3.96875 3.296875 -3.625 Z M 3.421875 -4.28125 "/>
</symbol>
<symbol overflow="visible" id="glyph6-3">
<path style="stroke:none;" d="M 1.5625 -6.921875 L 0.8125 -6.921875 L 0.8125 0 L 1.5625 0 Z M 1.5625 -6.921875 "/>
</symbol>
<symbol overflow="visible" id="glyph6-4">
<path style="stroke:none;" d="M 2.796875 -2.71875 L 4.46875 -4.421875 L 3.578125 -4.421875 L 1.5625 -2.359375 L 1.5625 -6.921875 L 0.84375 -6.921875 L 0.84375 0 L 1.53125 0 L 1.53125 -1.40625 L 2.328125 -2.234375 L 3.875 0 L 4.6875 0 Z M 2.796875 -2.71875 "/>
</symbol>
<symbol overflow="visible" id="glyph6-5">
<path style="stroke:none;" d="M 4.125 -2.1875 C 4.125 -2.515625 4.109375 -3.265625 3.734375 -3.875 C 3.3125 -4.484375 2.71875 -4.59375 2.359375 -4.59375 C 1.25 -4.59375 0.34375 -3.53125 0.34375 -2.25 C 0.34375 -0.9375 1.3125 0.109375 2.5 0.109375 C 3.125 0.109375 3.703125 -0.125 4.09375 -0.40625 L 4.03125 -1.0625 C 3.40625 -0.53125 2.734375 -0.5 2.515625 -0.5 C 1.71875 -0.5 1.078125 -1.203125 1.046875 -2.1875 Z M 1.09375 -2.734375 C 1.25 -3.484375 1.78125 -3.984375 2.359375 -3.984375 C 2.875 -3.984375 3.421875 -3.65625 3.5625 -2.734375 Z M 1.09375 -2.734375 "/>
</symbol>
<symbol overflow="visible" id="glyph6-6">
<path style="stroke:none;" d="M 4.34375 -2.96875 C 4.34375 -3.625 4.1875 -4.53125 2.96875 -4.53125 C 2.078125 -4.53125 1.578125 -3.859375 1.53125 -3.78125 L 1.53125 -4.484375 L 0.8125 -4.484375 L 0.8125 0 L 1.578125 0 L 1.578125 -2.4375 C 1.578125 -3.09375 1.828125 -3.921875 2.59375 -3.921875 C 3.546875 -3.921875 3.5625 -3.21875 3.5625 -2.90625 L 3.5625 0 L 4.34375 0 Z M 4.34375 -2.96875 "/>
</symbol>
<symbol overflow="visible" id="glyph6-7">
<path style="stroke:none;" d="M 4.671875 -2.1875 C 4.671875 -3.53125 3.671875 -4.59375 2.5 -4.59375 C 1.265625 -4.59375 0.296875 -3.5 0.296875 -2.1875 C 0.296875 -0.875 1.3125 0.109375 2.484375 0.109375 C 3.671875 0.109375 4.671875 -0.890625 4.671875 -2.1875 Z M 2.484375 -0.53125 C 1.796875 -0.53125 1.078125 -1.09375 1.078125 -2.296875 C 1.078125 -3.5 1.828125 -3.984375 2.484375 -3.984375 C 3.1875 -3.984375 3.890625 -3.46875 3.890625 -2.296875 C 3.890625 -1.109375 3.21875 -0.53125 2.484375 -0.53125 Z M 2.484375 -0.53125 "/>
</symbol>
<symbol overflow="visible" id="glyph6-8">
<path style="stroke:none;" d="M 6.65625 -4.421875 L 5.9375 -4.421875 L 5.296875 -2.3125 C 5.1875 -1.953125 4.890625 -0.96875 4.828125 -0.53125 C 4.78125 -0.84375 4.53125 -1.734375 4.359375 -2.296875 L 3.71875 -4.421875 L 3.015625 -4.421875 L 2.453125 -2.546875 C 2.34375 -2.203125 2 -1.0625 1.96875 -0.546875 L 1.953125 -0.546875 C 1.90625 -1.03125 1.578125 -2.15625 1.421875 -2.703125 L 0.890625 -4.421875 L 0.140625 -4.421875 L 1.5 0 L 2.296875 0 C 2.34375 -0.15625 2.6875 -1.28125 2.90625 -2.046875 C 3.046875 -2.515625 3.328125 -3.5 3.359375 -3.875 L 3.375 -3.875 C 3.390625 -3.59375 3.5625 -2.90625 3.6875 -2.46875 L 4.421875 0 L 5.296875 0 Z M 6.65625 -4.421875 "/>
</symbol>
<symbol overflow="visible" id="glyph7-0">
<path style="stroke:none;" d=""/>
</symbol>
<symbol overflow="visible" id="glyph7-1">
<path style="stroke:none;" d="M 5.796875 -1.140625 C 5.21875 -0.75 4.875 -0.53125 3.890625 -0.53125 C 2.453125 -0.53125 1.5625 -2.03125 1.5625 -3.46875 C 1.5625 -4.828125 2.375 -6.390625 3.90625 -6.390625 C 4.609375 -6.390625 5.0625 -6.21875 5.609375 -5.875 L 5.75 -6.6875 C 5.328125 -6.890625 4.5625 -7.03125 3.921875 -7.03125 C 2.078125 -7.03125 0.65625 -5.46875 0.65625 -3.375 C 0.65625 -1.796875 1.84375 0.109375 3.921875 0.109375 C 4.828125 0.109375 5.21875 -0.046875 5.859375 -0.453125 Z M 5.796875 -1.140625 "/>
</symbol>
<symbol overflow="visible" id="glyph7-2">
<path style="stroke:none;" d="M 4.671875 -2.1875 C 4.671875 -3.53125 3.671875 -4.59375 2.5 -4.59375 C 1.265625 -4.59375 0.296875 -3.5 0.296875 -2.1875 C 0.296875 -0.875 1.3125 0.109375 2.484375 0.109375 C 3.671875 0.109375 4.671875 -0.890625 4.671875 -2.1875 Z M 2.484375 -0.53125 C 1.796875 -0.53125 1.078125 -1.09375 1.078125 -2.296875 C 1.078125 -3.5 1.828125 -3.984375 2.484375 -3.984375 C 3.1875 -3.984375 3.890625 -3.46875 3.890625 -2.296875 C 3.890625 -1.109375 3.21875 -0.53125 2.484375 -0.53125 Z M 2.484375 -0.53125 "/>
</symbol>
<symbol overflow="visible" id="glyph7-3">
<path style="stroke:none;" d="M 4.34375 -2.96875 C 4.34375 -3.625 4.1875 -4.53125 2.96875 -4.53125 C 2.078125 -4.53125 1.578125 -3.859375 1.53125 -3.78125 L 1.53125 -4.484375 L 0.8125 -4.484375 L 0.8125 0 L 1.578125 0 L 1.578125 -2.4375 C 1.578125 -3.09375 1.828125 -3.921875 2.59375 -3.921875 C 3.546875 -3.921875 3.5625 -3.21875 3.5625 -2.90625 L 3.5625 0 L 4.34375 0 Z M 4.34375 -2.96875 "/>
</symbol>
<symbol overflow="visible" id="glyph7-4">
<path style="stroke:none;" d="M 4.328125 -6.921875 L 3.578125 -6.921875 L 3.578125 -3.984375 C 3.046875 -4.421875 2.5 -4.53125 2.125 -4.53125 C 1.140625 -4.53125 0.359375 -3.5 0.359375 -2.21875 C 0.359375 -0.90625 1.125 0.109375 2.078125 0.109375 C 2.40625 0.109375 2.984375 0.015625 3.546875 -0.515625 L 3.546875 0 L 4.328125 0 Z M 3.546875 -1.390625 C 3.546875 -1.25 3.53125 -1.0625 3.21875 -0.78125 C 2.984375 -0.578125 2.734375 -0.5 2.484375 -0.5 C 1.859375 -0.5 1.140625 -0.96875 1.140625 -2.203125 C 1.140625 -3.515625 2 -3.921875 2.578125 -3.921875 C 3.03125 -3.921875 3.328125 -3.703125 3.546875 -3.375 Z M 3.546875 -1.390625 "/>
</symbol>
<symbol overflow="visible" id="glyph7-5">
<path style="stroke:none;" d="M 1.625 -6.78125 L 0.734375 -6.78125 L 0.734375 -5.890625 L 1.625 -5.890625 Z M 1.5625 -4.421875 L 0.8125 -4.421875 L 0.8125 0 L 1.5625 0 Z M 1.5625 -4.421875 "/>
</symbol>
<symbol overflow="visible" id="glyph7-6">
<path style="stroke:none;" d="M 1.75 -3.84375 L 3.15625 -3.84375 L 3.15625 -4.421875 L 1.75 -4.421875 L 1.75 -5.6875 L 1.0625 -5.6875 L 1.0625 -4.421875 L 0.1875 -4.421875 L 0.1875 -3.84375 L 1.03125 -3.84375 L 1.03125 -1.1875 C 1.03125 -0.59375 1.171875 0.109375 1.859375 0.109375 C 2.546875 0.109375 3.0625 -0.140625 3.3125 -0.265625 L 3.15625 -0.859375 C 2.890625 -0.640625 2.578125 -0.53125 2.25 -0.53125 C 1.890625 -0.53125 1.75 -0.828125 1.75 -1.359375 Z M 1.75 -3.84375 "/>
</symbol>
<symbol overflow="visible" id="glyph7-7">
<path style="stroke:none;" d="M 2.75 -1.921875 L 2.75 -2.5 L 0.109375 -2.5 L 0.109375 -1.921875 Z M 2.75 -1.921875 "/>
</symbol>
<symbol overflow="visible" id="glyph8-0">
<path style="stroke:none;" d=""/>
</symbol>
<symbol overflow="visible" id="glyph8-1">
<path style="stroke:none;" d="M 3.984375 -2.875 C 3.984375 -3.890625 3.25 -4.59375 2.328125 -4.59375 C 1.6875 -4.59375 1.234375 -4.4375 0.765625 -4.171875 L 0.828125 -3.515625 C 1.34375 -3.875 1.84375 -4 2.328125 -4 C 2.796875 -4 3.203125 -3.609375 3.203125 -2.875 L 3.203125 -2.4375 C 1.703125 -2.421875 0.4375 -2 0.4375 -1.125 C 0.4375 -0.703125 0.703125 0.109375 1.578125 0.109375 C 1.71875 0.109375 2.65625 0.09375 3.234375 -0.359375 L 3.234375 0 L 3.984375 0 Z M 3.203125 -1.3125 C 3.203125 -1.125 3.203125 -0.875 2.859375 -0.6875 C 2.578125 -0.515625 2.1875 -0.5 2.078125 -0.5 C 1.609375 -0.5 1.15625 -0.734375 1.15625 -1.140625 C 1.15625 -1.84375 2.765625 -1.90625 3.203125 -1.9375 Z M 3.203125 -1.3125 "/>
</symbol>
<symbol overflow="visible" id="glyph8-2">
<path style="stroke:none;" d="M 4.09375 -4.171875 C 3.5 -4.5 3.15625 -4.59375 2.546875 -4.59375 C 1.171875 -4.59375 0.359375 -3.390625 0.359375 -2.21875 C 0.359375 -0.984375 1.265625 0.109375 2.515625 0.109375 C 3.046875 0.109375 3.59375 -0.03125 4.140625 -0.40625 L 4.078125 -1.0625 C 3.5625 -0.671875 3.03125 -0.53125 2.515625 -0.53125 C 1.6875 -0.53125 1.140625 -1.25 1.140625 -2.21875 C 1.140625 -3 1.5 -3.953125 2.5625 -3.953125 C 3.078125 -3.953125 3.421875 -3.875 3.96875 -3.515625 Z M 4.09375 -4.171875 "/>
</symbol>
<symbol overflow="visible" id="glyph8-3">
<path style="stroke:none;" d="M 1.75 -3.84375 L 3.15625 -3.84375 L 3.15625 -4.421875 L 1.75 -4.421875 L 1.75 -5.6875 L 1.0625 -5.6875 L 1.0625 -4.421875 L 0.1875 -4.421875 L 0.1875 -3.84375 L 1.03125 -3.84375 L 1.03125 -1.1875 C 1.03125 -0.59375 1.171875 0.109375 1.859375 0.109375 C 2.546875 0.109375 3.0625 -0.140625 3.3125 -0.265625 L 3.15625 -0.859375 C 2.890625 -0.640625 2.578125 -0.53125 2.25 -0.53125 C 1.890625 -0.53125 1.75 -0.828125 1.75 -1.359375 Z M 1.75 -3.84375 "/>
</symbol>
<symbol overflow="visible" id="glyph8-4">
<path style="stroke:none;" d="M 1.625 -6.78125 L 0.734375 -6.78125 L 0.734375 -5.890625 L 1.625 -5.890625 Z M 1.5625 -4.421875 L 0.8125 -4.421875 L 0.8125 0 L 1.5625 0 Z M 1.5625 -4.421875 "/>
</symbol>
<symbol overflow="visible" id="glyph8-5">
<path style="stroke:none;" d="M 4.671875 -2.1875 C 4.671875 -3.53125 3.671875 -4.59375 2.5 -4.59375 C 1.265625 -4.59375 0.296875 -3.5 0.296875 -2.1875 C 0.296875 -0.875 1.3125 0.109375 2.484375 0.109375 C 3.671875 0.109375 4.671875 -0.890625 4.671875 -2.1875 Z M 2.484375 -0.53125 C 1.796875 -0.53125 1.078125 -1.09375 1.078125 -2.296875 C 1.078125 -3.5 1.828125 -3.984375 2.484375 -3.984375 C 3.1875 -3.984375 3.890625 -3.46875 3.890625 -2.296875 C 3.890625 -1.109375 3.21875 -0.53125 2.484375 -0.53125 Z M 2.484375 -0.53125 "/>
</symbol>
<symbol overflow="visible" id="glyph8-6">
<path style="stroke:none;" d="M 4.34375 -2.96875 C 4.34375 -3.625 4.1875 -4.53125 2.96875 -4.53125 C 2.078125 -4.53125 1.578125 -3.859375 1.53125 -3.78125 L 1.53125 -4.484375 L 0.8125 -4.484375 L 0.8125 0 L 1.578125 0 L 1.578125 -2.4375 C 1.578125 -3.09375 1.828125 -3.921875 2.59375 -3.921875 C 3.546875 -3.921875 3.5625 -3.21875 3.5625 -2.90625 L 3.5625 0 L 4.34375 0 Z M 4.34375 -2.96875 "/>
</symbol>
<symbol overflow="visible" id="glyph9-0">
<path style="stroke:none;" d=""/>
</symbol>
<symbol overflow="visible" id="glyph9-1">
<path style="stroke:none;" d="M 1.5625 -2.140625 C 1.5625 -3.125 2.28125 -3.84375 3.265625 -3.875 L 3.265625 -4.53125 C 2.375 -4.53125 1.828125 -4.03125 1.515625 -3.578125 L 1.515625 -4.484375 L 0.8125 -4.484375 L 0.8125 0 L 1.5625 0 Z M 1.5625 -2.140625 "/>
</symbol>
<symbol overflow="visible" id="glyph9-2">
<path style="stroke:none;" d="M 4.34375 -4.421875 L 3.5625 -4.421875 L 3.5625 -1.53125 C 3.5625 -0.78125 3 -0.4375 2.359375 -0.4375 C 1.65625 -0.4375 1.578125 -0.703125 1.578125 -1.125 L 1.578125 -4.421875 L 0.8125 -4.421875 L 0.8125 -1.09375 C 0.8125 -0.375 1.03125 0.109375 1.859375 0.109375 C 2.390625 0.109375 3.09375 -0.046875 3.59375 -0.484375 L 3.59375 0 L 4.34375 0 Z M 4.34375 -4.421875 "/>
</symbol>
<symbol overflow="visible" id="glyph9-3">
<path style="stroke:none;" d="M 1.5625 -6.921875 L 0.8125 -6.921875 L 0.8125 0 L 1.5625 0 Z M 1.5625 -6.921875 "/>
</symbol>
<symbol overflow="visible" id="glyph9-4">
<path style="stroke:none;" d="M 4.125 -2.1875 C 4.125 -2.515625 4.109375 -3.265625 3.734375 -3.875 C 3.3125 -4.484375 2.71875 -4.59375 2.359375 -4.59375 C 1.25 -4.59375 0.34375 -3.53125 0.34375 -2.25 C 0.34375 -0.9375 1.3125 0.109375 2.5 0.109375 C 3.125 0.109375 3.703125 -0.125 4.09375 -0.40625 L 4.03125 -1.0625 C 3.40625 -0.53125 2.734375 -0.5 2.515625 -0.5 C 1.71875 -0.5 1.078125 -1.203125 1.046875 -2.1875 Z M 1.09375 -2.734375 C 1.25 -3.484375 1.78125 -3.984375 2.359375 -3.984375 C 2.875 -3.984375 3.421875 -3.65625 3.5625 -2.734375 Z M 1.09375 -2.734375 "/>
</symbol>
<symbol overflow="visible" id="glyph9-5">
<path style="stroke:none;" d="M 3.421875 -4.28125 C 2.90625 -4.515625 2.5 -4.59375 1.984375 -4.59375 C 1.734375 -4.59375 0.328125 -4.59375 0.328125 -3.296875 C 0.328125 -2.796875 0.625 -2.484375 0.875 -2.296875 C 1.171875 -2.078125 1.390625 -2.03125 1.9375 -1.921875 C 2.296875 -1.859375 2.875 -1.734375 2.875 -1.203125 C 2.875 -0.515625 2.09375 -0.515625 1.9375 -0.515625 C 1.140625 -0.515625 0.578125 -0.890625 0.40625 -1 L 0.28125 -0.328125 C 0.59375 -0.171875 1.140625 0.109375 1.953125 0.109375 C 2.140625 0.109375 2.6875 0.109375 3.109375 -0.203125 C 3.421875 -0.453125 3.59375 -0.84375 3.59375 -1.28125 C 3.59375 -1.828125 3.21875 -2.15625 3.203125 -2.1875 C 2.8125 -2.546875 2.546875 -2.609375 2.046875 -2.6875 C 1.5 -2.796875 1.03125 -2.90625 1.03125 -3.390625 C 1.03125 -4 1.75 -4 1.890625 -4 C 2.203125 -4 2.734375 -3.96875 3.296875 -3.625 Z M 3.421875 -4.28125 "/>
</symbol>
<symbol overflow="visible" id="glyph10-0">
<path style="stroke:none;" d=""/>
</symbol>
<symbol overflow="visible" id="glyph10-1">
<path style="stroke:none;" d="M 4.640625 -6.640625 C 4.09375 -6.96875 3.53125 -7.140625 2.8125 -7.140625 C 1.421875 -7.140625 0.5625 -6.15625 0.5625 -5.171875 C 0.5625 -4.75 0.703125 -4.328125 1.09375 -3.90625 C 1.515625 -3.453125 1.953125 -3.34375 2.546875 -3.203125 C 3.390625 -2.984375 3.484375 -2.953125 3.765625 -2.71875 C 3.96875 -2.546875 4.1875 -2.21875 4.1875 -1.78125 C 4.1875 -1.125 3.640625 -0.46875 2.734375 -0.46875 C 2.328125 -0.46875 1.421875 -0.5625 0.59375 -1.28125 L 0.4375 -0.46875 C 1.3125 0.078125 2.109375 0.21875 2.734375 0.21875 C 4.0625 0.21875 4.96875 -0.78125 4.96875 -1.890625 C 4.96875 -2.53125 4.671875 -3.015625 4.453125 -3.25 C 3.984375 -3.75 3.65625 -3.84375 2.734375 -4.0625 C 2.15625 -4.203125 2 -4.25 1.6875 -4.5 C 1.625 -4.5625 1.34375 -4.859375 1.34375 -5.296875 C 1.34375 -5.875 1.890625 -6.484375 2.796875 -6.484375 C 3.640625 -6.484375 4.109375 -6.15625 4.484375 -5.84375 Z M 4.640625 -6.640625 "/>
</symbol>
<symbol overflow="visible" id="glyph10-2">
<path style="stroke:none;" d="M 1.75 -3.84375 L 3.15625 -3.84375 L 3.15625 -4.421875 L 1.75 -4.421875 L 1.75 -5.6875 L 1.0625 -5.6875 L 1.0625 -4.421875 L 0.1875 -4.421875 L 0.1875 -3.84375 L 1.03125 -3.84375 L 1.03125 -1.1875 C 1.03125 -0.59375 1.171875 0.109375 1.859375 0.109375 C 2.546875 0.109375 3.0625 -0.140625 3.3125 -0.265625 L 3.15625 -0.859375 C 2.890625 -0.640625 2.578125 -0.53125 2.25 -0.53125 C 1.890625 -0.53125 1.75 -0.828125 1.75 -1.359375 Z M 1.75 -3.84375 "/>
</symbol>
<symbol overflow="visible" id="glyph10-3">
<path style="stroke:none;" d="M 3.984375 -2.875 C 3.984375 -3.890625 3.25 -4.59375 2.328125 -4.59375 C 1.6875 -4.59375 1.234375 -4.4375 0.765625 -4.171875 L 0.828125 -3.515625 C 1.34375 -3.875 1.84375 -4 2.328125 -4 C 2.796875 -4 3.203125 -3.609375 3.203125 -2.875 L 3.203125 -2.4375 C 1.703125 -2.421875 0.4375 -2 0.4375 -1.125 C 0.4375 -0.703125 0.703125 0.109375 1.578125 0.109375 C 1.71875 0.109375 2.65625 0.09375 3.234375 -0.359375 L 3.234375 0 L 3.984375 0 Z M 3.203125 -1.3125 C 3.203125 -1.125 3.203125 -0.875 2.859375 -0.6875 C 2.578125 -0.515625 2.1875 -0.5 2.078125 -0.5 C 1.609375 -0.5 1.15625 -0.734375 1.15625 -1.140625 C 1.15625 -1.84375 2.765625 -1.90625 3.203125 -1.9375 Z M 3.203125 -1.3125 "/>
</symbol>
<symbol overflow="visible" id="glyph10-4">
<path style="stroke:none;" d="M 4.125 -2.1875 C 4.125 -2.515625 4.109375 -3.265625 3.734375 -3.875 C 3.3125 -4.484375 2.71875 -4.59375 2.359375 -4.59375 C 1.25 -4.59375 0.34375 -3.53125 0.34375 -2.25 C 0.34375 -0.9375 1.3125 0.109375 2.5 0.109375 C 3.125 0.109375 3.703125 -0.125 4.09375 -0.40625 L 4.03125 -1.0625 C 3.40625 -0.53125 2.734375 -0.5 2.515625 -0.5 C 1.71875 -0.5 1.078125 -1.203125 1.046875 -2.1875 Z M 1.09375 -2.734375 C 1.25 -3.484375 1.78125 -3.984375 2.359375 -3.984375 C 2.875 -3.984375 3.421875 -3.65625 3.5625 -2.734375 Z M 1.09375 -2.734375 "/>
</symbol>
<symbol overflow="visible" id="glyph11-0">
<path style="stroke:none;" d=""/>
</symbol>
<symbol overflow="visible" id="glyph11-1">
<path style="stroke:none;" d="M 6.109375 -6.921875 L 5.21875 -6.921875 L 5.21875 -3.890625 L 1.828125 -3.890625 L 1.828125 -6.921875 L 0.9375 -6.921875 L 0.9375 0 L 1.828125 0 L 1.828125 -3.296875 L 5.21875 -3.296875 L 5.21875 0 L 6.109375 0 Z M 6.109375 -6.921875 "/>
</symbol>
<symbol overflow="visible" id="glyph11-2">
<path style="stroke:none;" d="M 4.671875 -2.1875 C 4.671875 -3.53125 3.671875 -4.59375 2.5 -4.59375 C 1.265625 -4.59375 0.296875 -3.5 0.296875 -2.1875 C 0.296875 -0.875 1.3125 0.109375 2.484375 0.109375 C 3.671875 0.109375 4.671875 -0.890625 4.671875 -2.1875 Z M 2.484375 -0.53125 C 1.796875 -0.53125 1.078125 -1.09375 1.078125 -2.296875 C 1.078125 -3.5 1.828125 -3.984375 2.484375 -3.984375 C 3.1875 -3.984375 3.890625 -3.46875 3.890625 -2.296875 C 3.890625 -1.109375 3.21875 -0.53125 2.484375 -0.53125 Z M 2.484375 -0.53125 "/>
</symbol>
<symbol overflow="visible" id="glyph11-3">
<path style="stroke:none;" d="M 6.65625 -4.421875 L 5.9375 -4.421875 L 5.296875 -2.3125 C 5.1875 -1.953125 4.890625 -0.96875 4.828125 -0.53125 C 4.78125 -0.84375 4.53125 -1.734375 4.359375 -2.296875 L 3.71875 -4.421875 L 3.015625 -4.421875 L 2.453125 -2.546875 C 2.34375 -2.203125 2 -1.0625 1.96875 -0.546875 L 1.953125 -0.546875 C 1.90625 -1.03125 1.578125 -2.15625 1.421875 -2.703125 L 0.890625 -4.421875 L 0.140625 -4.421875 L 1.5 0 L 2.296875 0 C 2.34375 -0.15625 2.6875 -1.28125 2.90625 -2.046875 C 3.046875 -2.515625 3.328125 -3.5 3.359375 -3.875 L 3.375 -3.875 C 3.390625 -3.59375 3.5625 -2.90625 3.6875 -2.46875 L 4.421875 0 L 5.296875 0 Z M 6.65625 -4.421875 "/>
</symbol>
<symbol overflow="visible" id="glyph11-4">
<path style="stroke:none;" d="M 1.75 -3.84375 L 3.15625 -3.84375 L 3.15625 -4.421875 L 1.75 -4.421875 L 1.75 -5.6875 L 1.0625 -5.6875 L 1.0625 -4.421875 L 0.1875 -4.421875 L 0.1875 -3.84375 L 1.03125 -3.84375 L 1.03125 -1.1875 C 1.03125 -0.59375 1.171875 0.109375 1.859375 0.109375 C 2.546875 0.109375 3.0625 -0.140625 3.3125 -0.265625 L 3.15625 -0.859375 C 2.890625 -0.640625 2.578125 -0.53125 2.25 -0.53125 C 1.890625 -0.53125 1.75 -0.828125 1.75 -1.359375 Z M 1.75 -3.84375 "/>
</symbol>
<symbol overflow="visible" id="glyph11-5">
<path style="stroke:none;" d="M 4.34375 -2.96875 C 4.34375 -3.625 4.1875 -4.53125 2.96875 -4.53125 C 2.359375 -4.53125 1.875 -4.234375 1.5625 -3.8125 L 1.5625 -6.921875 L 0.8125 -6.921875 L 0.8125 0 L 1.578125 0 L 1.578125 -2.4375 C 1.578125 -3.09375 1.828125 -3.921875 2.59375 -3.921875 C 3.546875 -3.921875 3.5625 -3.21875 3.5625 -2.90625 L 3.5625 0 L 4.34375 0 Z M 4.34375 -2.96875 "/>
</symbol>
<symbol overflow="visible" id="glyph11-6">
<path style="stroke:none;" d="M 4.125 -2.1875 C 4.125 -2.515625 4.109375 -3.265625 3.734375 -3.875 C 3.3125 -4.484375 2.71875 -4.59375 2.359375 -4.59375 C 1.25 -4.59375 0.34375 -3.53125 0.34375 -2.25 C 0.34375 -0.9375 1.3125 0.109375 2.5 0.109375 C 3.125 0.109375 3.703125 -0.125 4.09375 -0.40625 L 4.03125 -1.0625 C 3.40625 -0.53125 2.734375 -0.5 2.515625 -0.5 C 1.71875 -0.5 1.078125 -1.203125 1.046875 -2.1875 Z M 1.09375 -2.734375 C 1.25 -3.484375 1.78125 -3.984375 2.359375 -3.984375 C 2.875 -3.984375 3.421875 -3.65625 3.5625 -2.734375 Z M 1.09375 -2.734375 "/>
</symbol>
<symbol overflow="visible" id="glyph12-0">
<path style="stroke:none;" d=""/>
</symbol>
<symbol overflow="visible" id="glyph12-1">
<path style="stroke:none;" d="M 6.65625 -4.421875 L 5.9375 -4.421875 L 5.296875 -2.3125 C 5.1875 -1.953125 4.890625 -0.96875 4.828125 -0.53125 C 4.78125 -0.84375 4.53125 -1.734375 4.359375 -2.296875 L 3.71875 -4.421875 L 3.015625 -4.421875 L 2.453125 -2.546875 C 2.34375 -2.203125 2 -1.0625 1.96875 -0.546875 L 1.953125 -0.546875 C 1.90625 -1.03125 1.578125 -2.15625 1.421875 -2.703125 L 0.890625 -4.421875 L 0.140625 -4.421875 L 1.5 0 L 2.296875 0 C 2.34375 -0.15625 2.6875 -1.28125 2.90625 -2.046875 C 3.046875 -2.515625 3.328125 -3.5 3.359375 -3.875 L 3.375 -3.875 C 3.390625 -3.59375 3.5625 -2.90625 3.6875 -2.46875 L 4.421875 0 L 5.296875 0 Z M 6.65625 -4.421875 "/>
</symbol>
<symbol overflow="visible" id="glyph12-2">
<path style="stroke:none;" d="M 4.671875 -2.1875 C 4.671875 -3.53125 3.671875 -4.59375 2.5 -4.59375 C 1.265625 -4.59375 0.296875 -3.5 0.296875 -2.1875 C 0.296875 -0.875 1.3125 0.109375 2.484375 0.109375 C 3.671875 0.109375 4.671875 -0.890625 4.671875 -2.1875 Z M 2.484375 -0.53125 C 1.796875 -0.53125 1.078125 -1.09375 1.078125 -2.296875 C 1.078125 -3.5 1.828125 -3.984375 2.484375 -3.984375 C 3.1875 -3.984375 3.890625 -3.46875 3.890625 -2.296875 C 3.890625 -1.109375 3.21875 -0.53125 2.484375 -0.53125 Z M 2.484375 -0.53125 "/>
</symbol>
<symbol overflow="visible" id="glyph12-3">
<path style="stroke:none;" d="M 1.5625 -2.140625 C 1.5625 -3.125 2.28125 -3.84375 3.265625 -3.875 L 3.265625 -4.53125 C 2.375 -4.53125 1.828125 -4.03125 1.515625 -3.578125 L 1.515625 -4.484375 L 0.8125 -4.484375 L 0.8125 0 L 1.5625 0 Z M 1.5625 -2.140625 "/>
</symbol>
<symbol overflow="visible" id="glyph12-4">
<path style="stroke:none;" d="M 1.5625 -6.921875 L 0.8125 -6.921875 L 0.8125 0 L 1.5625 0 Z M 1.5625 -6.921875 "/>
</symbol>
<symbol overflow="visible" id="glyph12-5">
<path style="stroke:none;" d="M 4.328125 -6.921875 L 3.578125 -6.921875 L 3.578125 -3.984375 C 3.046875 -4.421875 2.5 -4.53125 2.125 -4.53125 C 1.140625 -4.53125 0.359375 -3.5 0.359375 -2.21875 C 0.359375 -0.90625 1.125 0.109375 2.078125 0.109375 C 2.40625 0.109375 2.984375 0.015625 3.546875 -0.515625 L 3.546875 0 L 4.328125 0 Z M 3.546875 -1.390625 C 3.546875 -1.25 3.53125 -1.0625 3.21875 -0.78125 C 2.984375 -0.578125 2.734375 -0.5 2.484375 -0.5 C 1.859375 -0.5 1.140625 -0.96875 1.140625 -2.203125 C 1.140625 -3.515625 2 -3.921875 2.578125 -3.921875 C 3.03125 -3.921875 3.328125 -3.703125 3.546875 -3.375 Z M 3.546875 -1.390625 "/>
</symbol>
<symbol overflow="visible" id="glyph12-6">
<path style="stroke:none;" d="M 4.125 -2.1875 C 4.125 -2.515625 4.109375 -3.265625 3.734375 -3.875 C 3.3125 -4.484375 2.71875 -4.59375 2.359375 -4.59375 C 1.25 -4.59375 0.34375 -3.53125 0.34375 -2.25 C 0.34375 -0.9375 1.3125 0.109375 2.5 0.109375 C 3.125 0.109375 3.703125 -0.125 4.09375 -0.40625 L 4.03125 -1.0625 C 3.40625 -0.53125 2.734375 -0.5 2.515625 -0.5 C 1.71875 -0.5 1.078125 -1.203125 1.046875 -2.1875 Z M 1.09375 -2.734375 C 1.25 -3.484375 1.78125 -3.984375 2.359375 -3.984375 C 2.875 -3.984375 3.421875 -3.65625 3.5625 -2.734375 Z M 1.09375 -2.734375 "/>
</symbol>
<symbol overflow="visible" id="glyph12-7">
<path style="stroke:none;" d="M 4.453125 -4.421875 L 3.703125 -4.421875 L 2.90625 -2.359375 C 2.703125 -1.796875 2.390625 -1 2.3125 -0.53125 L 2.296875 -0.53125 C 2.25 -0.890625 1.984375 -1.578125 1.890625 -1.84375 L 0.921875 -4.421875 L 0.140625 -4.421875 L 1.859375 0 L 2.734375 0 Z M 4.453125 -4.421875 "/>
</symbol>
<symbol overflow="visible" id="glyph12-8">
<path style="stroke:none;" d="M 3.421875 -4.28125 C 2.90625 -4.515625 2.5 -4.59375 1.984375 -4.59375 C 1.734375 -4.59375 0.328125 -4.59375 0.328125 -3.296875 C 0.328125 -2.796875 0.625 -2.484375 0.875 -2.296875 C 1.171875 -2.078125 1.390625 -2.03125 1.9375 -1.921875 C 2.296875 -1.859375 2.875 -1.734375 2.875 -1.203125 C 2.875 -0.515625 2.09375 -0.515625 1.9375 -0.515625 C 1.140625 -0.515625 0.578125 -0.890625 0.40625 -1 L 0.28125 -0.328125 C 0.59375 -0.171875 1.140625 0.109375 1.953125 0.109375 C 2.140625 0.109375 2.6875 0.109375 3.109375 -0.203125 C 3.421875 -0.453125 3.59375 -0.84375 3.59375 -1.28125 C 3.59375 -1.828125 3.21875 -2.15625 3.203125 -2.1875 C 2.8125 -2.546875 2.546875 -2.609375 2.046875 -2.6875 C 1.5 -2.796875 1.03125 -2.90625 1.03125 -3.390625 C 1.03125 -4 1.75 -4 1.890625 -4 C 2.203125 -4 2.734375 -3.96875 3.296875 -3.625 Z M 3.421875 -4.28125 "/>
</symbol>
<symbol overflow="visible" id="glyph13-0">
<path style="stroke:none;" d=""/>
</symbol>
<symbol overflow="visible" id="glyph13-1">
<path style="stroke:none;" d="M 9.265625 -6.921875 L 8.546875 -6.921875 L 7.640625 -3.78125 C 7.375 -2.90625 6.890625 -1.21875 6.84375 -0.71875 C 6.84375 -0.734375 6.78125 -1.25 6.125 -3.515625 L 5.140625 -6.921875 L 4.34375 -6.921875 L 3.4375 -3.8125 C 3.21875 -3.046875 2.71875 -1.296875 2.671875 -0.734375 L 2.65625 -0.734375 C 2.625 -1.140625 2.359375 -2.109375 2.265625 -2.4375 L 1.796875 -4.109375 L 1 -6.921875 L 0.140625 -6.921875 L 2.15625 0 L 2.96875 0 L 3.96875 -3.453125 C 4.171875 -4.1875 4.609375 -5.671875 4.671875 -6.1875 C 4.71875 -5.890625 4.953125 -4.9375 5.21875 -4 L 6.375 0 L 7.234375 0 Z M 9.265625 -6.921875 "/>
</symbol>
<symbol overflow="visible" id="glyph13-2">
<path style="stroke:none;" d="M 4.34375 -2.96875 C 4.34375 -3.625 4.1875 -4.53125 2.96875 -4.53125 C 2.359375 -4.53125 1.875 -4.234375 1.5625 -3.8125 L 1.5625 -6.921875 L 0.8125 -6.921875 L 0.8125 0 L 1.578125 0 L 1.578125 -2.4375 C 1.578125 -3.09375 1.828125 -3.921875 2.59375 -3.921875 C 3.546875 -3.921875 3.5625 -3.21875 3.5625 -2.90625 L 3.5625 0 L 4.34375 0 Z M 4.34375 -2.96875 "/>
</symbol>
<symbol overflow="visible" id="glyph13-3">
<path style="stroke:none;" d="M 3.984375 -2.875 C 3.984375 -3.890625 3.25 -4.59375 2.328125 -4.59375 C 1.6875 -4.59375 1.234375 -4.4375 0.765625 -4.171875 L 0.828125 -3.515625 C 1.34375 -3.875 1.84375 -4 2.328125 -4 C 2.796875 -4 3.203125 -3.609375 3.203125 -2.875 L 3.203125 -2.4375 C 1.703125 -2.421875 0.4375 -2 0.4375 -1.125 C 0.4375 -0.703125 0.703125 0.109375 1.578125 0.109375 C 1.71875 0.109375 2.65625 0.09375 3.234375 -0.359375 L 3.234375 0 L 3.984375 0 Z M 3.203125 -1.3125 C 3.203125 -1.125 3.203125 -0.875 2.859375 -0.6875 C 2.578125 -0.515625 2.1875 -0.5 2.078125 -0.5 C 1.609375 -0.5 1.15625 -0.734375 1.15625 -1.140625 C 1.15625 -1.84375 2.765625 -1.90625 3.203125 -1.9375 Z M 3.203125 -1.3125 "/>
</symbol>
<symbol overflow="visible" id="glyph13-4">
<path style="stroke:none;" d="M 1.75 -3.84375 L 3.15625 -3.84375 L 3.15625 -4.421875 L 1.75 -4.421875 L 1.75 -5.6875 L 1.0625 -5.6875 L 1.0625 -4.421875 L 0.1875 -4.421875 L 0.1875 -3.84375 L 1.03125 -3.84375 L 1.03125 -1.1875 C 1.03125 -0.59375 1.171875 0.109375 1.859375 0.109375 C 2.546875 0.109375 3.0625 -0.140625 3.3125 -0.265625 L 3.15625 -0.859375 C 2.890625 -0.640625 2.578125 -0.53125 2.25 -0.53125 C 1.890625 -0.53125 1.75 -0.828125 1.75 -1.359375 Z M 1.75 -3.84375 "/>
</symbol>
<symbol overflow="visible" id="glyph13-5">
<path style="stroke:none;" d="M 7.109375 -2.96875 C 7.109375 -3.640625 6.953125 -4.53125 5.734375 -4.53125 C 5.140625 -4.53125 4.625 -4.25 4.25 -3.71875 C 4 -4.46875 3.296875 -4.53125 2.984375 -4.53125 C 2.265625 -4.53125 1.796875 -4.125 1.53125 -3.765625 L 1.53125 -4.484375 L 0.8125 -4.484375 L 0.8125 0 L 1.578125 0 L 1.578125 -2.4375 C 1.578125 -3.125 1.859375 -3.921875 2.59375 -3.921875 C 3.515625 -3.921875 3.5625 -3.28125 3.5625 -2.90625 L 3.5625 0 L 4.34375 0 L 4.34375 -2.4375 C 4.34375 -3.125 4.609375 -3.921875 5.359375 -3.921875 C 6.28125 -3.921875 6.328125 -3.28125 6.328125 -2.90625 L 6.328125 0 L 7.109375 0 Z M 7.109375 -2.96875 "/>
</symbol>
<symbol overflow="visible" id="glyph13-6">
<path style="stroke:none;" d="M 4.453125 -4.421875 L 3.703125 -4.421875 C 2.40625 -1.25 2.375 -0.796875 2.375 -0.5625 L 2.359375 -0.5625 C 2.296875 -1.234375 1.5 -3.09375 1.46875 -3.1875 L 0.921875 -4.421875 L 0.140625 -4.421875 L 2.078125 0 C 1.953125 0.3125 1.75 0.8125 1.71875 0.890625 C 1.453125 1.46875 1.28125 1.46875 1.140625 1.46875 C 0.984375 1.46875 0.671875 1.4375 0.375 1.3125 L 0.421875 1.96875 C 0.640625 2.015625 0.921875 2.046875 1.140625 2.046875 C 1.5 2.046875 1.859375 1.921875 2.265625 0.90625 Z M 4.453125 -4.421875 "/>
</symbol>
<symbol overflow="visible" id="glyph14-0">
<path style="stroke:none;" d=""/>
</symbol>
<symbol overflow="visible" id="glyph14-1">
<path style="stroke:none;" d="M 3.984375 -2.875 C 3.984375 -3.890625 3.25 -4.59375 2.328125 -4.59375 C 1.6875 -4.59375 1.234375 -4.4375 0.765625 -4.171875 L 0.828125 -3.515625 C 1.34375 -3.875 1.84375 -4 2.328125 -4 C 2.796875 -4 3.203125 -3.609375 3.203125 -2.875 L 3.203125 -2.4375 C 1.703125 -2.421875 0.4375 -2 0.4375 -1.125 C 0.4375 -0.703125 0.703125 0.109375 1.578125 0.109375 C 1.71875 0.109375 2.65625 0.09375 3.234375 -0.359375 L 3.234375 0 L 3.984375 0 Z M 3.203125 -1.3125 C 3.203125 -1.125 3.203125 -0.875 2.859375 -0.6875 C 2.578125 -0.515625 2.1875 -0.5 2.078125 -0.5 C 1.609375 -0.5 1.15625 -0.734375 1.15625 -1.140625 C 1.15625 -1.84375 2.765625 -1.90625 3.203125 -1.9375 Z M 3.203125 -1.3125 "/>
</symbol>
<symbol overflow="visible" id="glyph14-2">
<path style="stroke:none;" d="M 4.09375 -4.171875 C 3.5 -4.5 3.15625 -4.59375 2.546875 -4.59375 C 1.171875 -4.59375 0.359375 -3.390625 0.359375 -2.21875 C 0.359375 -0.984375 1.265625 0.109375 2.515625 0.109375 C 3.046875 0.109375 3.59375 -0.03125 4.140625 -0.40625 L 4.078125 -1.0625 C 3.5625 -0.671875 3.03125 -0.53125 2.515625 -0.53125 C 1.6875 -0.53125 1.140625 -1.25 1.140625 -2.21875 C 1.140625 -3 1.5 -3.953125 2.5625 -3.953125 C 3.078125 -3.953125 3.421875 -3.875 3.96875 -3.515625 Z M 4.09375 -4.171875 "/>
</symbol>
<symbol overflow="visible" id="glyph14-3">
<path style="stroke:none;" d="M 1.75 -3.84375 L 3.15625 -3.84375 L 3.15625 -4.421875 L 1.75 -4.421875 L 1.75 -5.6875 L 1.0625 -5.6875 L 1.0625 -4.421875 L 0.1875 -4.421875 L 0.1875 -3.84375 L 1.03125 -3.84375 L 1.03125 -1.1875 C 1.03125 -0.59375 1.171875 0.109375 1.859375 0.109375 C 2.546875 0.109375 3.0625 -0.140625 3.3125 -0.265625 L 3.15625 -0.859375 C 2.890625 -0.640625 2.578125 -0.53125 2.25 -0.53125 C 1.890625 -0.53125 1.75 -0.828125 1.75 -1.359375 Z M 1.75 -3.84375 "/>
</symbol>
<symbol overflow="visible" id="glyph14-4">
<path style="stroke:none;" d="M 1.625 -6.78125 L 0.734375 -6.78125 L 0.734375 -5.890625 L 1.625 -5.890625 Z M 1.5625 -4.421875 L 0.8125 -4.421875 L 0.8125 0 L 1.5625 0 Z M 1.5625 -4.421875 "/>
</symbol>
<symbol overflow="visible" id="glyph14-5">
<path style="stroke:none;" d="M 4.671875 -2.1875 C 4.671875 -3.53125 3.671875 -4.59375 2.5 -4.59375 C 1.265625 -4.59375 0.296875 -3.5 0.296875 -2.1875 C 0.296875 -0.875 1.3125 0.109375 2.484375 0.109375 C 3.671875 0.109375 4.671875 -0.890625 4.671875 -2.1875 Z M 2.484375 -0.53125 C 1.796875 -0.53125 1.078125 -1.09375 1.078125 -2.296875 C 1.078125 -3.5 1.828125 -3.984375 2.484375 -3.984375 C 3.1875 -3.984375 3.890625 -3.46875 3.890625 -2.296875 C 3.890625 -1.109375 3.21875 -0.53125 2.484375 -0.53125 Z M 2.484375 -0.53125 "/>
</symbol>
<symbol overflow="visible" id="glyph14-6">
<path style="stroke:none;" d="M 4.34375 -2.96875 C 4.34375 -3.625 4.1875 -4.53125 2.96875 -4.53125 C 2.078125 -4.53125 1.578125 -3.859375 1.53125 -3.78125 L 1.53125 -4.484375 L 0.8125 -4.484375 L 0.8125 0 L 1.578125 0 L 1.578125 -2.4375 C 1.578125 -3.09375 1.828125 -3.921875 2.59375 -3.921875 C 3.546875 -3.921875 3.5625 -3.21875 3.5625 -2.90625 L 3.5625 0 L 4.34375 0 Z M 4.34375 -2.96875 "/>
</symbol>
<symbol overflow="visible" id="glyph14-7">
<path style="stroke:none;" d="M 3.421875 -4.28125 C 2.90625 -4.515625 2.5 -4.59375 1.984375 -4.59375 C 1.734375 -4.59375 0.328125 -4.59375 0.328125 -3.296875 C 0.328125 -2.796875 0.625 -2.484375 0.875 -2.296875 C 1.171875 -2.078125 1.390625 -2.03125 1.9375 -1.921875 C 2.296875 -1.859375 2.875 -1.734375 2.875 -1.203125 C 2.875 -0.515625 2.09375 -0.515625 1.9375 -0.515625 C 1.140625 -0.515625 0.578125 -0.890625 0.40625 -1 L 0.28125 -0.328125 C 0.59375 -0.171875 1.140625 0.109375 1.953125 0.109375 C 2.140625 0.109375 2.6875 0.109375 3.109375 -0.203125 C 3.421875 -0.453125 3.59375 -0.84375 3.59375 -1.28125 C 3.59375 -1.828125 3.21875 -2.15625 3.203125 -2.1875 C 2.8125 -2.546875 2.546875 -2.609375 2.046875 -2.6875 C 1.5 -2.796875 1.03125 -2.90625 1.03125 -3.390625 C 1.03125 -4 1.75 -4 1.890625 -4 C 2.203125 -4 2.734375 -3.96875 3.296875 -3.625 Z M 3.421875 -4.28125 "/>
</symbol>
<symbol overflow="visible" id="glyph14-8">
<path style="stroke:none;" d="M 4.328125 -6.921875 L 3.578125 -6.921875 L 3.578125 -3.984375 C 3.046875 -4.421875 2.5 -4.53125 2.125 -4.53125 C 1.140625 -4.53125 0.359375 -3.5 0.359375 -2.21875 C 0.359375 -0.90625 1.125 0.109375 2.078125 0.109375 C 2.40625 0.109375 2.984375 0.015625 3.546875 -0.515625 L 3.546875 0 L 4.328125 0 Z M 3.546875 -1.390625 C 3.546875 -1.25 3.53125 -1.0625 3.21875 -0.78125 C 2.984375 -0.578125 2.734375 -0.5 2.484375 -0.5 C 1.859375 -0.5 1.140625 -0.96875 1.140625 -2.203125 C 1.140625 -3.515625 2 -3.921875 2.578125 -3.921875 C 3.03125 -3.921875 3.328125 -3.703125 3.546875 -3.375 Z M 3.546875 -1.390625 "/>
</symbol>
<symbol overflow="visible" id="glyph14-9">
<path style="stroke:none;" d="M 2.546875 -2.28125 C 2.546875 -2.96875 2.875 -3.703125 3.5625 -4.28125 C 3.765625 -4.453125 4.140625 -4.765625 4.140625 -5.484375 C 4.140625 -6.15625 3.734375 -7.03125 2.234375 -7.03125 C 1.625 -7.03125 1.09375 -6.859375 0.5625 -6.5 L 0.78125 -5.875 C 1.03125 -6.09375 1.515625 -6.421875 2.234375 -6.421875 C 2.703125 -6.421875 3.359375 -6.34375 3.359375 -5.5 C 3.359375 -5.046875 3.140625 -4.859375 3.015625 -4.734375 C 1.875 -3.765625 1.875 -2.5 1.875 -2.0625 L 1.875 -1.75 L 2.546875 -1.75 Z M 1.796875 0 L 2.625 0 L 2.625 -0.828125 L 1.796875 -0.828125 Z M 1.796875 0 "/>
</symbol>
<symbol overflow="visible" id="glyph15-0">
<path style="stroke:none;" d=""/>
</symbol>
<symbol overflow="visible" id="glyph15-1">
<path style="stroke:none;" d="M 3.765625 -6.921875 L 2.875 -6.921875 L 0.28125 0 L 1.015625 0 L 1.78125 -2.03125 L 4.6875 -2.03125 L 5.4375 0 L 6.359375 0 Z M 4.46875 -2.59375 L 2 -2.59375 L 2.640625 -4.390625 C 2.84375 -4.984375 3.15625 -5.828125 3.234375 -6.203125 C 3.265625 -6.0625 3.328125 -5.8125 3.5625 -5.15625 Z M 4.46875 -2.59375 "/>
</symbol>
<symbol overflow="visible" id="glyph15-2">
<path style="stroke:none;" d="M 5.984375 -2.984375 L 3.875 -2.984375 L 3.875 -2.359375 L 5.1875 -2.359375 L 5.1875 -0.734375 C 4.796875 -0.59375 4.3125 -0.53125 3.890625 -0.53125 C 2.578125 -0.53125 1.5625 -1.859375 1.5625 -3.46875 C 1.5625 -5.03125 2.546875 -6.390625 3.875 -6.390625 C 4.671875 -6.390625 5.25 -6.15625 5.75 -5.734375 L 5.890625 -6.546875 C 5.328125 -6.890625 4.5625 -7.03125 3.890625 -7.03125 C 1.96875 -7.03125 0.65625 -5.296875 0.65625 -3.46875 C 0.65625 -1.65625 1.984375 0.109375 3.890625 0.109375 C 4.640625 0.109375 5.3125 -0.09375 5.984375 -0.375 Z M 5.984375 -2.984375 "/>
</symbol>
<symbol overflow="visible" id="glyph15-3">
<path style="stroke:none;" d="M 5.109375 -3.28125 L 5.109375 -3.890625 L 1.828125 -3.890625 L 1.828125 -6.25 L 3.203125 -6.25 C 3.3125 -6.25 3.4375 -6.234375 3.5625 -6.234375 L 5.390625 -6.234375 L 5.390625 -6.890625 L 0.9375 -6.890625 L 0.9375 0 L 5.515625 0 L 5.515625 -0.703125 L 4.265625 -0.703125 C 4.140625 -0.703125 4.03125 -0.703125 3.90625 -0.703125 L 1.828125 -0.703125 L 1.828125 -3.28125 Z M 5.109375 -3.28125 "/>
</symbol>
<symbol overflow="visible" id="glyph15-4">
<path style="stroke:none;" d="M 2.1875 -6.921875 L 0.953125 -6.921875 L 0.953125 0 L 1.734375 0 L 1.734375 -6.203125 L 1.75 -6.203125 C 1.9375 -5.796875 2.359375 -4.953125 2.40625 -4.84375 L 4.859375 0 L 6.09375 0 L 6.09375 -6.921875 L 5.3125 -6.921875 L 5.3125 -0.703125 L 5.296875 -0.703125 C 5.109375 -1.109375 4.6875 -1.96875 4.640625 -2.078125 Z M 2.1875 -6.921875 "/>
</symbol>
<symbol overflow="visible" id="glyph15-5">
<path style="stroke:none;" d="M 3.84375 -6.21875 L 4.71875 -6.21875 C 4.84375 -6.21875 4.96875 -6.203125 5.078125 -6.203125 L 6.421875 -6.203125 L 6.421875 -6.859375 L 0.359375 -6.859375 L 0.359375 -6.203125 L 1.6875 -6.203125 C 1.8125 -6.203125 1.9375 -6.21875 2.046875 -6.21875 L 2.953125 -6.21875 L 2.953125 0 L 3.84375 0 Z M 3.84375 -6.21875 "/>
</symbol>
</g>
</defs>
<g id="surface1">
<path style="fill-rule:evenodd;fill:rgb(79.2%,100%,43.9%);fill-opacity:1;stroke-width:1.2;stroke-linecap:butt;stroke-linejoin:round;stroke:rgb(0%,39.2%,0%);stroke-opacity:1;stroke-miterlimit:10;" d="M 16.001562 831.998438 L 16.001562 671.998438 L 176.001563 671.998438 L 176.001563 831.998438 Z M 16.001562 831.998438 " transform="matrix(1,0,0,-1,-15.4,832.6)"/>
<path style="fill:none;stroke-width:1.2;stroke-linecap:butt;stroke-linejoin:round;stroke:rgb(0%,0%,0%);stroke-opacity:1;stroke-miterlimit:10;" d="M 132.001563 819.998438 L 132.001563 803.998438 " transform="matrix(1,0,0,-1,-15.4,832.6)"/>
<path style="fill-rule:evenodd;fill:rgb(0%,0%,0%);fill-opacity:1;stroke-width:1.2;stroke-linecap:butt;stroke-linejoin:round;stroke:rgb(0%,0%,0%);stroke-opacity:1;stroke-miterlimit:10;" d="M 132.001563 803.998438 L 134.329688 810.998438 L 129.669531 810.998438 Z M 132.001563 803.998438 " transform="matrix(1,0,0,-1,-15.4,832.6)"/>
<path style="fill:none;stroke-width:1.2;stroke-linecap:butt;stroke-linejoin:round;stroke:rgb(0%,0%,0%);stroke-opacity:1;stroke-miterlimit:10;" d="M 132.001563 779.998438 L 132.001563 723.998438 " transform="matrix(1,0,0,-1,-15.4,832.6)"/>
<path style="fill-rule:evenodd;fill:rgb(0%,0%,0%);fill-opacity:1;stroke-width:1.2;stroke-linecap:butt;stroke-linejoin:round;stroke:rgb(0%,0%,0%);stroke-opacity:1;stroke-miterlimit:10;" d="M 132.001563 723.998438 L 134.329688 730.998438 L 129.669531 730.998438 Z M 132.001563 723.998438 " transform="matrix(1,0,0,-1,-15.4,832.6)"/>
<g style="fill:rgb(0%,0%,0%);fill-opacity:1;">
  <use xlink:href="#glyph0-1" x="101.172" y="11.518"/>
  <use xlink:href="#glyph0-2" x="106.701243" y="11.518"/>
  <use xlink:href="#glyph0-3" x="111.124637" y="11.518"/>
  <use xlink:href="#glyph0-4" x="116.265339" y="11.518"/>
  <use xlink:href="#glyph0-5" x="120.081015" y="11.518"/>
  <use xlink:href="#glyph0-6" x="124.783362" y="11.518"/>
  <use xlink:href="#glyph0-4" x="128.180609" y="11.518"/>
</g>
<path style="fill-rule:evenodd;fill:rgb(100%,75.3%,79.6%);fill-opacity:1;stroke-width:1.2;stroke-linecap:butt;stroke-linejoin:round;stroke:rgb(54.5%,0%,0%);stroke-opacity:1;stroke-miterlimit:10;" d="M 208.001563 831.998438 L 208.001563 671.998438 L 240.001563 671.998438 L 240.001563 831.998438 Z M 208.001563 831.998438 " transform="matrix(1,0,0,-1,-15.4,832.6)"/>
<g style="fill:rgb(0%,0%,0%);fill-opacity:1;">
  <use xlink:href="#glyph1-1" x="204.782438" y="44.763632"/>
  <use xlink:href="#glyph1-2" x="204.841841" y="50.711007"/>
  <use xlink:href="#glyph1-3" x="204.91229" y="57.764175"/>
  <use xlink:href="#glyph1-4" x="204.978559" y="64.398935"/>
  <use xlink:href="#glyph1-5" x="205.006122" y="67.158437"/>
  <use xlink:href="#glyph1-6" x="205.070301" y="73.583992"/>
  <use xlink:href="#glyph1-2" x="205.143536" y="80.916099"/>
  <use xlink:href="#glyph1-7" x="205.213984" y="87.969268"/>
  <use xlink:href="#glyph1-1" x="205.30105" y="96.686107"/>
  <use xlink:href="#glyph1-2" x="205.360453" y="102.633482"/>
  <use xlink:href="#glyph1-8" x="205.430902" y="109.68665"/>
</g>
<g style="fill:rgb(0%,0%,0%);fill-opacity:1;">
  <use xlink:href="#glyph2-1" x="96.536" y="155.518"/>
  <use xlink:href="#glyph2-2" x="103.171092" y="155.518"/>
  <use xlink:href="#glyph2-3" x="107.594486" y="155.518"/>
  <use xlink:href="#glyph2-4" x="111.190985" y="155.518"/>
  <use xlink:href="#glyph2-5" x="116.331686" y="155.518"/>
  <use xlink:href="#glyph2-3" x="121.113734" y="155.518"/>
  <use xlink:href="#glyph2-6" x="124.710233" y="155.518"/>
  <use xlink:href="#glyph2-7" x="129.41258" y="155.518"/>
  <use xlink:href="#glyph2-8" x="132.809827" y="155.518"/>
</g>
<path style=" stroke:none;fill-rule:evenodd;fill:rgb(100%,100%,87.8%);fill-opacity:1;" d="M 80.601562 108.601562 L 80.601562 132.601562 L 152.601562 132.601562 L 152.601562 108.601562 Z M 80.601562 108.601562 "/>
<g style="fill:rgb(0%,0%,0%);fill-opacity:1;">
  <use xlink:href="#glyph3-1" x="81.039" y="118.082"/>
  <use xlink:href="#glyph3-2" x="90.443694" y="118.082"/>
  <use xlink:href="#glyph3-3" x="95.584396" y="118.082"/>
  <use xlink:href="#glyph3-4" x="100.366444" y="118.082"/>
  <use xlink:href="#glyph3-3" x="107.280488" y="118.082"/>
  <use xlink:href="#glyph3-5" x="112.062536" y="118.082"/>
  <use xlink:href="#glyph3-4" x="116.485931" y="118.082"/>
  <use xlink:href="#glyph3-6" x="120.082429" y="118.082"/>
  <use xlink:href="#glyph3-7" x="122.453528" y="118.082"/>
  <use xlink:href="#glyph3-8" x="127.434828" y="118.082"/>
  <use xlink:href="#glyph3-9" x="135.903038" y="118.082"/>
  <use xlink:href="#glyph3-7" x="141.033777" y="118.082"/>
  <use xlink:href="#glyph3-10" x="149.342586" y="118.082"/>
</g>
<g style="fill:rgb(0%,0%,0%);fill-opacity:1;">
  <use xlink:href="#glyph4-1" x="101.545" y="130.037"/>
  <use xlink:href="#glyph4-2" x="106.685702" y="130.037"/>
  <use xlink:href="#glyph4-3" x="114.984547" y="130.037"/>
  <use xlink:href="#glyph4-2" x="120.125249" y="130.037"/>
  <use xlink:href="#glyph4-4" x="124.837559" y="130.037"/>
</g>
<path style=" stroke:none;fill-rule:evenodd;fill:rgb(87.8%,100%,100%);fill-opacity:1;" d="M 80.601562 28.601562 L 80.601562 52.601562 L 152.601562 52.601562 L 152.601562 28.601562 Z M 80.601562 28.601562 "/>
<g style="fill:rgb(0%,0%,0%);fill-opacity:1;">
  <use xlink:href="#glyph5-1" x="84.138" y="38.082"/>
  <use xlink:href="#glyph5-2" x="93.542694" y="38.082"/>
  <use xlink:href="#glyph5-3" x="98.683396" y="38.082"/>
  <use xlink:href="#glyph5-4" x="103.465444" y="38.082"/>
  <use xlink:href="#glyph5-4" x="110.379488" y="38.082"/>
  <use xlink:href="#glyph5-2" x="113.975987" y="38.082"/>
  <use xlink:href="#glyph5-5" x="119.116689" y="38.082"/>
  <use xlink:href="#glyph5-6" x="126.867591" y="38.082"/>
  <use xlink:href="#glyph5-7" x="133.393094" y="38.082"/>
  <use xlink:href="#glyph5-8" x="138.095442" y="38.082"/>
  <use xlink:href="#glyph5-9" x="141.492688" y="38.082"/>
  <use xlink:href="#glyph5-10" x="143.863787" y="38.082"/>
</g>
<g style="fill:rgb(0%,0%,0%);fill-opacity:1;">
  <use xlink:href="#glyph6-1" x="94.959" y="50.037"/>
  <use xlink:href="#glyph6-2" x="97.330099" y="50.037"/>
  <use xlink:href="#glyph6-3" x="104.46332" y="50.037"/>
  <use xlink:href="#glyph6-1" x="106.834419" y="50.037"/>
  <use xlink:href="#glyph6-4" x="109.205518" y="50.037"/>
  <use xlink:href="#glyph6-5" x="113.798277" y="50.037"/>
  <use xlink:href="#glyph6-6" x="121.539217" y="50.037"/>
  <use xlink:href="#glyph6-7" x="126.679918" y="50.037"/>
  <use xlink:href="#glyph6-8" x="131.382266" y="50.037"/>
</g>
<path style=" stroke:none;fill-rule:evenodd;fill:rgb(67.8%,84.7%,90.2%);fill-opacity:1;" d="M 8.601562 104.601562 L 8.601562 136.601562 L 68.601562 136.601562 L 68.601562 104.601562 Z M 8.601562 104.601562 "/>
<path style="fill:none;stroke-width:1.2;stroke-linecap:butt;stroke-linejoin:round;stroke:rgb(0%,0%,0%);stroke-opacity:1;stroke-miterlimit:10;" d="M 156.001563 679.998438 L 224.001563 679.998438 " transform="matrix(1,0,0,-1,-15.4,832.6)"/>
<path style="fill-rule:evenodd;fill:rgb(0%,0%,0%);fill-opacity:1;stroke-width:1.2;stroke-linecap:butt;stroke-linejoin:round;stroke:rgb(0%,0%,0%);stroke-opacity:1;stroke-miterlimit:10;" d="M 224.001563 679.998438 L 217.001563 682.330469 L 217.001563 677.670313 Z M 224.001563 679.998438 " transform="matrix(1,0,0,-1,-15.4,832.6)"/>
<path style="fill:none;stroke-width:1.2;stroke-linecap:butt;stroke-linejoin:round;stroke:rgb(0%,0%,0%);stroke-opacity:1;stroke-miterlimit:10;" d="M 224.001563 823.998438 L 156.001563 823.998438 " transform="matrix(1,0,0,-1,-15.4,832.6)"/>
<path style="fill-rule:evenodd;fill:rgb(0%,0%,0%);fill-opacity:1;stroke-width:1.2;stroke-linecap:butt;stroke-linejoin:round;stroke:rgb(0%,0%,0%);stroke-opacity:1;stroke-miterlimit:10;" d="M 156.001563 823.998438 L 163.001563 821.670313 L 163.001563 826.330469 Z M 156.001563 823.998438 " transform="matrix(1,0,0,-1,-15.4,832.6)"/>
<path style="fill:none;stroke-width:1.2;stroke-linecap:butt;stroke-linejoin:round;stroke:rgb(0%,0%,0%);stroke-opacity:1;stroke-miterlimit:10;" d="M 132.001563 699.998438 L 132.001563 683.998438 " transform="matrix(1,0,0,-1,-15.4,832.6)"/>
<path style="fill-rule:evenodd;fill:rgb(0%,0%,0%);fill-opacity:1;stroke-width:1.2;stroke-linecap:butt;stroke-linejoin:round;stroke:rgb(0%,0%,0%);stroke-opacity:1;stroke-miterlimit:10;" d="M 132.001563 683.998438 L 134.329688 690.998438 L 129.669531 690.998438 Z M 132.001563 683.998438 " transform="matrix(1,0,0,-1,-15.4,832.6)"/>
<g style="fill:rgb(0%,0%,0%);fill-opacity:1;">
  <use xlink:href="#glyph7-1" x="16.876" y="112.1045"/>
  <use xlink:href="#glyph7-2" x="23.232139" y="112.1045"/>
  <use xlink:href="#glyph7-3" x="28.213439" y="112.1045"/>
  <use xlink:href="#glyph7-4" x="33.35414" y="112.1045"/>
  <use xlink:href="#glyph7-5" x="38.494842" y="112.1045"/>
  <use xlink:href="#glyph7-6" x="40.865941" y="112.1045"/>
  <use xlink:href="#glyph7-5" x="44.462439" y="112.1045"/>
  <use xlink:href="#glyph7-2" x="46.833538" y="112.1045"/>
  <use xlink:href="#glyph7-3" x="51.814838" y="112.1045"/>
  <use xlink:href="#glyph7-7" x="56.95554" y="112.1045"/>
</g>
<g style="fill:rgb(0%,0%,0%);fill-opacity:1;">
  <use xlink:href="#glyph8-1" x="25.939" y="124.0595"/>
  <use xlink:href="#glyph8-2" x="30.721048" y="124.0595"/>
  <use xlink:href="#glyph8-3" x="35.144442" y="124.0595"/>
  <use xlink:href="#glyph8-4" x="38.740941" y="124.0595"/>
  <use xlink:href="#glyph8-5" x="41.11204" y="124.0595"/>
  <use xlink:href="#glyph8-6" x="46.09334" y="124.0595"/>
</g>
<g style="fill:rgb(0%,0%,0%);fill-opacity:1;">
  <use xlink:href="#glyph9-1" x="29.011" y="136.0145"/>
  <use xlink:href="#glyph9-2" x="32.408247" y="136.0145"/>
  <use xlink:href="#glyph9-3" x="37.548948" y="136.0145"/>
  <use xlink:href="#glyph9-4" x="39.920047" y="136.0145"/>
  <use xlink:href="#glyph9-5" x="44.343441" y="136.0145"/>
</g>
<path style="fill:none;stroke-width:1.2;stroke-linecap:butt;stroke-linejoin:round;stroke:rgb(0%,0%,0%);stroke-opacity:1;stroke-miterlimit:10;" d="M 84.001563 711.998438 L 96.001563 711.998438 " transform="matrix(1,0,0,-1,-15.4,832.6)"/>
<path style="fill-rule:evenodd;fill:rgb(0%,0%,0%);fill-opacity:1;stroke-width:1.2;stroke-linecap:butt;stroke-linejoin:round;stroke:rgb(0%,0%,0%);stroke-opacity:1;stroke-miterlimit:10;" d="M 96.001563 711.998438 L 89.001563 714.330469 L 89.001563 709.670313 Z M 96.001563 711.998438 " transform="matrix(1,0,0,-1,-15.4,832.6)"/>
<path style=" stroke:none;fill-rule:evenodd;fill:rgb(96.1%,96.1%,86.3%);fill-opacity:1;" d="M 8.601562 8.601562 L 8.601562 24.601562 L 64.601562 24.601562 L 64.601562 8.601562 Z M 8.601562 8.601562 "/>
<path style=" stroke:none;fill-rule:evenodd;fill:rgb(100%,97.3%,86.3%);fill-opacity:1;" d="M 8.601562 32.601562 L 8.601562 56.601562 L 64.601562 56.601562 L 64.601562 32.601562 Z M 8.601562 32.601562 "/>
<path style=" stroke:none;fill-rule:evenodd;fill:rgb(100%,100%,0%);fill-opacity:1;" d="M 8.601562 64.601562 L 8.601562 88.601562 L 64.601562 88.601562 L 64.601562 64.601562 Z M 8.601562 64.601562 "/>
<g style="fill:rgb(0%,0%,0%);fill-opacity:1;">
  <use xlink:href="#glyph10-1" x="25.627" y="20.059"/>
  <use xlink:href="#glyph10-2" x="31.156243" y="20.059"/>
  <use xlink:href="#glyph10-3" x="34.752742" y="20.059"/>
  <use xlink:href="#glyph10-2" x="39.53479" y="20.059"/>
  <use xlink:href="#glyph10-4" x="43.131288" y="20.059"/>
</g>
<g style="fill:rgb(0%,0%,0%);fill-opacity:1;">
  <use xlink:href="#glyph11-1" x="19.068" y="42.082"/>
  <use xlink:href="#glyph11-2" x="26.121521" y="42.082"/>
  <use xlink:href="#glyph11-3" x="30.823868" y="42.082"/>
  <use xlink:href="#glyph11-4" x="40.955832" y="42.082"/>
  <use xlink:href="#glyph11-5" x="44.552331" y="42.082"/>
  <use xlink:href="#glyph11-6" x="49.693032" y="42.082"/>
</g>
<g style="fill:rgb(0%,0%,0%);fill-opacity:1;">
  <use xlink:href="#glyph12-1" x="9.244" y="54.037"/>
  <use xlink:href="#glyph12-2" x="15.769503" y="54.037"/>
  <use xlink:href="#glyph12-3" x="20.481813" y="54.037"/>
  <use xlink:href="#glyph12-4" x="23.869097" y="54.037"/>
  <use xlink:href="#glyph12-5" x="26.240196" y="54.037"/>
  <use xlink:href="#glyph12-6" x="34.708406" y="54.037"/>
  <use xlink:href="#glyph12-7" x="39.1318" y="54.037"/>
  <use xlink:href="#glyph12-2" x="43.724559" y="54.037"/>
  <use xlink:href="#glyph12-4" x="48.705859" y="54.037"/>
  <use xlink:href="#glyph12-7" x="51.076957" y="54.037"/>
  <use xlink:href="#glyph12-6" x="55.669716" y="54.037"/>
  <use xlink:href="#glyph12-8" x="60.09311" y="54.037"/>
</g>
<g style="fill:rgb(0%,0%,0%);fill-opacity:1;">
  <use xlink:href="#glyph13-1" x="17.214" y="74.082"/>
  <use xlink:href="#glyph13-2" x="26.618694" y="74.082"/>
  <use xlink:href="#glyph13-3" x="31.759396" y="74.082"/>
  <use xlink:href="#glyph13-4" x="36.541444" y="74.082"/>
  <use xlink:href="#glyph13-5" x="43.455488" y="74.082"/>
  <use xlink:href="#glyph13-6" x="51.365793" y="74.082"/>
</g>
<g style="fill:rgb(0%,0%,0%);fill-opacity:1;">
  <use xlink:href="#glyph14-1" x="12.953" y="86.037"/>
  <use xlink:href="#glyph14-2" x="17.735048" y="86.037"/>
  <use xlink:href="#glyph14-3" x="22.158442" y="86.037"/>
  <use xlink:href="#glyph14-4" x="25.754941" y="86.037"/>
  <use xlink:href="#glyph14-5" x="28.12604" y="86.037"/>
  <use xlink:href="#glyph14-6" x="33.10734" y="86.037"/>
  <use xlink:href="#glyph14-7" x="38.248041" y="86.037"/>
  <use xlink:href="#glyph14-8" x="45.381263" y="86.037"/>
  <use xlink:href="#glyph14-5" x="50.521965" y="86.037"/>
  <use xlink:href="#glyph14-9" x="55.503265" y="86.037"/>
</g>
<path style="fill:none;stroke-width:1.2;stroke-linecap:butt;stroke-linejoin:round;stroke:rgb(0%,0%,0%);stroke-opacity:1;stroke-miterlimit:10;" d="M 80.001563 787.998438 L 96.001563 787.998438 " transform="matrix(1,0,0,-1,-15.4,832.6)"/>
<path style="fill-rule:evenodd;fill:rgb(0%,0%,0%);fill-opacity:1;stroke-width:1.2;stroke-linecap:butt;stroke-linejoin:round;stroke:rgb(0%,0%,0%);stroke-opacity:1;stroke-miterlimit:10;" d="M 96.001563 787.998438 L 89.001563 790.330469 L 89.001563 785.670313 Z M 96.001563 787.998438 " transform="matrix(1,0,0,-1,-15.4,832.6)"/>
<path style="fill:none;stroke-width:1.2;stroke-linecap:butt;stroke-linejoin:round;stroke:rgb(0%,0%,0%);stroke-opacity:1;stroke-miterlimit:10;" d="M 80.001563 755.998438 L 96.001563 779.998438 " transform="matrix(1,0,0,-1,-15.4,832.6)"/>
<path style="fill-rule:evenodd;fill:rgb(0%,0%,0%);fill-opacity:1;stroke-width:1.2;stroke-linecap:butt;stroke-linejoin:round;stroke:rgb(0%,0%,0%);stroke-opacity:1;stroke-miterlimit:10;" d="M 96.001563 779.998438 L 90.177344 775.467188 L 94.05625 772.88125 Z M 96.001563 779.998438 " transform="matrix(1,0,0,-1,-15.4,832.6)"/>
<path style="fill:none;stroke-width:1.2;stroke-linecap:butt;stroke-linejoin:round;stroke:rgb(0%,0%,0%);stroke-opacity:1;stroke-miterlimit:10;" d="M 80.001563 815.998438 L 96.001563 791.998438 " transform="matrix(1,0,0,-1,-15.4,832.6)"/>
<path style="fill-rule:evenodd;fill:rgb(0%,0%,0%);fill-opacity:1;stroke-width:1.2;stroke-linecap:butt;stroke-linejoin:round;stroke:rgb(0%,0%,0%);stroke-opacity:1;stroke-miterlimit:10;" d="M 96.001563 791.998438 L 94.05625 799.115625 L 90.177344 796.529688 Z M 96.001563 791.998438 " transform="matrix(1,0,0,-1,-15.4,832.6)"/>
<path style="fill:none;stroke-width:1.2;stroke-linecap:butt;stroke-linejoin:round;stroke:rgb(0%,0%,0%);stroke-opacity:1;stroke-miterlimit:10;" d="M 104.001563 803.998438 C 96.001563 819.998438 90.001563 825.998438 81.001563 828.998438 C 72.001563 831.998438 60.001562 831.998438 48.001562 823.998438 " transform="matrix(1,0,0,-1,-15.4,832.6)"/>
<path style="fill-rule:evenodd;fill:rgb(0%,0%,0%);fill-opacity:1;stroke-width:1.2;stroke-linecap:butt;stroke-linejoin:round;stroke:rgb(0%,0%,0%);stroke-opacity:1;stroke-miterlimit:10;" d="M 48.001562 823.998438 L 55.11875 825.94375 L 52.532812 829.822656 Z M 48.001562 823.998438 " transform="matrix(1,0,0,-1,-15.4,832.6)"/>
<g style="fill:rgb(0%,0%,0%);fill-opacity:1;">
  <use xlink:href="#glyph15-1" x="4.6" y="156.6"/>
  <use xlink:href="#glyph15-2" x="10.956139" y="156.6"/>
  <use xlink:href="#glyph15-3" x="17.59123" y="156.6"/>
  <use xlink:href="#glyph15-4" x="23.538903" y="156.6"/>
  <use xlink:href="#glyph15-5" x="30.592423" y="156.6"/>
</g>
</g>
</svg>
