<?xml version="1.0" encoding="UTF-8"?>
<svg xmlns="http://www.w3.org/2000/svg" xmlns:xlink="http://www.w3.org/1999/xlink" width="294pt" height="170pt" viewBox="0 0 294 170" version="1.1">
<defs>
<g>
<symbol overflow="visible" id="glyph0-0">
<path style="stroke:none;" d=""/>
</symbol>
<symbol overflow="visible" id="glyph0-1">
<path style="stroke:none;" d="M 12.96875 -18.578125 C 11.4375 -19.5 9.90625 -19.96875 7.859375 -19.96875 C 3.984375 -19.96875 1.5625 -17.234375 1.5625 -14.46875 C 1.5625 -13.28125 1.953125 -12.109375 3.0625 -10.9375 C 4.234375 -9.671875 5.46875 -9.34375 7.109375 -8.953125 C 9.484375 -8.375 9.765625 -8.28125 10.546875 -7.59375 C 11.09375 -7.109375 11.71875 -6.1875 11.71875 -5 C 11.71875 -3.15625 10.1875 -1.3125 7.640625 -1.3125 C 6.5 -1.3125 3.984375 -1.59375 1.640625 -3.5625 L 1.234375 -1.3125 C 3.6875 0.21875 5.90625 0.609375 7.671875 0.609375 C 11.34375 0.609375 13.921875 -2.203125 13.921875 -5.265625 C 13.921875 -7.078125 13.046875 -8.421875 12.4375 -9.09375 C 11.125 -10.484375 10.203125 -10.734375 7.640625 -11.375 C 6.03125 -11.765625 5.578125 -11.875 4.734375 -12.609375 C 4.546875 -12.78125 3.765625 -13.578125 3.765625 -14.8125 C 3.765625 -16.453125 5.265625 -18.125 7.84375 -18.125 C 10.1875 -18.125 11.515625 -17.203125 12.546875 -16.34375 Z M 12.96875 -18.578125 "/>
</symbol>
<symbol overflow="visible" id="glyph0-2">
<path style="stroke:none;" d="M 10.515625 -19.359375 L 8.0625 -19.359375 L 0.78125 0 L 2.84375 0 L 5 -5.6875 L 13.109375 -5.6875 L 15.234375 0 L 17.796875 0 Z M 12.5 -7.25 L 5.578125 -7.25 L 7.390625 -12.296875 C 7.984375 -13.953125 8.84375 -16.3125 9.03125 -17.34375 L 9.0625 -17.34375 C 9.125 -16.953125 9.3125 -16.265625 9.953125 -14.421875 Z M 12.5 -7.25 "/>
</symbol>
<symbol overflow="visible" id="glyph0-3">
<path style="stroke:none;" d="M 2.703125 -19.359375 L 2.703125 0 L 10.0625 0 C 14.078125 0 17.015625 -2.515625 17.015625 -5.25 C 17.015625 -7.671875 14.59375 -9.65625 11.625 -10.125 C 14.171875 -10.765625 16.265625 -12.390625 16.265625 -14.5 C 16.265625 -17.0625 13.28125 -19.359375 9.3125 -19.359375 Z M 5.015625 -10.90625 L 5.015625 -17.796875 L 8.53125 -17.796875 C 11.625 -17.796875 14.078125 -16.3125 14.078125 -14.46875 C 14.078125 -12.796875 12.109375 -10.90625 8.25 -10.90625 Z M 5.015625 -1.5625 L 5.015625 -9.203125 L 9.0625 -9.203125 C 12.015625 -9.203125 14.75 -7.5 14.75 -5.265625 C 14.75 -3.171875 12.296875 -1.5625 9.28125 -1.5625 Z M 5.015625 -1.5625 "/>
</symbol>
<symbol overflow="visible" id="glyph0-4">
<path style="stroke:none;" d="M 16.234375 -3.171875 C 14.59375 -2.09375 13.640625 -1.5 10.875 -1.5 C 6.859375 -1.5 4.34375 -5.6875 4.34375 -9.703125 C 4.34375 -13.5 6.671875 -17.875 10.9375 -17.875 C 12.90625 -17.875 14.171875 -17.40625 15.703125 -16.421875 L 16.09375 -18.71875 C 14.890625 -19.296875 12.75 -19.65625 10.96875 -19.65625 C 5.796875 -19.65625 1.84375 -15.3125 1.84375 -9.453125 C 1.84375 -5.046875 5.15625 0.3125 10.96875 0.3125 C 13.53125 0.3125 14.59375 -0.140625 16.40625 -1.25 Z M 16.234375 -3.171875 "/>
</symbol>
<symbol overflow="visible" id="glyph0-5">
<path style="stroke:none;" d="M 2.671875 -19.359375 L 2.671875 0 L 10.015625 0 C 14.75 0 18.546875 -4.234375 18.546875 -9.515625 C 18.546875 -14.921875 14.78125 -19.359375 9.984375 -19.359375 Z M 5.078125 -1.5625 L 5.078125 -17.796875 L 9.34375 -17.796875 C 13.25 -17.796875 16.15625 -14.421875 16.15625 -9.515625 C 16.15625 -4.765625 13.25 -1.5625 9.34375 -1.5625 Z M 5.078125 -1.5625 "/>
</symbol>
<symbol overflow="visible" id="glyph0-6">
<path style="stroke:none;" d="M 14.3125 -9.171875 L 14.3125 -10.875 L 5.109375 -10.875 L 5.109375 -17.484375 L 8.953125 -17.484375 C 9.28125 -17.484375 9.625 -17.453125 9.953125 -17.453125 L 15.0625 -17.453125 L 15.0625 -19.265625 L 2.625 -19.265625 L 2.625 0 L 15.453125 0 L 15.453125 -1.984375 L 11.9375 -1.984375 C 11.609375 -1.984375 11.265625 -1.953125 10.9375 -1.953125 L 5.109375 -1.953125 L 5.109375 -9.171875 Z M 14.3125 -9.171875 "/>
</symbol>
<symbol overflow="visible" id="glyph0-7">
<path style="stroke:none;" d="M 16.734375 -8.34375 L 10.84375 -8.34375 L 10.84375 -6.609375 L 14.53125 -6.609375 L 14.53125 -2.0625 C 13.421875 -1.671875 12.078125 -1.484375 10.875 -1.484375 C 7.203125 -1.484375 4.34375 -5.1875 4.34375 -9.703125 C 4.34375 -14.078125 7.140625 -17.875 10.828125 -17.875 C 13.078125 -17.875 14.671875 -17.203125 16.09375 -16.03125 L 16.484375 -18.328125 C 14.921875 -19.296875 12.75 -19.6875 10.90625 -19.6875 C 5.515625 -19.6875 1.84375 -14.8125 1.84375 -9.703125 C 1.84375 -4.625 5.546875 0.3125 10.90625 0.3125 C 12.96875 0.3125 14.859375 -0.25 16.734375 -1.0625 Z M 16.734375 -8.34375 "/>
</symbol>
<symbol overflow="visible" id="glyph1-0">
<path style="stroke:none;" d=""/>
</symbol>
<symbol overflow="visible" id="glyph1-1">
<path style="stroke:none;" d="M 2.5625 -14.328125 C 3.375 -16.28125 5.1875 -17.296875 6.890625 -17.296875 C 8.34375 -17.296875 9.703125 -16.453125 9.703125 -14.671875 C 9.703125 -12.96875 8.5625 -11.328125 6.859375 -10.9375 C 6.6875 -10.90625 6.640625 -10.90625 4.65625 -10.734375 L 4.65625 -9.03125 L 6.640625 -9.03125 C 9.65625 -9.03125 10.265625 -6.4375 10.265625 -5.046875 C 10.265625 -2.875 8.984375 -1.09375 6.828125 -1.09375 C 4.90625 -1.09375 2.703125 -2.0625 1.484375 -3.953125 L 1.171875 -2.28125 C 3.203125 0.328125 5.765625 0.609375 6.890625 0.609375 C 10.296875 0.609375 12.75 -2.09375 12.75 -5.015625 C 12.75 -7.5625 10.796875 -9.28125 8.890625 -9.875 C 11.015625 -11.015625 12 -12.90625 12 -14.671875 C 12 -17.0625 9.671875 -18.90625 6.921875 -18.90625 C 4.765625 -18.90625 2.734375 -17.796875 1.5625 -15.84375 Z M 2.5625 -14.328125 "/>
</symbol>
<symbol overflow="visible" id="glyph1-2">
<path style="stroke:none;" d="M 10.375 -4.765625 L 13.140625 -4.765625 L 13.140625 -6.46875 L 10.375 -6.46875 L 10.375 -18.296875 L 7.84375 -18.296875 L 0.78125 -6.46875 L 0.78125 -4.765625 L 8.171875 -4.765625 L 8.171875 0 L 10.375 0 Z M 2.953125 -6.46875 C 4.40625 -8.875 8.34375 -15.484375 8.34375 -17.0625 L 8.34375 -6.46875 Z M 2.953125 -6.46875 "/>
</symbol>
<symbol overflow="visible" id="glyph1-3">
<path style="stroke:none;" d="M 8.921875 -9.90625 C 11.40625 -10.703125 12.359375 -12.546875 12.359375 -14.03125 C 12.359375 -16.65625 9.984375 -18.90625 6.96875 -18.90625 C 3.84375 -18.90625 1.5625 -16.59375 1.5625 -14.03125 C 1.5625 -12.546875 2.515625 -10.703125 5 -9.90625 C 2.984375 -9.203125 1.171875 -7.453125 1.171875 -5.015625 C 1.171875 -1.984375 3.734375 0.609375 6.9375 0.609375 C 10.265625 0.609375 12.75 -2.0625 12.75 -5.015625 C 12.75 -7.5625 10.796875 -9.265625 8.921875 -9.90625 Z M 6.96875 -10.734375 C 4.828125 -10.734375 3.515625 -12.109375 3.515625 -14.03125 C 3.515625 -15.953125 4.875 -17.296875 6.9375 -17.296875 C 9.140625 -17.296875 10.40625 -15.84375 10.40625 -14.03125 C 10.40625 -12.015625 8.984375 -10.734375 6.96875 -10.734375 Z M 6.96875 -1.09375 C 5.046875 -1.09375 3.4375 -2.421875 3.4375 -5.046875 C 3.4375 -7.984375 5.4375 -9.03125 6.9375 -9.03125 C 8.5625 -9.03125 10.484375 -7.921875 10.484375 -5.046875 C 10.484375 -2.34375 8.75 -1.09375 6.96875 -1.09375 Z M 6.96875 -1.09375 "/>
</symbol>
<symbol overflow="visible" id="glyph1-4">
<path style="stroke:none;" d="M 4.859375 -5.25 L 1.390625 -1.78125 L 1.390625 0 L 12.515625 0 L 12.515625 -1.984375 L 7.453125 -1.984375 C 7.109375 -1.984375 6.78125 -1.953125 6.4375 -1.953125 L 3.40625 -1.953125 C 4.296875 -2.734375 6.421875 -4.828125 7.28125 -5.640625 C 7.8125 -6.140625 9.234375 -7.3125 9.765625 -7.8125 C 11.015625 -9.0625 12.515625 -10.546875 12.515625 -12.90625 C 12.515625 -16.125 10.265625 -18.90625 6.578125 -18.90625 C 3.40625 -18.90625 1.84375 -16.734375 1.171875 -14.328125 C 1.5 -13.859375 1.640625 -13.6875 1.703125 -13.609375 C 1.75 -13.5625 2.03125 -13.1875 2.3125 -12.796875 C 2.875 -14.953125 3.65625 -17.125 6.1875 -17.125 C 8.8125 -17.125 10.234375 -15.03125 10.234375 -12.859375 C 10.234375 -10.484375 8.640625 -8.890625 7 -7.21875 Z M 4.859375 -5.25 "/>
</symbol>
<symbol overflow="visible" id="glyph1-5">
<path style="stroke:none;" d="M 11.578125 -18.359375 C 10.15625 -18.90625 9.015625 -18.90625 8.625 -18.90625 C 4.6875 -18.90625 1.171875 -14.984375 1.171875 -8.984375 C 1.171875 -1.09375 4.625 0.609375 7 0.609375 C 8.671875 0.609375 9.875 -0.03125 10.96875 -1.28125 C 12.21875 -2.703125 12.75 -3.984375 12.75 -6.1875 C 12.75 -9.765625 10.90625 -12.890625 8.234375 -12.890625 C 7.328125 -12.890625 5.21875 -12.65625 3.515625 -10.578125 C 3.875 -15.0625 6.078125 -17.296875 8.640625 -17.296875 C 9.703125 -17.296875 10.59375 -17.09375 11.578125 -16.703125 Z M 3.546875 -6.109375 C 3.546875 -6.5 3.546875 -6.546875 3.5625 -6.890625 C 3.5625 -8.953125 4.828125 -11.1875 7.140625 -11.1875 C 8.484375 -11.1875 9.265625 -10.484375 9.8125 -9.453125 C 10.40625 -8.421875 10.453125 -7.453125 10.453125 -6.1875 C 10.453125 -5.25 10.453125 -3.953125 9.796875 -2.8125 C 9.3125 -2.03125 8.59375 -1.09375 7 -1.09375 C 4.046875 -1.09375 3.625 -5.1875 3.546875 -6.109375 Z M 3.546875 -6.109375 "/>
</symbol>
<symbol overflow="visible" id="glyph1-6">
<path style="stroke:none;" d="M 8.34375 -18.90625 L 7.78125 -18.90625 C 6.140625 -17.203125 3.828125 -17.125 2.484375 -17.0625 L 2.484375 -15.453125 C 3.40625 -15.484375 4.734375 -15.53125 6.140625 -16.125 L 6.140625 -1.625 L 2.65625 -1.625 L 2.65625 0 L 11.828125 0 L 11.828125 -1.625 L 8.34375 -1.625 Z M 8.34375 -18.90625 "/>
</symbol>
</g>
</defs>
<g id="surface1">
<path style="fill:none;stroke-width:2.4;stroke-linecap:butt;stroke-linejoin:round;stroke:rgb(0%,0%,0%);stroke-opacity:1;stroke-miterlimit:10;" d="M 49.231925 428.993843 C 49.231925 438.364937 41.634269 445.962593 32.263175 445.962593 C 22.888175 445.962593 15.290519 438.364937 15.290519 428.993843 C 15.290519 419.618843 22.888175 412.021187 32.263175 412.021187 C 41.634269 412.021187 49.231925 419.618843 49.231925 428.993843 Z M 49.231925 428.993843 " transform="matrix(1,0,0,-1,-13.5913,516.279)"/>
<path style="fill:none;stroke-width:2.4;stroke-linecap:butt;stroke-linejoin:round;stroke:rgb(0%,0%,0%);stroke-opacity:1;stroke-miterlimit:10;" d="M 129.700675 425.443062 C 129.700675 434.814156 122.103019 442.415718 112.731925 442.415718 C 103.356925 442.415718 95.759269 434.814156 95.759269 425.443062 C 95.759269 416.071968 103.356925 408.474312 112.731925 408.474312 C 122.103019 408.474312 129.700675 416.071968 129.700675 425.443062 Z M 129.700675 425.443062 " transform="matrix(1,0,0,-1,-13.5913,516.279)"/>
<path style="fill:none;stroke-width:2.4;stroke-linecap:butt;stroke-linejoin:round;stroke:rgb(0%,0%,0%);stroke-opacity:1;stroke-miterlimit:10;" d="M 129.700675 489.443062 C 129.700675 498.814156 122.103019 506.415718 112.731925 506.415718 C 103.356925 506.415718 95.759269 498.814156 95.759269 489.443062 C 95.759269 480.071968 103.356925 472.474312 112.731925 472.474312 C 122.103019 472.474312 129.700675 480.071968 129.700675 489.443062 Z M 129.700675 489.443062 " transform="matrix(1,0,0,-1,-13.5913,516.279)"/>
<path style="fill:none;stroke-width:2.4;stroke-linecap:butt;stroke-linejoin:round;stroke:rgb(0%,0%,0%);stroke-opacity:1;stroke-miterlimit:10;" d="M 225.700675 429.443062 C 225.700675 438.814156 218.103019 446.415718 208.731925 446.415718 C 199.356925 446.415718 191.759269 438.814156 191.759269 429.443062 C 191.759269 420.071968 199.356925 412.474312 208.731925 412.474312 C 218.103019 412.474312 225.700675 420.071968 225.700675 429.443062 Z M 225.700675 429.443062 " transform="matrix(1,0,0,-1,-13.5913,516.279)"/>
<path style="fill:none;stroke-width:2.4;stroke-linecap:butt;stroke-linejoin:round;stroke:rgb(0%,0%,0%);stroke-opacity:1;stroke-miterlimit:10;" d="M 305.700675 429.443062 C 305.700675 438.814156 298.103019 446.415718 288.731925 446.415718 C 279.356925 446.415718 271.759269 438.814156 271.759269 429.443062 C 271.759269 420.071968 279.356925 412.474312 288.731925 412.474312 C 298.103019 412.474312 305.700675 420.071968 305.700675 429.443062 Z M 305.700675 429.443062 " transform="matrix(1,0,0,-1,-13.5913,516.279)"/>
<path style="fill:none;stroke-width:2.4;stroke-linecap:butt;stroke-linejoin:round;stroke:rgb(0%,0%,0%);stroke-opacity:1;stroke-miterlimit:10;" d="M 225.700675 489.443062 C 225.700675 498.814156 218.103019 506.415718 208.731925 506.415718 C 199.356925 506.415718 191.759269 498.814156 191.759269 489.443062 C 191.759269 480.071968 199.356925 472.474312 208.731925 472.474312 C 218.103019 472.474312 225.700675 480.071968 225.700675 489.443062 Z M 225.700675 489.443062 " transform="matrix(1,0,0,-1,-13.5913,516.279)"/>
<path style="fill:none;stroke-width:2.4;stroke-linecap:butt;stroke-linejoin:round;stroke:rgb(0%,0%,0%);stroke-opacity:1;stroke-miterlimit:10;" d="M 225.700675 365.443062 C 225.700675 374.814156 218.103019 382.415718 208.731925 382.415718 C 199.356925 382.415718 191.759269 374.814156 191.759269 365.443062 C 191.759269 356.071968 199.356925 348.474312 208.731925 348.474312 C 218.103019 348.474312 225.700675 356.071968 225.700675 365.443062 Z M 225.700675 365.443062 " transform="matrix(1,0,0,-1,-13.5913,516.279)"/>
<g style="fill:rgb(0%,0%,0%);fill-opacity:1;">
  <use xlink:href="#glyph0-1" x="10.9216" y="96.972"/>
</g>
<g style="fill:rgb(0%,0%,0%);fill-opacity:1;">
  <use xlink:href="#glyph0-2" x="89.8401" y="100.521"/>
</g>
<g style="fill:rgb(0%,0%,0%);fill-opacity:1;">
  <use xlink:href="#glyph0-3" x="89.8401" y="36.521"/>
</g>
<g style="fill:rgb(0%,0%,0%);fill-opacity:1;">
  <use xlink:href="#glyph0-4" x="186.2279" y="160.521"/>
</g>
<g style="fill:rgb(0%,0%,0%);fill-opacity:1;">
  <use xlink:href="#glyph0-5" x="185.0659" y="96.521"/>
</g>
<g style="fill:rgb(0%,0%,0%);fill-opacity:1;">
  <use xlink:href="#glyph0-6" x="186.8089" y="36.521"/>
</g>
<g style="fill:rgb(0%,0%,0%);fill-opacity:1;">
  <use xlink:href="#glyph0-7" x="265.8397" y="96.521"/>
</g>
<path style="fill:none;stroke-width:2.4;stroke-linecap:butt;stroke-linejoin:round;stroke:rgb(0%,0%,0%);stroke-opacity:1;stroke-miterlimit:10;" d="M 49.231925 429.068062 L 96.220206 429.37275 " transform="matrix(1,0,0,-1,-13.5913,516.279)"/>
<path style="fill:none;stroke-width:2.4;stroke-linecap:butt;stroke-linejoin:round;stroke:rgb(0%,0%,0%);stroke-opacity:1;stroke-miterlimit:10;" d="M 129.501456 428.044625 L 191.806144 428.181343 " transform="matrix(1,0,0,-1,-13.5913,516.279)"/>
<path style="fill:none;stroke-width:2.4;stroke-linecap:butt;stroke-linejoin:round;stroke:rgb(0%,0%,0%);stroke-opacity:1;stroke-miterlimit:10;" d="M 225.673331 428.458687 L 271.774894 428.693062 " transform="matrix(1,0,0,-1,-13.5913,516.279)"/>
<path style="fill:none;stroke-width:2.4;stroke-linecap:butt;stroke-linejoin:round;stroke:rgb(0%,0%,0%);stroke-opacity:1;stroke-miterlimit:10;" d="M 42.642081 442.415718 L 97.790519 481.392281 " transform="matrix(1,0,0,-1,-13.5913,516.279)"/>
<path style="fill:none;stroke-width:2.4;stroke-linecap:butt;stroke-linejoin:round;stroke:rgb(0%,0%,0%);stroke-opacity:1;stroke-miterlimit:10;" d="M 112.157706 442.404 L 112.212394 472.482125 " transform="matrix(1,0,0,-1,-13.5913,516.279)"/>
<path style="fill:none;stroke-width:2.4;stroke-linecap:butt;stroke-linejoin:round;stroke:rgb(0%,0%,0%);stroke-opacity:1;stroke-miterlimit:10;" d="M 44.798331 417.552437 L 191.7788 364.673531 " transform="matrix(1,0,0,-1,-13.5913,516.279)"/>
<path style="fill:none;stroke-width:2.4;stroke-linecap:butt;stroke-linejoin:round;stroke:rgb(0%,0%,0%);stroke-opacity:1;stroke-miterlimit:10;" d="M 129.536612 491.786812 L 191.849112 491.193062 " transform="matrix(1,0,0,-1,-13.5913,516.279)"/>
<path style="fill:none;stroke-width:2.4;stroke-linecap:butt;stroke-linejoin:round;stroke:rgb(0%,0%,0%);stroke-opacity:1;stroke-miterlimit:10;" d="M 208.161612 472.482125 L 208.181144 446.404 " transform="matrix(1,0,0,-1,-13.5913,516.279)"/>
<path style="fill:none;stroke-width:2.4;stroke-linecap:butt;stroke-linejoin:round;stroke:rgb(0%,0%,0%);stroke-opacity:1;stroke-miterlimit:10;" d="M 208.798331 412.474312 L 208.802237 382.411812 " transform="matrix(1,0,0,-1,-13.5913,516.279)"/>
<g style="fill:rgb(0%,0%,0%);fill-opacity:1;">
  <use xlink:href="#glyph1-1" x="50.6706" y="47.2868"/>
</g>
<g style="fill:rgb(0%,0%,0%);fill-opacity:1;">
  <use xlink:href="#glyph1-2" x="50.6706" y="83.2868"/>
</g>
<g style="fill:rgb(0%,0%,0%);fill-opacity:1;">
  <use xlink:href="#glyph1-3" x="50.6706" y="135.2868"/>
</g>
<g style="fill:rgb(0%,0%,0%);fill-opacity:1;">
  <use xlink:href="#glyph1-4" x="106.6706" y="67.2868"/>
</g>
<g style="fill:rgb(0%,0%,0%);fill-opacity:1;">
  <use xlink:href="#glyph1-5" x="138.6706" y="19.2868"/>
</g>
<g style="fill:rgb(0%,0%,0%);fill-opacity:1;">
  <use xlink:href="#glyph1-1" x="138.6706" y="79.2868"/>
</g>
<g style="fill:rgb(0%,0%,0%);fill-opacity:1;">
  <use xlink:href="#glyph1-2" x="202.6706" y="59.2868"/>
</g>
<g style="fill:rgb(0%,0%,0%);fill-opacity:1;">
  <use xlink:href="#glyph1-4" x="206.6706" y="119.2868"/>
</g>
<g style="fill:rgb(0%,0%,0%);fill-opacity:1;">
  <use xlink:href="#glyph1-2" x="222.6706" y="83.2868"/>
</g>
<path style="fill:none;stroke-width:2.4;stroke-linecap:butt;stroke-linejoin:round;stroke:rgb(0%,0%,0%);stroke-opacity:1;stroke-miterlimit:10;" d="M 225.18505 485.298531 L 276.103019 440.782906 " transform="matrix(1,0,0,-1,-13.5913,516.279)"/>
<path style="fill:none;stroke-width:2.4;stroke-linecap:butt;stroke-linejoin:round;stroke:rgb(0%,0%,0%);stroke-opacity:1;stroke-miterlimit:10;" d="M 225.696769 365.021187 L 280.06005 414.853218 " transform="matrix(1,0,0,-1,-13.5913,516.279)"/>
<g style="fill:rgb(0%,0%,0%);fill-opacity:1;">
  <use xlink:href="#glyph1-6" x="242.6706" y="47.2868"/>
</g>
<g style="fill:rgb(0%,0%,0%);fill-opacity:1;">
  <use xlink:href="#glyph1-1" x="242.6706" y="143.2868"/>
</g>
</g>
</svg>
