<?xml version="1.0" encoding="UTF-8"?>
<svg xmlns="http://www.w3.org/2000/svg" xmlns:xlink="http://www.w3.org/1999/xlink" width="618pt" height="406pt" viewBox="0 0 618 406" version="1.1">
<defs>
<g>
<symbol overflow="visible" id="glyph0-0">
<path style="stroke:none;" d=""/>
</symbol>
<symbol overflow="visible" id="glyph0-1">
<path style="stroke:none;" d="M 4.265625 -16.515625 L 11.609375 -16.515625 L 11.609375 -18.296875 L 2.265625 -18.296875 L 2.265625 -8 L 4.09375 -8 C 4.578125 -9.125 5.609375 -10.203125 7.21875 -10.203125 C 8.53125 -10.203125 10.046875 -9.0625 10.046875 -5.71875 C 10.046875 -1.09375 6.640625 -1.09375 6.390625 -1.09375 C 4.515625 -1.09375 2.8125 -2.171875 2.015625 -3.6875 L 1.09375 -2.125 C 2.234375 -0.53125 4.15625 0.609375 6.421875 0.609375 C 9.734375 0.609375 12.515625 -2.140625 12.515625 -5.65625 C 12.515625 -9.140625 10.125 -11.90625 7.25 -11.90625 C 6.140625 -11.90625 5.078125 -11.484375 4.265625 -10.765625 Z M 4.265625 -16.515625 "/>
</symbol>
<symbol overflow="visible" id="glyph0-2">
<path style="stroke:none;" d="M 12.75 -9.09375 C 12.75 -11.296875 12.640625 -13.890625 11.46875 -16.15625 C 10.3125 -18.234375 8.390625 -18.90625 6.96875 -18.90625 C 5.328125 -18.90625 3.375 -18.15625 2.234375 -15.671875 C 1.3125 -13.640625 1.171875 -11.328125 1.171875 -9.09375 C 1.171875 -6.890625 1.28125 -4.859375 2.125 -2.8125 C 3.234375 -0.140625 5.359375 0.609375 6.9375 0.609375 C 8.984375 0.609375 10.734375 -0.53125 11.625 -2.453125 C 12.46875 -4.265625 12.75 -6.109375 12.75 -9.09375 Z M 6.96875 -1.09375 C 5.515625 -1.09375 4.375 -2.140625 3.828125 -4.15625 C 3.375 -5.75 3.34375 -7.25 3.34375 -9.421875 C 3.34375 -11.1875 3.34375 -12.859375 3.828125 -14.390625 C 3.984375 -14.921875 4.6875 -17.203125 6.9375 -17.203125 C 9.125 -17.203125 9.84375 -15.09375 10.046875 -14.59375 C 10.578125 -13.03125 10.578125 -11.15625 10.578125 -9.421875 C 10.578125 -7.59375 10.578125 -5.828125 10.0625 -4.078125 C 9.34375 -1.53125 7.859375 -1.09375 6.96875 -1.09375 Z M 6.96875 -1.09375 "/>
</symbol>
<symbol overflow="visible" id="glyph0-3">
<path style="stroke:none;" d="M 2.015625 -0.671875 C 2.953125 0.03125 3.984375 0.609375 5.71875 0.609375 C 9.375 0.609375 12.75 -3.265625 12.75 -9.34375 C 12.75 -17.15625 9.421875 -18.90625 7.0625 -18.90625 C 5.109375 -18.90625 3.953125 -18.078125 2.984375 -17.046875 C 1.234375 -15.140625 1.171875 -13.296875 1.171875 -12.109375 C 1.171875 -8.53125 3.015625 -5.40625 5.6875 -5.40625 C 7.421875 -5.40625 9.203125 -6.21875 10.40625 -7.71875 C 10.09375 -3.234375 7.953125 -1.09375 5.75 -1.09375 C 4.796875 -1.09375 3.875 -1.3125 2.875 -2.140625 Z M 10.3125 -12.125 C 10.34375 -11.9375 10.34375 -11.65625 10.34375 -11.46875 C 10.34375 -9.171875 8.984375 -7.109375 6.78125 -7.109375 C 5.46875 -7.109375 4.6875 -7.75 4.09375 -8.78125 C 3.484375 -9.875 3.453125 -10.90625 3.453125 -12.109375 C 3.453125 -13.328125 3.484375 -14.46875 4.265625 -15.703125 C 4.828125 -16.515625 5.609375 -17.296875 7.0625 -17.296875 C 9.796875 -17.296875 10.265625 -13.5 10.3125 -12.125 Z M 10.3125 -12.125 "/>
</symbol>
<symbol overflow="visible" id="glyph0-4">
<path style="stroke:none;" d="M 11.578125 -18.359375 C 10.15625 -18.90625 9.015625 -18.90625 8.625 -18.90625 C 4.6875 -18.90625 1.171875 -14.984375 1.171875 -8.984375 C 1.171875 -1.09375 4.625 0.609375 7 0.609375 C 8.671875 0.609375 9.875 -0.03125 10.96875 -1.28125 C 12.21875 -2.703125 12.75 -3.984375 12.75 -6.1875 C 12.75 -9.765625 10.90625 -12.890625 8.234375 -12.890625 C 7.328125 -12.890625 5.21875 -12.65625 3.515625 -10.578125 C 3.875 -15.0625 6.078125 -17.296875 8.640625 -17.296875 C 9.703125 -17.296875 10.59375 -17.09375 11.578125 -16.703125 Z M 3.546875 -6.109375 C 3.546875 -6.5 3.546875 -6.546875 3.5625 -6.890625 C 3.5625 -8.953125 4.828125 -11.1875 7.140625 -11.1875 C 8.484375 -11.1875 9.265625 -10.484375 9.8125 -9.453125 C 10.40625 -8.421875 10.453125 -7.453125 10.453125 -6.1875 C 10.453125 -5.25 10.453125 -3.953125 9.796875 -2.8125 C 9.3125 -2.03125 8.59375 -1.09375 7 -1.09375 C 4.046875 -1.09375 3.625 -5.1875 3.546875 -6.109375 Z M 3.546875 -6.109375 "/>
</symbol>
<symbol overflow="visible" id="glyph0-5">
<path style="stroke:none;" d="M 4.859375 -5.25 L 1.390625 -1.78125 L 1.390625 0 L 12.515625 0 L 12.515625 -1.984375 L 7.453125 -1.984375 C 7.109375 -1.984375 6.78125 -1.953125 6.4375 -1.953125 L 3.40625 -1.953125 C 4.296875 -2.734375 6.421875 -4.828125 7.28125 -5.640625 C 7.8125 -6.140625 9.234375 -7.3125 9.765625 -7.8125 C 11.015625 -9.0625 12.515625 -10.546875 12.515625 -12.90625 C 12.515625 -16.125 10.265625 -18.90625 6.578125 -18.90625 C 3.40625 -18.90625 1.84375 -16.734375 1.171875 -14.328125 C 1.5 -13.859375 1.640625 -13.6875 1.703125 -13.609375 C 1.75 -13.5625 2.03125 -13.1875 2.3125 -12.796875 C 2.875 -14.953125 3.65625 -17.125 6.1875 -17.125 C 8.8125 -17.125 10.234375 -15.03125 10.234375 -12.859375 C 10.234375 -10.484375 8.640625 -8.890625 7 -7.21875 Z M 4.859375 -5.25 "/>
</symbol>
<symbol overflow="visible" id="glyph0-6">
<path style="stroke:none;" d="M 8.34375 -18.90625 L 7.78125 -18.90625 C 6.140625 -17.203125 3.828125 -17.125 2.484375 -17.0625 L 2.484375 -15.453125 C 3.40625 -15.484375 4.734375 -15.53125 6.140625 -16.125 L 6.140625 -1.625 L 2.65625 -1.625 L 2.65625 0 L 11.828125 0 L 11.828125 -1.625 L 8.34375 -1.625 Z M 8.34375 -18.90625 "/>
</symbol>
<symbol overflow="visible" id="glyph0-7">
<path style="stroke:none;" d="M 6.46875 -16.3125 C 6.8125 -16.3125 7.140625 -16.34375 7.46875 -16.34375 L 10.84375 -16.34375 C 6.71875 -11.796875 4.234375 -6.21875 4.234375 0.3125 L 6.578125 0.3125 C 6.578125 -8.0625 10.578125 -14.03125 12.75 -16.484375 L 12.75 -18.296875 L 1.171875 -18.296875 L 1.171875 -16.3125 Z M 6.46875 -16.3125 "/>
</symbol>
<symbol overflow="visible" id="glyph0-8">
<path style="stroke:none;" d="M 10.375 -4.765625 L 13.140625 -4.765625 L 13.140625 -6.46875 L 10.375 -6.46875 L 10.375 -18.296875 L 7.84375 -18.296875 L 0.78125 -6.46875 L 0.78125 -4.765625 L 8.171875 -4.765625 L 8.171875 0 L 10.375 0 Z M 2.953125 -6.46875 C 4.40625 -8.875 8.34375 -15.484375 8.34375 -17.0625 L 8.34375 -6.46875 Z M 2.953125 -6.46875 "/>
</symbol>
<symbol overflow="visible" id="glyph0-9">
<path style="stroke:none;" d="M 8.921875 -9.90625 C 11.40625 -10.703125 12.359375 -12.546875 12.359375 -14.03125 C 12.359375 -16.65625 9.984375 -18.90625 6.96875 -18.90625 C 3.84375 -18.90625 1.5625 -16.59375 1.5625 -14.03125 C 1.5625 -12.546875 2.515625 -10.703125 5 -9.90625 C 2.984375 -9.203125 1.171875 -7.453125 1.171875 -5.015625 C 1.171875 -1.984375 3.734375 0.609375 6.9375 0.609375 C 10.265625 0.609375 12.75 -2.0625 12.75 -5.015625 C 12.75 -7.5625 10.796875 -9.265625 8.921875 -9.90625 Z M 6.96875 -10.734375 C 4.828125 -10.734375 3.515625 -12.109375 3.515625 -14.03125 C 3.515625 -15.953125 4.875 -17.296875 6.9375 -17.296875 C 9.140625 -17.296875 10.40625 -15.84375 10.40625 -14.03125 C 10.40625 -12.015625 8.984375 -10.734375 6.96875 -10.734375 Z M 6.96875 -1.09375 C 5.046875 -1.09375 3.4375 -2.421875 3.4375 -5.046875 C 3.4375 -7.984375 5.4375 -9.03125 6.9375 -9.03125 C 8.5625 -9.03125 10.484375 -7.921875 10.484375 -5.046875 C 10.484375 -2.34375 8.75 -1.09375 6.96875 -1.09375 Z M 6.96875 -1.09375 "/>
</symbol>
<symbol overflow="visible" id="glyph0-10">
<path style="stroke:none;" d="M 2.5625 -14.328125 C 3.375 -16.28125 5.1875 -17.296875 6.890625 -17.296875 C 8.34375 -17.296875 9.703125 -16.453125 9.703125 -14.671875 C 9.703125 -12.96875 8.5625 -11.328125 6.859375 -10.9375 C 6.6875 -10.90625 6.640625 -10.90625 4.65625 -10.734375 L 4.65625 -9.03125 L 6.640625 -9.03125 C 9.65625 -9.03125 10.265625 -6.4375 10.265625 -5.046875 C 10.265625 -2.875 8.984375 -1.09375 6.828125 -1.09375 C 4.90625 -1.09375 2.703125 -2.0625 1.484375 -3.953125 L 1.171875 -2.28125 C 3.203125 0.328125 5.765625 0.609375 6.890625 0.609375 C 10.296875 0.609375 12.75 -2.09375 12.75 -5.015625 C 12.75 -7.5625 10.796875 -9.28125 8.890625 -9.875 C 11.015625 -11.015625 12 -12.90625 12 -14.671875 C 12 -17.0625 9.671875 -18.90625 6.921875 -18.90625 C 4.765625 -18.90625 2.734375 -17.796875 1.5625 -15.84375 Z M 2.5625 -14.328125 "/>
</symbol>
<symbol overflow="visible" id="glyph1-0">
<path style="stroke:none;" d=""/>
</symbol>
<symbol overflow="visible" id="glyph1-1">
<path style="stroke:none;" d="M 3.65625 -14.15625 L 9.9375 -14.15625 L 9.9375 -15.6875 L 1.9375 -15.6875 L 1.9375 -6.859375 L 3.515625 -6.859375 C 3.921875 -7.8125 4.8125 -8.75 6.1875 -8.75 C 7.3125 -8.75 8.609375 -7.765625 8.609375 -4.90625 C 8.609375 -0.9375 5.6875 -0.9375 5.46875 -0.9375 C 3.875 -0.9375 2.421875 -1.859375 1.71875 -3.15625 L 0.9375 -1.8125 C 1.90625 -0.453125 3.5625 0.53125 5.5 0.53125 C 8.34375 0.53125 10.734375 -1.84375 10.734375 -4.859375 C 10.734375 -7.84375 8.671875 -10.203125 6.21875 -10.203125 C 5.265625 -10.203125 4.34375 -9.84375 3.65625 -9.234375 Z M 3.65625 -14.15625 "/>
</symbol>
<symbol overflow="visible" id="glyph1-2">
<path style="stroke:none;" d="M 1.71875 -0.578125 C 2.53125 0.03125 3.421875 0.53125 4.90625 0.53125 C 8.03125 0.53125 10.921875 -2.796875 10.921875 -8.015625 C 10.921875 -14.703125 8.078125 -16.203125 6.046875 -16.203125 C 4.375 -16.203125 3.390625 -15.484375 2.5625 -14.609375 C 1.046875 -12.984375 1 -11.40625 1 -10.375 C 1 -7.3125 2.578125 -4.640625 4.875 -4.640625 C 6.359375 -4.640625 7.890625 -5.328125 8.921875 -6.625 C 8.65625 -2.765625 6.8125 -0.9375 4.921875 -0.9375 C 4.109375 -0.9375 3.328125 -1.125 2.46875 -1.84375 Z M 8.84375 -10.40625 C 8.875 -10.234375 8.875 -10 8.875 -9.828125 C 8.875 -7.859375 7.703125 -6.09375 5.8125 -6.09375 C 4.6875 -6.09375 4.015625 -6.640625 3.515625 -7.53125 C 2.984375 -8.46875 2.96875 -9.34375 2.96875 -10.375 C 2.96875 -11.421875 2.984375 -12.40625 3.65625 -13.453125 C 4.140625 -14.15625 4.8125 -14.828125 6.046875 -14.828125 C 8.390625 -14.828125 8.796875 -11.578125 8.84375 -10.40625 Z M 8.84375 -10.40625 "/>
</symbol>
<symbol overflow="visible" id="glyph1-3">
<path style="stroke:none;" d="M 4.296875 -0.03125 L 4.296875 -1.984375 L 2.3125 -1.984375 L 2.3125 0 L 2.921875 0 L 2.3125 2.984375 L 3.296875 2.984375 Z M 4.296875 -0.03125 "/>
</symbol>
<symbol overflow="visible" id="glyph1-4">
<path style="stroke:none;" d="M 9.921875 -15.734375 C 8.703125 -16.203125 7.71875 -16.203125 7.390625 -16.203125 C 4.015625 -16.203125 1 -12.84375 1 -7.703125 C 1 -0.9375 3.96875 0.53125 6 0.53125 C 7.4375 0.53125 8.46875 -0.03125 9.390625 -1.09375 C 10.46875 -2.3125 10.921875 -3.421875 10.921875 -5.3125 C 10.921875 -8.359375 9.34375 -11.046875 7.046875 -11.046875 C 6.28125 -11.046875 4.46875 -10.859375 3.015625 -9.0625 C 3.328125 -12.90625 5.21875 -14.828125 7.40625 -14.828125 C 8.3125 -14.828125 9.078125 -14.65625 9.921875 -14.3125 Z M 3.03125 -5.234375 C 3.03125 -5.5625 3.03125 -5.625 3.0625 -5.90625 C 3.0625 -7.671875 4.140625 -9.59375 6.125 -9.59375 C 7.265625 -9.59375 7.9375 -8.984375 8.421875 -8.109375 C 8.921875 -7.21875 8.96875 -6.390625 8.96875 -5.3125 C 8.96875 -4.5 8.96875 -3.390625 8.390625 -2.421875 C 7.984375 -1.75 7.359375 -0.9375 6 -0.9375 C 3.46875 -0.9375 3.109375 -4.453125 3.03125 -5.234375 Z M 3.03125 -5.234375 "/>
</symbol>
<symbol overflow="visible" id="glyph1-5">
<path style="stroke:none;" d="M 10.921875 -7.796875 C 10.921875 -9.6875 10.828125 -11.90625 9.828125 -13.84375 C 8.84375 -15.640625 7.203125 -16.203125 5.96875 -16.203125 C 4.5625 -16.203125 2.890625 -15.5625 1.90625 -13.4375 C 1.125 -11.6875 1 -9.703125 1 -7.796875 C 1 -5.90625 1.09375 -4.15625 1.8125 -2.421875 C 2.765625 -0.125 4.59375 0.53125 5.953125 0.53125 C 7.703125 0.53125 9.203125 -0.453125 9.96875 -2.109375 C 10.6875 -3.65625 10.921875 -5.234375 10.921875 -7.796875 Z M 5.96875 -0.9375 C 4.734375 -0.9375 3.75 -1.84375 3.28125 -3.5625 C 2.890625 -4.921875 2.875 -6.21875 2.875 -8.078125 C 2.875 -9.59375 2.875 -11.015625 3.28125 -12.328125 C 3.421875 -12.796875 4.015625 -14.75 5.953125 -14.75 C 7.8125 -14.75 8.4375 -12.9375 8.609375 -12.5 C 9.0625 -11.171875 9.0625 -9.5625 9.0625 -8.078125 C 9.0625 -6.5 9.0625 -5 8.625 -3.484375 C 8.015625 -1.3125 6.734375 -0.9375 5.96875 -0.9375 Z M 5.96875 -0.9375 "/>
</symbol>
</g>
</defs>
<g id="surface1">
<g style="fill:rgb(0%,0%,0%);fill-opacity:1;">
  <use xlink:href="#glyph0-1" x="65" y="20.686401"/>
  <use xlink:href="#glyph0-2" x="78.94764" y="20.686401"/>
</g>
<g style="fill:rgb(100%,0%,0%);fill-opacity:1;">
  <use xlink:href="#glyph0-1" x="65" y="84.686401"/>
  <use xlink:href="#glyph0-1" x="78.94764" y="84.686401"/>
</g>
<g style="fill:rgb(0%,0%,0%);fill-opacity:1;">
  <use xlink:href="#glyph0-1" x="1" y="84.686401"/>
  <use xlink:href="#glyph0-3" x="14.94764" y="84.686401"/>
</g>
<g style="fill:rgb(0%,0%,0%);fill-opacity:1;">
  <use xlink:href="#glyph0-4" x="129" y="84.686401"/>
  <use xlink:href="#glyph0-5" x="142.94764" y="84.686401"/>
</g>
<g style="fill:rgb(0%,0%,0%);fill-opacity:1;">
  <use xlink:href="#glyph0-4" x="65" y="148.686401"/>
  <use xlink:href="#glyph0-6" x="78.94764" y="148.686401"/>
</g>
<g style="fill:rgb(0%,0%,0%);fill-opacity:1;">
  <use xlink:href="#glyph0-4" x="1" y="148.686401"/>
  <use xlink:href="#glyph0-6" x="14.94764" y="148.686401"/>
</g>
<g style="fill:rgb(100%,0%,0%);fill-opacity:1;">
  <use xlink:href="#glyph0-1" x="129" y="148.686401"/>
  <use xlink:href="#glyph0-4" x="142.94764" y="148.686401"/>
</g>
<g style="fill:rgb(100%,0%,0%);fill-opacity:1;">
  <use xlink:href="#glyph0-1" x="129" y="212.686401"/>
  <use xlink:href="#glyph0-4" x="142.94764" y="212.686401"/>
</g>
<g style="fill:rgb(0%,0%,0%);fill-opacity:1;">
  <use xlink:href="#glyph0-4" x="65" y="212.686401"/>
  <use xlink:href="#glyph0-2" x="78.94764" y="212.686401"/>
</g>
<g style="fill:rgb(0%,0%,0%);fill-opacity:1;">
  <use xlink:href="#glyph0-4" x="193" y="212.686401"/>
  <use xlink:href="#glyph0-5" x="206.94764" y="212.686401"/>
</g>
<g style="fill:rgb(0%,0%,0%);fill-opacity:1;">
  <use xlink:href="#glyph0-4" x="129" y="276.686401"/>
  <use xlink:href="#glyph0-7" x="142.94764" y="276.686401"/>
</g>
<g style="fill:rgb(100%,0%,0%);fill-opacity:1;">
  <use xlink:href="#glyph0-1" x="65" y="276.686401"/>
  <use xlink:href="#glyph0-7" x="78.94764" y="276.686401"/>
</g>
<g style="fill:rgb(0%,0%,0%);fill-opacity:1;">
  <use xlink:href="#glyph0-4" x="193" y="276.686401"/>
  <use xlink:href="#glyph0-2" x="206.94764" y="276.686401"/>
</g>
<g style="fill:rgb(0%,0%,0%);fill-opacity:1;">
  <use xlink:href="#glyph0-4" x="65" y="340.686401"/>
  <use xlink:href="#glyph0-2" x="78.94764" y="340.686401"/>
</g>
<g style="fill:rgb(0%,0%,0%);fill-opacity:1;">
  <use xlink:href="#glyph0-4" x="1" y="340.686401"/>
  <use xlink:href="#glyph0-8" x="14.94764" y="340.686401"/>
</g>
<g style="fill:rgb(100%,0%,0%);fill-opacity:1;">
  <use xlink:href="#glyph0-1" x="129" y="340.686401"/>
  <use xlink:href="#glyph0-9" x="142.94764" y="340.686401"/>
</g>
<g style="fill:rgb(0%,0%,0%);fill-opacity:1;">
  <use xlink:href="#glyph0-4" x="125" y="404.686401"/>
  <use xlink:href="#glyph0-6" x="138.94764" y="404.686401"/>
</g>
<g style="fill:rgb(0%,0%,0%);fill-opacity:1;">
  <use xlink:href="#glyph0-4" x="61" y="404.686401"/>
  <use xlink:href="#glyph0-10" x="74.94764" y="404.686401"/>
</g>
<g style="fill:rgb(0%,0%,0%);fill-opacity:1;">
  <use xlink:href="#glyph0-4" x="189" y="404.686401"/>
  <use xlink:href="#glyph0-5" x="202.94764" y="404.686401"/>
</g>
<path style="fill:none;stroke-width:1.2;stroke-linecap:butt;stroke-linejoin:round;stroke:rgb(100%,0%,0%);stroke-opacity:1;stroke-miterlimit:10;" d="M 84 503.998901 L 84 467.998901 " transform="matrix(1,0,0,-1,-3,528.686401)"/>
<path style="fill-rule:evenodd;fill:rgb(100%,0%,0%);fill-opacity:1;stroke-width:1.2;stroke-linecap:butt;stroke-linejoin:round;stroke:rgb(100%,0%,0%);stroke-opacity:1;stroke-miterlimit:10;" d="M 84 467.998901 L 88.996094 482.998901 L 79.003906 482.998901 Z M 84 467.998901 " transform="matrix(1,0,0,-1,-3,528.686401)"/>
<path style="fill:none;stroke-width:1.2;stroke-linecap:butt;stroke-linejoin:round;stroke:rgb(0%,0%,0%);stroke-opacity:1;stroke-miterlimit:10;" d="M 76 503.998901 L 20 467.998901 " transform="matrix(1,0,0,-1,-3,528.686401)"/>
<path style="fill:none;stroke-width:1.2;stroke-linecap:butt;stroke-linejoin:round;stroke:rgb(0%,0%,0%);stroke-opacity:1;stroke-miterlimit:10;" d="M 92 503.998901 L 148 467.998901 " transform="matrix(1,0,0,-1,-3,528.686401)"/>
<path style="fill:none;stroke-width:1.2;stroke-linecap:butt;stroke-linejoin:round;stroke:rgb(0%,0%,0%);stroke-opacity:1;stroke-miterlimit:10;" d="M 84 439.998901 L 84 403.998901 " transform="matrix(1,0,0,-1,-3,528.686401)"/>
<path style="fill:none;stroke-width:1.2;stroke-linecap:butt;stroke-linejoin:round;stroke:rgb(0%,0%,0%);stroke-opacity:1;stroke-miterlimit:10;" d="M 76 439.998901 L 20 403.998901 " transform="matrix(1,0,0,-1,-3,528.686401)"/>
<path style="fill:none;stroke-width:1.2;stroke-linecap:butt;stroke-linejoin:round;stroke:rgb(100%,0%,0%);stroke-opacity:1;stroke-miterlimit:10;" d="M 92 439.998901 L 148 403.998901 " transform="matrix(1,0,0,-1,-3,528.686401)"/>
<path style="fill-rule:evenodd;fill:rgb(100%,0%,0%);fill-opacity:1;stroke-width:1.2;stroke-linecap:butt;stroke-linejoin:round;stroke:rgb(100%,0%,0%);stroke-opacity:1;stroke-miterlimit:10;" d="M 148 403.998901 L 138.082031 416.311401 L 132.679688 407.909057 Z M 148 403.998901 " transform="matrix(1,0,0,-1,-3,528.686401)"/>
<path style="fill:none;stroke-width:1.2;stroke-linecap:butt;stroke-linejoin:round;stroke:rgb(100%,0%,0%);stroke-opacity:1;stroke-miterlimit:10;" d="M 144 375.998901 L 144 339.998901 " transform="matrix(1,0,0,-1,-3,528.686401)"/>
<path style="fill-rule:evenodd;fill:rgb(100%,0%,0%);fill-opacity:1;stroke-width:1.2;stroke-linecap:butt;stroke-linejoin:round;stroke:rgb(100%,0%,0%);stroke-opacity:1;stroke-miterlimit:10;" d="M 144 339.998901 L 148.996094 354.998901 L 139.003906 354.998901 Z M 144 339.998901 " transform="matrix(1,0,0,-1,-3,528.686401)"/>
<path style="fill:none;stroke-width:1.2;stroke-linecap:butt;stroke-linejoin:round;stroke:rgb(0%,0%,0%);stroke-opacity:1;stroke-miterlimit:10;" d="M 136 375.998901 L 80 339.998901 " transform="matrix(1,0,0,-1,-3,528.686401)"/>
<path style="fill:none;stroke-width:1.2;stroke-linecap:butt;stroke-linejoin:round;stroke:rgb(0%,0%,0%);stroke-opacity:1;stroke-miterlimit:10;" d="M 152 375.998901 L 208 339.998901 " transform="matrix(1,0,0,-1,-3,528.686401)"/>
<path style="fill:none;stroke-width:1.2;stroke-linecap:butt;stroke-linejoin:round;stroke:rgb(0%,0%,0%);stroke-opacity:1;stroke-miterlimit:10;" d="M 144 311.998901 L 144 275.998901 " transform="matrix(1,0,0,-1,-3,528.686401)"/>
<path style="fill:none;stroke-width:1.2;stroke-linecap:butt;stroke-linejoin:round;stroke:rgb(100%,0%,0%);stroke-opacity:1;stroke-miterlimit:10;" d="M 136 311.998901 L 80 275.998901 " transform="matrix(1,0,0,-1,-3,528.686401)"/>
<path style="fill-rule:evenodd;fill:rgb(100%,0%,0%);fill-opacity:1;stroke-width:1.2;stroke-linecap:butt;stroke-linejoin:round;stroke:rgb(100%,0%,0%);stroke-opacity:1;stroke-miterlimit:10;" d="M 80 275.998901 L 95.320312 279.909057 L 89.917969 288.311401 Z M 80 275.998901 " transform="matrix(1,0,0,-1,-3,528.686401)"/>
<path style="fill:none;stroke-width:1.2;stroke-linecap:butt;stroke-linejoin:round;stroke:rgb(0%,0%,0%);stroke-opacity:1;stroke-miterlimit:10;" d="M 152 311.998901 L 208 275.998901 " transform="matrix(1,0,0,-1,-3,528.686401)"/>
<path style="fill:none;stroke-width:1.2;stroke-linecap:butt;stroke-linejoin:round;stroke:rgb(0%,0%,0%);stroke-opacity:1;stroke-miterlimit:10;" d="M 80 247.998901 L 80 211.998901 " transform="matrix(1,0,0,-1,-3,528.686401)"/>
<path style="fill:none;stroke-width:1.2;stroke-linecap:butt;stroke-linejoin:round;stroke:rgb(0%,0%,0%);stroke-opacity:1;stroke-miterlimit:10;" d="M 72 247.998901 L 16 211.998901 " transform="matrix(1,0,0,-1,-3,528.686401)"/>
<path style="fill:none;stroke-width:1.2;stroke-linecap:butt;stroke-linejoin:round;stroke:rgb(100%,0%,0%);stroke-opacity:1;stroke-miterlimit:10;" d="M 88 247.998901 L 144 211.998901 " transform="matrix(1,0,0,-1,-3,528.686401)"/>
<path style="fill-rule:evenodd;fill:rgb(100%,0%,0%);fill-opacity:1;stroke-width:1.2;stroke-linecap:butt;stroke-linejoin:round;stroke:rgb(100%,0%,0%);stroke-opacity:1;stroke-miterlimit:10;" d="M 144 211.998901 L 134.082031 224.311401 L 128.679688 215.909057 Z M 144 211.998901 " transform="matrix(1,0,0,-1,-3,528.686401)"/>
<path style="fill:none;stroke-width:1.2;stroke-linecap:butt;stroke-linejoin:round;stroke:rgb(0%,0%,0%);stroke-opacity:1;stroke-miterlimit:10;" d="M 144 183.998901 L 144 147.998901 " transform="matrix(1,0,0,-1,-3,528.686401)"/>
<path style="fill:none;stroke-width:1.2;stroke-linecap:butt;stroke-linejoin:round;stroke:rgb(0%,0%,0%);stroke-opacity:1;stroke-miterlimit:10;" d="M 136 183.998901 L 80 147.998901 " transform="matrix(1,0,0,-1,-3,528.686401)"/>
<path style="fill:none;stroke-width:1.2;stroke-linecap:butt;stroke-linejoin:round;stroke:rgb(0%,0%,0%);stroke-opacity:1;stroke-miterlimit:10;" d="M 152 183.998901 L 208 147.998901 " transform="matrix(1,0,0,-1,-3,528.686401)"/>
<g style="fill:rgb(0%,0%,50.2%);fill-opacity:1;">
  <use xlink:href="#glyph1-1" x="89" y="60.686401"/>
  <use xlink:href="#glyph1-2" x="100.95512" y="60.686401"/>
</g>
<g style="fill:rgb(0%,0%,50.2%);fill-opacity:1;">
  <use xlink:href="#glyph1-1" x="153" y="124.686401"/>
  <use xlink:href="#glyph1-2" x="164.95512" y="124.686401"/>
</g>
<g style="fill:rgb(0%,0%,50.2%);fill-opacity:1;">
  <use xlink:href="#glyph1-1" x="149" y="188.686401"/>
  <use xlink:href="#glyph1-2" x="160.95512" y="188.686401"/>
</g>
<g style="fill:rgb(0%,0%,50.2%);fill-opacity:1;">
  <use xlink:href="#glyph1-1" x="49" y="252.686401"/>
  <use xlink:href="#glyph1-2" x="60.95512" y="252.686401"/>
</g>
<g style="fill:rgb(0%,0%,50.2%);fill-opacity:1;">
  <use xlink:href="#glyph1-1" x="149" y="316.686401"/>
  <use xlink:href="#glyph1-2" x="160.95512" y="316.686401"/>
</g>
<g style="fill:rgb(0%,0%,0%);fill-opacity:1;">
  <use xlink:href="#glyph0-1" x="309" y="20.686401"/>
  <use xlink:href="#glyph0-2" x="322.94764" y="20.686401"/>
</g>
<g style="fill:rgb(0%,100%,0%);fill-opacity:1;">
  <use xlink:href="#glyph0-4" x="309" y="84.686401"/>
  <use xlink:href="#glyph0-2" x="322.94764" y="84.686401"/>
</g>
<g style="fill:rgb(0%,0%,0%);fill-opacity:1;">
  <use xlink:href="#glyph0-1" x="245" y="84.686401"/>
  <use xlink:href="#glyph0-3" x="258.94764" y="84.686401"/>
</g>
<g style="fill:rgb(0%,0%,0%);fill-opacity:1;">
  <use xlink:href="#glyph0-4" x="373" y="84.686401"/>
  <use xlink:href="#glyph0-5" x="386.94764" y="84.686401"/>
</g>
<g style="fill:rgb(0%,0%,0%);fill-opacity:1;">
  <use xlink:href="#glyph0-4" x="309" y="148.686401"/>
  <use xlink:href="#glyph0-6" x="322.94764" y="148.686401"/>
</g>
<g style="fill:rgb(0%,0%,0%);fill-opacity:1;">
  <use xlink:href="#glyph0-4" x="245" y="148.686401"/>
  <use xlink:href="#glyph0-6" x="258.94764" y="148.686401"/>
</g>
<g style="fill:rgb(0%,100%,0%);fill-opacity:1;">
  <use xlink:href="#glyph0-4" x="373" y="148.686401"/>
  <use xlink:href="#glyph0-2" x="386.94764" y="148.686401"/>
</g>
<g style="fill:rgb(0%,100%,0%);fill-opacity:1;">
  <use xlink:href="#glyph0-4" x="373" y="212.686401"/>
  <use xlink:href="#glyph0-2" x="386.94764" y="212.686401"/>
</g>
<g style="fill:rgb(0%,0%,0%);fill-opacity:1;">
  <use xlink:href="#glyph0-4" x="309" y="212.686401"/>
  <use xlink:href="#glyph0-2" x="322.94764" y="212.686401"/>
</g>
<g style="fill:rgb(0%,0%,0%);fill-opacity:1;">
  <use xlink:href="#glyph0-4" x="437" y="212.686401"/>
  <use xlink:href="#glyph0-5" x="450.94764" y="212.686401"/>
</g>
<g style="fill:rgb(0%,0%,0%);fill-opacity:1;">
  <use xlink:href="#glyph0-4" x="373" y="276.686401"/>
  <use xlink:href="#glyph0-7" x="386.94764" y="276.686401"/>
</g>
<g style="fill:rgb(0%,100%,0%);fill-opacity:1;">
  <use xlink:href="#glyph0-4" x="309" y="276.686401"/>
  <use xlink:href="#glyph0-2" x="322.94764" y="276.686401"/>
</g>
<g style="fill:rgb(0%,0%,0%);fill-opacity:1;">
  <use xlink:href="#glyph0-4" x="437" y="276.686401"/>
  <use xlink:href="#glyph0-2" x="450.94764" y="276.686401"/>
</g>
<g style="fill:rgb(0%,0%,0%);fill-opacity:1;">
  <use xlink:href="#glyph0-4" x="309" y="340.686401"/>
  <use xlink:href="#glyph0-2" x="322.94764" y="340.686401"/>
</g>
<g style="fill:rgb(0%,0%,0%);fill-opacity:1;">
  <use xlink:href="#glyph0-4" x="245" y="340.686401"/>
  <use xlink:href="#glyph0-8" x="258.94764" y="340.686401"/>
</g>
<g style="fill:rgb(0%,100%,0%);fill-opacity:1;">
  <use xlink:href="#glyph0-4" x="373" y="340.686401"/>
  <use xlink:href="#glyph0-6" x="386.94764" y="340.686401"/>
</g>
<g style="fill:rgb(0%,0%,0%);fill-opacity:1;">
  <use xlink:href="#glyph0-4" x="369" y="404.686401"/>
  <use xlink:href="#glyph0-6" x="382.94764" y="404.686401"/>
</g>
<g style="fill:rgb(0%,0%,0%);fill-opacity:1;">
  <use xlink:href="#glyph0-4" x="305" y="404.686401"/>
  <use xlink:href="#glyph0-10" x="318.94764" y="404.686401"/>
</g>
<g style="fill:rgb(0%,0%,0%);fill-opacity:1;">
  <use xlink:href="#glyph0-4" x="433" y="404.686401"/>
  <use xlink:href="#glyph0-5" x="446.94764" y="404.686401"/>
</g>
<path style="fill:none;stroke-width:1.2;stroke-linecap:butt;stroke-linejoin:round;stroke:rgb(0%,100%,0%);stroke-opacity:1;stroke-miterlimit:10;" d="M 328 503.998901 L 328 467.998901 " transform="matrix(1,0,0,-1,-3,528.686401)"/>
<path style="fill-rule:evenodd;fill:rgb(0%,100%,0%);fill-opacity:1;stroke-width:1.2;stroke-linecap:butt;stroke-linejoin:round;stroke:rgb(0%,100%,0%);stroke-opacity:1;stroke-miterlimit:10;" d="M 328 503.998901 L 323.003906 488.998901 L 332.996094 488.998901 Z M 328 503.998901 " transform="matrix(1,0,0,-1,-3,528.686401)"/>
<path style="fill:none;stroke-width:1.2;stroke-linecap:butt;stroke-linejoin:round;stroke:rgb(0%,0%,0%);stroke-opacity:1;stroke-miterlimit:10;" d="M 320 503.998901 L 264 467.998901 " transform="matrix(1,0,0,-1,-3,528.686401)"/>
<path style="fill:none;stroke-width:1.2;stroke-linecap:butt;stroke-linejoin:round;stroke:rgb(0%,0%,0%);stroke-opacity:1;stroke-miterlimit:10;" d="M 336 503.998901 L 392 467.998901 " transform="matrix(1,0,0,-1,-3,528.686401)"/>
<path style="fill:none;stroke-width:1.2;stroke-linecap:butt;stroke-linejoin:round;stroke:rgb(0%,0%,0%);stroke-opacity:1;stroke-miterlimit:10;" d="M 328 439.998901 L 328 403.998901 " transform="matrix(1,0,0,-1,-3,528.686401)"/>
<path style="fill:none;stroke-width:1.2;stroke-linecap:butt;stroke-linejoin:round;stroke:rgb(0%,0%,0%);stroke-opacity:1;stroke-miterlimit:10;" d="M 320 439.998901 L 264 403.998901 " transform="matrix(1,0,0,-1,-3,528.686401)"/>
<path style="fill:none;stroke-width:1.2;stroke-linecap:butt;stroke-linejoin:round;stroke:rgb(0%,100%,0%);stroke-opacity:1;stroke-miterlimit:10;" d="M 336 439.998901 L 392 403.998901 " transform="matrix(1,0,0,-1,-3,528.686401)"/>
<path style="fill-rule:evenodd;fill:rgb(0%,100%,0%);fill-opacity:1;stroke-width:1.2;stroke-linecap:butt;stroke-linejoin:round;stroke:rgb(0%,100%,0%);stroke-opacity:1;stroke-miterlimit:10;" d="M 336 439.998901 L 345.917969 427.686401 L 351.320312 436.088744 Z M 336 439.998901 " transform="matrix(1,0,0,-1,-3,528.686401)"/>
<path style="fill:none;stroke-width:1.2;stroke-linecap:butt;stroke-linejoin:round;stroke:rgb(0%,100%,0%);stroke-opacity:1;stroke-miterlimit:10;" d="M 388 375.998901 L 388 339.998901 " transform="matrix(1,0,0,-1,-3,528.686401)"/>
<path style="fill-rule:evenodd;fill:rgb(0%,100%,0%);fill-opacity:1;stroke-width:1.2;stroke-linecap:butt;stroke-linejoin:round;stroke:rgb(0%,100%,0%);stroke-opacity:1;stroke-miterlimit:10;" d="M 388 375.998901 L 383.003906 360.998901 L 392.996094 360.998901 Z M 388 375.998901 " transform="matrix(1,0,0,-1,-3,528.686401)"/>
<path style="fill:none;stroke-width:1.2;stroke-linecap:butt;stroke-linejoin:round;stroke:rgb(0%,0%,0%);stroke-opacity:1;stroke-miterlimit:10;" d="M 380 375.998901 L 324 339.998901 " transform="matrix(1,0,0,-1,-3,528.686401)"/>
<path style="fill:none;stroke-width:1.2;stroke-linecap:butt;stroke-linejoin:round;stroke:rgb(0%,0%,0%);stroke-opacity:1;stroke-miterlimit:10;" d="M 396 375.998901 L 452 339.998901 " transform="matrix(1,0,0,-1,-3,528.686401)"/>
<path style="fill:none;stroke-width:1.2;stroke-linecap:butt;stroke-linejoin:round;stroke:rgb(0%,0%,0%);stroke-opacity:1;stroke-miterlimit:10;" d="M 388 311.998901 L 388 275.998901 " transform="matrix(1,0,0,-1,-3,528.686401)"/>
<path style="fill:none;stroke-width:1.2;stroke-linecap:butt;stroke-linejoin:round;stroke:rgb(0%,100%,0%);stroke-opacity:1;stroke-miterlimit:10;" d="M 380 311.998901 L 324 275.998901 " transform="matrix(1,0,0,-1,-3,528.686401)"/>
<path style="fill-rule:evenodd;fill:rgb(0%,100%,0%);fill-opacity:1;stroke-width:1.2;stroke-linecap:butt;stroke-linejoin:round;stroke:rgb(0%,100%,0%);stroke-opacity:1;stroke-miterlimit:10;" d="M 380 311.998901 L 364.679688 308.088744 L 370.082031 299.686401 Z M 380 311.998901 " transform="matrix(1,0,0,-1,-3,528.686401)"/>
<path style="fill:none;stroke-width:1.2;stroke-linecap:butt;stroke-linejoin:round;stroke:rgb(0%,0%,0%);stroke-opacity:1;stroke-miterlimit:10;" d="M 396 311.998901 L 452 275.998901 " transform="matrix(1,0,0,-1,-3,528.686401)"/>
<path style="fill:none;stroke-width:1.2;stroke-linecap:butt;stroke-linejoin:round;stroke:rgb(0%,0%,0%);stroke-opacity:1;stroke-miterlimit:10;" d="M 324 247.998901 L 324 211.998901 " transform="matrix(1,0,0,-1,-3,528.686401)"/>
<path style="fill:none;stroke-width:1.2;stroke-linecap:butt;stroke-linejoin:round;stroke:rgb(0%,0%,0%);stroke-opacity:1;stroke-miterlimit:10;" d="M 316 247.998901 L 260 211.998901 " transform="matrix(1,0,0,-1,-3,528.686401)"/>
<path style="fill:none;stroke-width:1.2;stroke-linecap:butt;stroke-linejoin:round;stroke:rgb(0%,100%,0%);stroke-opacity:1;stroke-miterlimit:10;" d="M 332 247.998901 L 388 211.998901 " transform="matrix(1,0,0,-1,-3,528.686401)"/>
<path style="fill-rule:evenodd;fill:rgb(0%,100%,0%);fill-opacity:1;stroke-width:1.2;stroke-linecap:butt;stroke-linejoin:round;stroke:rgb(0%,100%,0%);stroke-opacity:1;stroke-miterlimit:10;" d="M 332 247.998901 L 341.917969 235.686401 L 347.320312 244.088744 Z M 332 247.998901 " transform="matrix(1,0,0,-1,-3,528.686401)"/>
<path style="fill:none;stroke-width:1.2;stroke-linecap:butt;stroke-linejoin:round;stroke:rgb(0%,0%,0%);stroke-opacity:1;stroke-miterlimit:10;" d="M 388 183.998901 L 388 147.998901 " transform="matrix(1,0,0,-1,-3,528.686401)"/>
<path style="fill:none;stroke-width:1.2;stroke-linecap:butt;stroke-linejoin:round;stroke:rgb(0%,0%,0%);stroke-opacity:1;stroke-miterlimit:10;" d="M 380 183.998901 L 324 147.998901 " transform="matrix(1,0,0,-1,-3,528.686401)"/>
<path style="fill:none;stroke-width:1.2;stroke-linecap:butt;stroke-linejoin:round;stroke:rgb(0%,0%,0%);stroke-opacity:1;stroke-miterlimit:10;" d="M 396 183.998901 L 452 147.998901 " transform="matrix(1,0,0,-1,-3,528.686401)"/>
<g style="fill:rgb(0%,0%,50.2%);fill-opacity:1;">
  <use xlink:href="#glyph1-1" x="333" y="60.686401"/>
  <use xlink:href="#glyph1-2" x="344.95512" y="60.686401"/>
</g>
<g style="fill:rgb(0%,0%,50.2%);fill-opacity:1;">
  <use xlink:href="#glyph1-1" x="397" y="124.686401"/>
  <use xlink:href="#glyph1-2" x="408.95512" y="124.686401"/>
</g>
<g style="fill:rgb(0%,0%,50.2%);fill-opacity:1;">
  <use xlink:href="#glyph1-1" x="393" y="188.686401"/>
  <use xlink:href="#glyph1-2" x="404.95512" y="188.686401"/>
</g>
<g style="fill:rgb(0%,0%,50.2%);fill-opacity:1;">
  <use xlink:href="#glyph1-1" x="293" y="252.686401"/>
  <use xlink:href="#glyph1-2" x="304.95512" y="252.686401"/>
</g>
<g style="fill:rgb(0%,0%,50.2%);fill-opacity:1;">
  <use xlink:href="#glyph1-1" x="393" y="316.686401"/>
  <use xlink:href="#glyph1-2" x="404.95512" y="316.686401"/>
</g>
<g style="fill:rgb(0%,0%,50.2%);fill-opacity:1;">
  <use xlink:href="#glyph1-3" x="101" y="20.674401"/>
  <use xlink:href="#glyph1-1" x="115.585247" y="20.674401"/>
  <use xlink:href="#glyph1-2" x="127.540367" y="20.674401"/>
</g>
<g style="fill:rgb(0%,0%,50.2%);fill-opacity:1;">
  <use xlink:href="#glyph1-3" x="337" y="16.674401"/>
  <use xlink:href="#glyph1-1" x="351.585247" y="16.674401"/>
  <use xlink:href="#glyph1-2" x="363.540367" y="16.674401"/>
</g>
<g style="fill:rgb(0%,0%,0%);fill-opacity:1;">
  <use xlink:href="#glyph0-1" x="525" y="20.686401"/>
  <use xlink:href="#glyph0-2" x="538.94764" y="20.686401"/>
</g>
<g style="fill:rgb(0%,0%,0%);fill-opacity:1;">
  <use xlink:href="#glyph0-4" x="525" y="84.686401"/>
  <use xlink:href="#glyph0-2" x="538.94764" y="84.686401"/>
</g>
<g style="fill:rgb(100%,0%,0%);fill-opacity:1;">
  <use xlink:href="#glyph0-1" x="461" y="84.686401"/>
  <use xlink:href="#glyph0-3" x="474.94764" y="84.686401"/>
</g>
<g style="fill:rgb(0%,0%,0%);fill-opacity:1;">
  <use xlink:href="#glyph0-4" x="589" y="84.686401"/>
  <use xlink:href="#glyph0-5" x="602.94764" y="84.686401"/>
</g>
<path style="fill:none;stroke-width:1.2;stroke-linecap:butt;stroke-linejoin:round;stroke:rgb(0%,0%,0%);stroke-opacity:1;stroke-miterlimit:10;" d="M 544 503.998901 L 544 467.998901 " transform="matrix(1,0,0,-1,-3,528.686401)"/>
<path style="fill:none;stroke-width:1.2;stroke-linecap:butt;stroke-linejoin:round;stroke:rgb(100%,0%,0%);stroke-opacity:1;stroke-miterlimit:10;" d="M 536 503.998901 L 480 467.998901 " transform="matrix(1,0,0,-1,-3,528.686401)"/>
<path style="fill-rule:evenodd;fill:rgb(100%,0%,0%);fill-opacity:1;stroke-width:1.2;stroke-linecap:butt;stroke-linejoin:round;stroke:rgb(100%,0%,0%);stroke-opacity:1;stroke-miterlimit:10;" d="M 480 467.998901 L 495.320312 471.909057 L 489.917969 480.311401 Z M 480 467.998901 " transform="matrix(1,0,0,-1,-3,528.686401)"/>
<path style="fill:none;stroke-width:1.2;stroke-linecap:butt;stroke-linejoin:round;stroke:rgb(0%,0%,0%);stroke-opacity:1;stroke-miterlimit:10;" d="M 552 503.998901 L 608 467.998901 " transform="matrix(1,0,0,-1,-3,528.686401)"/>
<g style="fill:rgb(0%,0%,50.2%);fill-opacity:1;">
  <use xlink:href="#glyph1-3" x="553" y="16.674401"/>
  <use xlink:href="#glyph1-4" x="567.585247" y="16.674401"/>
  <use xlink:href="#glyph1-5" x="579.540367" y="16.674401"/>
</g>
</g>
</svg>
