<?xml version="1.0" encoding="UTF-8"?>
<svg xmlns="http://www.w3.org/2000/svg" xmlns:xlink="http://www.w3.org/1999/xlink" width="547pt" height="317pt" viewBox="0 0 547 317" version="1.1">
<defs>
<g>
<symbol overflow="visible" id="glyph0-0">
<path style="stroke:none;" d=""/>
</symbol>
<symbol overflow="visible" id="glyph0-1">
<path style="stroke:none;" d="M 10.515625 -19.359375 L 8.0625 -19.359375 L 0.78125 0 L 2.84375 0 L 5 -5.6875 L 13.109375 -5.6875 L 15.234375 0 L 17.796875 0 Z M 12.5 -7.25 L 5.578125 -7.25 L 7.390625 -12.296875 C 7.984375 -13.953125 8.84375 -16.3125 9.03125 -17.34375 L 9.0625 -17.34375 C 9.125 -16.953125 9.3125 -16.265625 9.953125 -14.421875 Z M 12.5 -7.25 "/>
</symbol>
<symbol overflow="visible" id="glyph0-2">
<path style="stroke:none;" d="M 5.015625 -0.03125 L 5.015625 -2.3125 L 2.703125 -2.3125 L 2.703125 0 L 3.40625 0 L 2.703125 3.484375 L 3.84375 3.484375 Z M 5.015625 -0.03125 "/>
</symbol>
<symbol overflow="visible" id="glyph0-3">
<path style="stroke:none;" d="M 2.5625 -14.328125 C 3.375 -16.28125 5.1875 -17.296875 6.890625 -17.296875 C 8.34375 -17.296875 9.703125 -16.453125 9.703125 -14.671875 C 9.703125 -12.96875 8.5625 -11.328125 6.859375 -10.9375 C 6.6875 -10.90625 6.640625 -10.90625 4.65625 -10.734375 L 4.65625 -9.03125 L 6.640625 -9.03125 C 9.65625 -9.03125 10.265625 -6.4375 10.265625 -5.046875 C 10.265625 -2.875 8.984375 -1.09375 6.828125 -1.09375 C 4.90625 -1.09375 2.703125 -2.0625 1.484375 -3.953125 L 1.171875 -2.28125 C 3.203125 0.328125 5.765625 0.609375 6.890625 0.609375 C 10.296875 0.609375 12.75 -2.09375 12.75 -5.015625 C 12.75 -7.5625 10.796875 -9.28125 8.890625 -9.875 C 11.015625 -11.015625 12 -12.90625 12 -14.671875 C 12 -17.0625 9.671875 -18.90625 6.921875 -18.90625 C 4.765625 -18.90625 2.734375 -17.796875 1.5625 -15.84375 Z M 2.5625 -14.328125 "/>
</symbol>
<symbol overflow="visible" id="glyph0-4">
<path style="stroke:none;" d="M 11.578125 -18.359375 C 10.15625 -18.90625 9.015625 -18.90625 8.625 -18.90625 C 4.6875 -18.90625 1.171875 -14.984375 1.171875 -8.984375 C 1.171875 -1.09375 4.625 0.609375 7 0.609375 C 8.671875 0.609375 9.875 -0.03125 10.96875 -1.28125 C 12.21875 -2.703125 12.75 -3.984375 12.75 -6.1875 C 12.75 -9.765625 10.90625 -12.890625 8.234375 -12.890625 C 7.328125 -12.890625 5.21875 -12.65625 3.515625 -10.578125 C 3.875 -15.0625 6.078125 -17.296875 8.640625 -17.296875 C 9.703125 -17.296875 10.59375 -17.09375 11.578125 -16.703125 Z M 3.546875 -6.109375 C 3.546875 -6.5 3.546875 -6.546875 3.5625 -6.890625 C 3.5625 -8.953125 4.828125 -11.1875 7.140625 -11.1875 C 8.484375 -11.1875 9.265625 -10.484375 9.8125 -9.453125 C 10.40625 -8.421875 10.453125 -7.453125 10.453125 -6.1875 C 10.453125 -5.25 10.453125 -3.953125 9.796875 -2.8125 C 9.3125 -2.03125 8.59375 -1.09375 7 -1.09375 C 4.046875 -1.09375 3.625 -5.1875 3.546875 -6.109375 Z M 3.546875 -6.109375 "/>
</symbol>
<symbol overflow="visible" id="glyph1-0">
<path style="stroke:none;" d=""/>
</symbol>
<symbol overflow="visible" id="glyph1-1">
<path style="stroke:none;" d="M 14.171875 -7.5625 C 12.65625 -9.453125 12.328125 -9.875 11.46875 -10.578125 C 9.90625 -11.828125 8.34375 -12.328125 6.921875 -12.328125 C 3.65625 -12.328125 1.53125 -9.265625 1.53125 -6 C 1.53125 -2.796875 3.59375 0.3125 6.8125 0.3125 C 10.015625 0.3125 12.328125 -2.234375 13.6875 -4.46875 C 15.203125 -2.5625 15.53125 -2.140625 16.40625 -1.453125 C 17.96875 -0.1875 19.53125 0.3125 20.953125 0.3125 C 24.203125 0.3125 26.328125 -2.765625 26.328125 -6.03125 C 26.328125 -9.234375 24.265625 -12.328125 21.0625 -12.328125 C 17.84375 -12.328125 15.53125 -9.796875 14.171875 -7.5625 Z M 14.890625 -6.609375 C 16.03125 -8.625 18.09375 -11.4375 21.25 -11.4375 C 24.203125 -11.4375 25.71875 -8.53125 25.71875 -6.03125 C 25.71875 -3.296875 23.84375 -1.03125 21.390625 -1.03125 C 19.78125 -1.03125 18.515625 -2.203125 17.9375 -2.796875 C 17.234375 -3.546875 16.59375 -4.40625 14.890625 -6.609375 Z M 12.96875 -5.40625 C 11.828125 -3.40625 9.765625 -0.578125 6.609375 -0.578125 C 3.65625 -0.578125 2.140625 -3.484375 2.140625 -6 C 2.140625 -8.734375 4.015625 -10.984375 6.46875 -10.984375 C 8.09375 -10.984375 9.34375 -9.8125 9.921875 -9.234375 C 10.625 -8.484375 11.265625 -7.609375 12.96875 -5.40625 Z M 12.96875 -5.40625 "/>
</symbol>
<symbol overflow="visible" id="glyph2-0">
<path style="stroke:none;" d=""/>
</symbol>
<symbol overflow="visible" id="glyph2-1">
<path style="stroke:none;" d="M 5.015625 -0.03125 L 5.015625 -2.3125 L 2.703125 -2.3125 L 2.703125 0 L 3.40625 0 L 2.703125 3.484375 L 3.84375 3.484375 Z M 5.015625 -0.03125 "/>
</symbol>
<symbol overflow="visible" id="glyph2-2">
<path style="stroke:none;" d="M 10.375 -4.765625 L 13.140625 -4.765625 L 13.140625 -6.46875 L 10.375 -6.46875 L 10.375 -18.296875 L 7.84375 -18.296875 L 0.78125 -6.46875 L 0.78125 -4.765625 L 8.171875 -4.765625 L 8.171875 0 L 10.375 0 Z M 2.953125 -6.46875 C 4.40625 -8.875 8.34375 -15.484375 8.34375 -17.0625 L 8.34375 -6.46875 Z M 2.953125 -6.46875 "/>
</symbol>
<symbol overflow="visible" id="glyph2-3">
<path style="stroke:none;" d="M 6.46875 -16.3125 C 6.8125 -16.3125 7.140625 -16.34375 7.46875 -16.34375 L 10.84375 -16.34375 C 6.71875 -11.796875 4.234375 -6.21875 4.234375 0.3125 L 6.578125 0.3125 C 6.578125 -8.0625 10.578125 -14.03125 12.75 -16.484375 L 12.75 -18.296875 L 1.171875 -18.296875 L 1.171875 -16.3125 Z M 6.46875 -16.3125 "/>
</symbol>
<symbol overflow="visible" id="glyph3-0">
<path style="stroke:none;" d=""/>
</symbol>
<symbol overflow="visible" id="glyph3-1">
<path style="stroke:none;" d="M 2.703125 -19.359375 L 2.703125 0 L 10.0625 0 C 14.078125 0 17.015625 -2.515625 17.015625 -5.25 C 17.015625 -7.671875 14.59375 -9.65625 11.625 -10.125 C 14.171875 -10.765625 16.265625 -12.390625 16.265625 -14.5 C 16.265625 -17.0625 13.28125 -19.359375 9.3125 -19.359375 Z M 5.015625 -10.90625 L 5.015625 -17.796875 L 8.53125 -17.796875 C 11.625 -17.796875 14.078125 -16.3125 14.078125 -14.46875 C 14.078125 -12.796875 12.109375 -10.90625 8.25 -10.90625 Z M 5.015625 -1.5625 L 5.015625 -9.203125 L 9.0625 -9.203125 C 12.015625 -9.203125 14.75 -7.5 14.75 -5.265625 C 14.75 -3.171875 12.296875 -1.5625 9.28125 -1.5625 Z M 5.015625 -1.5625 "/>
</symbol>
<symbol overflow="visible" id="glyph3-2">
<path style="stroke:none;" d="M 5.015625 -0.03125 L 5.015625 -2.3125 L 2.703125 -2.3125 L 2.703125 0 L 3.40625 0 L 2.703125 3.484375 L 3.84375 3.484375 Z M 5.015625 -0.03125 "/>
</symbol>
<symbol overflow="visible" id="glyph3-3">
<path style="stroke:none;" d="M 10.375 -4.765625 L 13.140625 -4.765625 L 13.140625 -6.46875 L 10.375 -6.46875 L 10.375 -18.296875 L 7.84375 -18.296875 L 0.78125 -6.46875 L 0.78125 -4.765625 L 8.171875 -4.765625 L 8.171875 0 L 10.375 0 Z M 2.953125 -6.46875 C 4.40625 -8.875 8.34375 -15.484375 8.34375 -17.0625 L 8.34375 -6.46875 Z M 2.953125 -6.46875 "/>
</symbol>
<symbol overflow="visible" id="glyph3-4">
<path style="stroke:none;" d="M 2.015625 -0.671875 C 2.953125 0.03125 3.984375 0.609375 5.71875 0.609375 C 9.375 0.609375 12.75 -3.265625 12.75 -9.34375 C 12.75 -17.15625 9.421875 -18.90625 7.0625 -18.90625 C 5.109375 -18.90625 3.953125 -18.078125 2.984375 -17.046875 C 1.234375 -15.140625 1.171875 -13.296875 1.171875 -12.109375 C 1.171875 -8.53125 3.015625 -5.40625 5.6875 -5.40625 C 7.421875 -5.40625 9.203125 -6.21875 10.40625 -7.71875 C 10.09375 -3.234375 7.953125 -1.09375 5.75 -1.09375 C 4.796875 -1.09375 3.875 -1.3125 2.875 -2.140625 Z M 10.3125 -12.125 C 10.34375 -11.9375 10.34375 -11.65625 10.34375 -11.46875 C 10.34375 -9.171875 8.984375 -7.109375 6.78125 -7.109375 C 5.46875 -7.109375 4.6875 -7.75 4.09375 -8.78125 C 3.484375 -9.875 3.453125 -10.90625 3.453125 -12.109375 C 3.453125 -13.328125 3.484375 -14.46875 4.265625 -15.703125 C 4.828125 -16.515625 5.609375 -17.296875 7.0625 -17.296875 C 9.796875 -17.296875 10.265625 -13.5 10.3125 -12.125 Z M 10.3125 -12.125 "/>
</symbol>
<symbol overflow="visible" id="glyph3-5">
<path style="stroke:none;" d="M 10.515625 -19.359375 L 8.0625 -19.359375 L 0.78125 0 L 2.84375 0 L 5 -5.6875 L 13.109375 -5.6875 L 15.234375 0 L 17.796875 0 Z M 12.5 -7.25 L 5.578125 -7.25 L 7.390625 -12.296875 C 7.984375 -13.953125 8.84375 -16.3125 9.03125 -17.34375 L 9.0625 -17.34375 C 9.125 -16.953125 9.3125 -16.265625 9.953125 -14.421875 Z M 12.5 -7.25 "/>
</symbol>
<symbol overflow="visible" id="glyph3-6">
<path style="stroke:none;" d="M 11.578125 -18.359375 C 10.15625 -18.90625 9.015625 -18.90625 8.625 -18.90625 C 4.6875 -18.90625 1.171875 -14.984375 1.171875 -8.984375 C 1.171875 -1.09375 4.625 0.609375 7 0.609375 C 8.671875 0.609375 9.875 -0.03125 10.96875 -1.28125 C 12.21875 -2.703125 12.75 -3.984375 12.75 -6.1875 C 12.75 -9.765625 10.90625 -12.890625 8.234375 -12.890625 C 7.328125 -12.890625 5.21875 -12.65625 3.515625 -10.578125 C 3.875 -15.0625 6.078125 -17.296875 8.640625 -17.296875 C 9.703125 -17.296875 10.59375 -17.09375 11.578125 -16.703125 Z M 3.546875 -6.109375 C 3.546875 -6.5 3.546875 -6.546875 3.5625 -6.890625 C 3.5625 -8.953125 4.828125 -11.1875 7.140625 -11.1875 C 8.484375 -11.1875 9.265625 -10.484375 9.8125 -9.453125 C 10.40625 -8.421875 10.453125 -7.453125 10.453125 -6.1875 C 10.453125 -5.25 10.453125 -3.953125 9.796875 -2.8125 C 9.3125 -2.03125 8.59375 -1.09375 7 -1.09375 C 4.046875 -1.09375 3.625 -5.1875 3.546875 -6.109375 Z M 3.546875 -6.109375 "/>
</symbol>
<symbol overflow="visible" id="glyph3-7">
<path style="stroke:none;" d="M 16.734375 -8.34375 L 10.84375 -8.34375 L 10.84375 -6.609375 L 14.53125 -6.609375 L 14.53125 -2.0625 C 13.421875 -1.671875 12.078125 -1.484375 10.875 -1.484375 C 7.203125 -1.484375 4.34375 -5.1875 4.34375 -9.703125 C 4.34375 -14.078125 7.140625 -17.875 10.828125 -17.875 C 13.078125 -17.875 14.671875 -17.203125 16.09375 -16.03125 L 16.484375 -18.328125 C 14.921875 -19.296875 12.75 -19.6875 10.90625 -19.6875 C 5.515625 -19.6875 1.84375 -14.8125 1.84375 -9.703125 C 1.84375 -4.625 5.546875 0.3125 10.90625 0.3125 C 12.96875 0.3125 14.859375 -0.25 16.734375 -1.0625 Z M 16.734375 -8.34375 "/>
</symbol>
<symbol overflow="visible" id="glyph3-8">
<path style="stroke:none;" d="M 4.265625 -16.515625 L 11.609375 -16.515625 L 11.609375 -18.296875 L 2.265625 -18.296875 L 2.265625 -8 L 4.09375 -8 C 4.578125 -9.125 5.609375 -10.203125 7.21875 -10.203125 C 8.53125 -10.203125 10.046875 -9.0625 10.046875 -5.71875 C 10.046875 -1.09375 6.640625 -1.09375 6.390625 -1.09375 C 4.515625 -1.09375 2.8125 -2.171875 2.015625 -3.6875 L 1.09375 -2.125 C 2.234375 -0.53125 4.15625 0.609375 6.421875 0.609375 C 9.734375 0.609375 12.515625 -2.140625 12.515625 -5.65625 C 12.515625 -9.140625 10.125 -11.90625 7.25 -11.90625 C 6.140625 -11.90625 5.078125 -11.484375 4.265625 -10.765625 Z M 4.265625 -16.515625 "/>
</symbol>
<symbol overflow="visible" id="glyph3-9">
<path style="stroke:none;" d="M 12.75 -9.09375 C 12.75 -11.296875 12.640625 -13.890625 11.46875 -16.15625 C 10.3125 -18.234375 8.390625 -18.90625 6.96875 -18.90625 C 5.328125 -18.90625 3.375 -18.15625 2.234375 -15.671875 C 1.3125 -13.640625 1.171875 -11.328125 1.171875 -9.09375 C 1.171875 -6.890625 1.28125 -4.859375 2.125 -2.8125 C 3.234375 -0.140625 5.359375 0.609375 6.9375 0.609375 C 8.984375 0.609375 10.734375 -0.53125 11.625 -2.453125 C 12.46875 -4.265625 12.75 -6.109375 12.75 -9.09375 Z M 6.96875 -1.09375 C 5.515625 -1.09375 4.375 -2.140625 3.828125 -4.15625 C 3.375 -5.75 3.34375 -7.25 3.34375 -9.421875 C 3.34375 -11.1875 3.34375 -12.859375 3.828125 -14.390625 C 3.984375 -14.921875 4.6875 -17.203125 6.9375 -17.203125 C 9.125 -17.203125 9.84375 -15.09375 10.046875 -14.59375 C 10.578125 -13.03125 10.578125 -11.15625 10.578125 -9.421875 C 10.578125 -7.59375 10.578125 -5.828125 10.0625 -4.078125 C 9.34375 -1.53125 7.859375 -1.09375 6.96875 -1.09375 Z M 6.96875 -1.09375 "/>
</symbol>
<symbol overflow="visible" id="glyph4-0">
<path style="stroke:none;" d=""/>
</symbol>
<symbol overflow="visible" id="glyph4-1">
<path style="stroke:none;" d="M 2.671875 -19.359375 L 2.671875 0 L 10.015625 0 C 14.75 0 18.546875 -4.234375 18.546875 -9.515625 C 18.546875 -14.921875 14.78125 -19.359375 9.984375 -19.359375 Z M 5.078125 -1.5625 L 5.078125 -17.796875 L 9.34375 -17.796875 C 13.25 -17.796875 16.15625 -14.421875 16.15625 -9.515625 C 16.15625 -4.765625 13.25 -1.5625 9.34375 -1.5625 Z M 5.078125 -1.5625 "/>
</symbol>
<symbol overflow="visible" id="glyph4-2">
<path style="stroke:none;" d="M 5.015625 -0.03125 L 5.015625 -2.3125 L 2.703125 -2.3125 L 2.703125 0 L 3.40625 0 L 2.703125 3.484375 L 3.84375 3.484375 Z M 5.015625 -0.03125 "/>
</symbol>
<symbol overflow="visible" id="glyph4-3">
<path style="stroke:none;" d="M 2.5625 -14.328125 C 3.375 -16.28125 5.1875 -17.296875 6.890625 -17.296875 C 8.34375 -17.296875 9.703125 -16.453125 9.703125 -14.671875 C 9.703125 -12.96875 8.5625 -11.328125 6.859375 -10.9375 C 6.6875 -10.90625 6.640625 -10.90625 4.65625 -10.734375 L 4.65625 -9.03125 L 6.640625 -9.03125 C 9.65625 -9.03125 10.265625 -6.4375 10.265625 -5.046875 C 10.265625 -2.875 8.984375 -1.09375 6.828125 -1.09375 C 4.90625 -1.09375 2.703125 -2.0625 1.484375 -3.953125 L 1.171875 -2.28125 C 3.203125 0.328125 5.765625 0.609375 6.890625 0.609375 C 10.296875 0.609375 12.75 -2.09375 12.75 -5.015625 C 12.75 -7.5625 10.796875 -9.28125 8.890625 -9.875 C 11.015625 -11.015625 12 -12.90625 12 -14.671875 C 12 -17.0625 9.671875 -18.90625 6.921875 -18.90625 C 4.765625 -18.90625 2.734375 -17.796875 1.5625 -15.84375 Z M 2.5625 -14.328125 "/>
</symbol>
<symbol overflow="visible" id="glyph4-4">
<path style="stroke:none;" d="M 2.015625 -0.671875 C 2.953125 0.03125 3.984375 0.609375 5.71875 0.609375 C 9.375 0.609375 12.75 -3.265625 12.75 -9.34375 C 12.75 -17.15625 9.421875 -18.90625 7.0625 -18.90625 C 5.109375 -18.90625 3.953125 -18.078125 2.984375 -17.046875 C 1.234375 -15.140625 1.171875 -13.296875 1.171875 -12.109375 C 1.171875 -8.53125 3.015625 -5.40625 5.6875 -5.40625 C 7.421875 -5.40625 9.203125 -6.21875 10.40625 -7.71875 C 10.09375 -3.234375 7.953125 -1.09375 5.75 -1.09375 C 4.796875 -1.09375 3.875 -1.3125 2.875 -2.140625 Z M 10.3125 -12.125 C 10.34375 -11.9375 10.34375 -11.65625 10.34375 -11.46875 C 10.34375 -9.171875 8.984375 -7.109375 6.78125 -7.109375 C 5.46875 -7.109375 4.6875 -7.75 4.09375 -8.78125 C 3.484375 -9.875 3.453125 -10.90625 3.453125 -12.109375 C 3.453125 -13.328125 3.484375 -14.46875 4.265625 -15.703125 C 4.828125 -16.515625 5.609375 -17.296875 7.0625 -17.296875 C 9.796875 -17.296875 10.265625 -13.5 10.3125 -12.125 Z M 10.3125 -12.125 "/>
</symbol>
<symbol overflow="visible" id="glyph4-5">
<path style="stroke:none;" d="M 4.265625 -16.515625 L 11.609375 -16.515625 L 11.609375 -18.296875 L 2.265625 -18.296875 L 2.265625 -8 L 4.09375 -8 C 4.578125 -9.125 5.609375 -10.203125 7.21875 -10.203125 C 8.53125 -10.203125 10.046875 -9.0625 10.046875 -5.71875 C 10.046875 -1.09375 6.640625 -1.09375 6.390625 -1.09375 C 4.515625 -1.09375 2.8125 -2.171875 2.015625 -3.6875 L 1.09375 -2.125 C 2.234375 -0.53125 4.15625 0.609375 6.421875 0.609375 C 9.734375 0.609375 12.515625 -2.140625 12.515625 -5.65625 C 12.515625 -9.140625 10.125 -11.90625 7.25 -11.90625 C 6.140625 -11.90625 5.078125 -11.484375 4.265625 -10.765625 Z M 4.265625 -16.515625 "/>
</symbol>
<symbol overflow="visible" id="glyph4-6">
<path style="stroke:none;" d="M 8.34375 -18.90625 L 7.78125 -18.90625 C 6.140625 -17.203125 3.828125 -17.125 2.484375 -17.0625 L 2.484375 -15.453125 C 3.40625 -15.484375 4.734375 -15.53125 6.140625 -16.125 L 6.140625 -1.625 L 2.65625 -1.625 L 2.65625 0 L 11.828125 0 L 11.828125 -1.625 L 8.34375 -1.625 Z M 8.34375 -18.90625 "/>
</symbol>
<symbol overflow="visible" id="glyph5-0">
<path style="stroke:none;" d=""/>
</symbol>
<symbol overflow="visible" id="glyph5-1">
<path style="stroke:none;" d="M 10.375 -4.765625 L 13.140625 -4.765625 L 13.140625 -6.46875 L 10.375 -6.46875 L 10.375 -18.296875 L 7.84375 -18.296875 L 0.78125 -6.46875 L 0.78125 -4.765625 L 8.171875 -4.765625 L 8.171875 0 L 10.375 0 Z M 2.953125 -6.46875 C 4.40625 -8.875 8.34375 -15.484375 8.34375 -17.0625 L 8.34375 -6.46875 Z M 2.953125 -6.46875 "/>
</symbol>
<symbol overflow="visible" id="glyph5-2">
<path style="stroke:none;" d="M 6.46875 -16.3125 C 6.8125 -16.3125 7.140625 -16.34375 7.46875 -16.34375 L 10.84375 -16.34375 C 6.71875 -11.796875 4.234375 -6.21875 4.234375 0.3125 L 6.578125 0.3125 C 6.578125 -8.0625 10.578125 -14.03125 12.75 -16.484375 L 12.75 -18.296875 L 1.171875 -18.296875 L 1.171875 -16.3125 Z M 6.46875 -16.3125 "/>
</symbol>
<symbol overflow="visible" id="glyph5-3">
<path style="stroke:none;" d="M 5.015625 -0.03125 L 5.015625 -2.3125 L 2.703125 -2.3125 L 2.703125 0 L 3.40625 0 L 2.703125 3.484375 L 3.84375 3.484375 Z M 5.015625 -0.03125 "/>
</symbol>
<symbol overflow="visible" id="glyph5-4">
<path style="stroke:none;" d="M 8.34375 -18.90625 L 7.78125 -18.90625 C 6.140625 -17.203125 3.828125 -17.125 2.484375 -17.0625 L 2.484375 -15.453125 C 3.40625 -15.484375 4.734375 -15.53125 6.140625 -16.125 L 6.140625 -1.625 L 2.65625 -1.625 L 2.65625 0 L 11.828125 0 L 11.828125 -1.625 L 8.34375 -1.625 Z M 8.34375 -18.90625 "/>
</symbol>
<symbol overflow="visible" id="glyph6-0">
<path style="stroke:none;" d=""/>
</symbol>
<symbol overflow="visible" id="glyph6-1">
<path style="stroke:none;" d="M 5.109375 -19.359375 L 2.625 -19.359375 L 2.625 0 L 5.109375 0 Z M 5.109375 -19.359375 "/>
</symbol>
<symbol overflow="visible" id="glyph6-2">
<path style="stroke:none;" d="M 5.015625 -0.03125 L 5.015625 -2.3125 L 2.703125 -2.3125 L 2.703125 0 L 3.40625 0 L 2.703125 3.484375 L 3.84375 3.484375 Z M 5.015625 -0.03125 "/>
</symbol>
<symbol overflow="visible" id="glyph6-3">
<path style="stroke:none;" d="M 10.375 -4.765625 L 13.140625 -4.765625 L 13.140625 -6.46875 L 10.375 -6.46875 L 10.375 -18.296875 L 7.84375 -18.296875 L 0.78125 -6.46875 L 0.78125 -4.765625 L 8.171875 -4.765625 L 8.171875 0 L 10.375 0 Z M 2.953125 -6.46875 C 4.40625 -8.875 8.34375 -15.484375 8.34375 -17.0625 L 8.34375 -6.46875 Z M 2.953125 -6.46875 "/>
</symbol>
<symbol overflow="visible" id="glyph6-4">
<path style="stroke:none;" d="M 6.46875 -16.3125 C 6.8125 -16.3125 7.140625 -16.34375 7.46875 -16.34375 L 10.84375 -16.34375 C 6.71875 -11.796875 4.234375 -6.21875 4.234375 0.3125 L 6.578125 0.3125 C 6.578125 -8.0625 10.578125 -14.03125 12.75 -16.484375 L 12.75 -18.296875 L 1.171875 -18.296875 L 1.171875 -16.3125 Z M 6.46875 -16.3125 "/>
</symbol>
<symbol overflow="visible" id="glyph7-0">
<path style="stroke:none;" d=""/>
</symbol>
<symbol overflow="visible" id="glyph7-1">
<path style="stroke:none;" d="M 17.09375 -19.359375 L 14.609375 -19.359375 L 14.609375 -10.90625 L 5.109375 -10.90625 L 5.109375 -19.359375 L 2.625 -19.359375 L 2.625 0 L 5.109375 0 L 5.109375 -9.203125 L 14.609375 -9.203125 L 14.609375 0 L 17.09375 0 Z M 17.09375 -19.359375 "/>
</symbol>
<symbol overflow="visible" id="glyph7-2">
<path style="stroke:none;" d="M 5.015625 -0.03125 L 5.015625 -2.3125 L 2.703125 -2.3125 L 2.703125 0 L 3.40625 0 L 2.703125 3.484375 L 3.84375 3.484375 Z M 5.015625 -0.03125 "/>
</symbol>
<symbol overflow="visible" id="glyph7-3">
<path style="stroke:none;" d="M 10.375 -4.765625 L 13.140625 -4.765625 L 13.140625 -6.46875 L 10.375 -6.46875 L 10.375 -18.296875 L 7.84375 -18.296875 L 0.78125 -6.46875 L 0.78125 -4.765625 L 8.171875 -4.765625 L 8.171875 0 L 10.375 0 Z M 2.953125 -6.46875 C 4.40625 -8.875 8.34375 -15.484375 8.34375 -17.0625 L 8.34375 -6.46875 Z M 2.953125 -6.46875 "/>
</symbol>
<symbol overflow="visible" id="glyph7-4">
<path style="stroke:none;" d="M 8.34375 -18.90625 L 7.78125 -18.90625 C 6.140625 -17.203125 3.828125 -17.125 2.484375 -17.0625 L 2.484375 -15.453125 C 3.40625 -15.484375 4.734375 -15.53125 6.140625 -16.125 L 6.140625 -1.625 L 2.65625 -1.625 L 2.65625 0 L 11.828125 0 L 11.828125 -1.625 L 8.34375 -1.625 Z M 8.34375 -18.90625 "/>
</symbol>
<symbol overflow="visible" id="glyph7-5">
<path style="stroke:none;" d="M 4.265625 -16.515625 L 11.609375 -16.515625 L 11.609375 -18.296875 L 2.265625 -18.296875 L 2.265625 -8 L 4.09375 -8 C 4.578125 -9.125 5.609375 -10.203125 7.21875 -10.203125 C 8.53125 -10.203125 10.046875 -9.0625 10.046875 -5.71875 C 10.046875 -1.09375 6.640625 -1.09375 6.390625 -1.09375 C 4.515625 -1.09375 2.8125 -2.171875 2.015625 -3.6875 L 1.09375 -2.125 C 2.234375 -0.53125 4.15625 0.609375 6.421875 0.609375 C 9.734375 0.609375 12.515625 -2.140625 12.515625 -5.65625 C 12.515625 -9.140625 10.125 -11.90625 7.25 -11.90625 C 6.140625 -11.90625 5.078125 -11.484375 4.265625 -10.765625 Z M 4.265625 -16.515625 "/>
</symbol>
<symbol overflow="visible" id="glyph8-0">
<path style="stroke:none;" d=""/>
</symbol>
<symbol overflow="visible" id="glyph8-1">
<path style="stroke:none;" d="M 10.375 -4.765625 L 13.140625 -4.765625 L 13.140625 -6.46875 L 10.375 -6.46875 L 10.375 -18.296875 L 7.84375 -18.296875 L 0.78125 -6.46875 L 0.78125 -4.765625 L 8.171875 -4.765625 L 8.171875 0 L 10.375 0 Z M 2.953125 -6.46875 C 4.40625 -8.875 8.34375 -15.484375 8.34375 -17.0625 L 8.34375 -6.46875 Z M 2.953125 -6.46875 "/>
</symbol>
<symbol overflow="visible" id="glyph8-2">
<path style="stroke:none;" d="M 8.34375 -18.90625 L 7.78125 -18.90625 C 6.140625 -17.203125 3.828125 -17.125 2.484375 -17.0625 L 2.484375 -15.453125 C 3.40625 -15.484375 4.734375 -15.53125 6.140625 -16.125 L 6.140625 -1.625 L 2.65625 -1.625 L 2.65625 0 L 11.828125 0 L 11.828125 -1.625 L 8.34375 -1.625 Z M 8.34375 -18.90625 "/>
</symbol>
<symbol overflow="visible" id="glyph8-3">
<path style="stroke:none;" d="M 6.46875 -16.3125 C 6.8125 -16.3125 7.140625 -16.34375 7.46875 -16.34375 L 10.84375 -16.34375 C 6.71875 -11.796875 4.234375 -6.21875 4.234375 0.3125 L 6.578125 0.3125 C 6.578125 -8.0625 10.578125 -14.03125 12.75 -16.484375 L 12.75 -18.296875 L 1.171875 -18.296875 L 1.171875 -16.3125 Z M 6.46875 -16.3125 "/>
</symbol>
<symbol overflow="visible" id="glyph9-0">
<path style="stroke:none;" d=""/>
</symbol>
<symbol overflow="visible" id="glyph9-1">
<path style="stroke:none;" d="M 16.234375 -3.171875 C 14.59375 -2.09375 13.640625 -1.5 10.875 -1.5 C 6.859375 -1.5 4.34375 -5.6875 4.34375 -9.703125 C 4.34375 -13.5 6.671875 -17.875 10.9375 -17.875 C 12.90625 -17.875 14.171875 -17.40625 15.703125 -16.421875 L 16.09375 -18.71875 C 14.890625 -19.296875 12.75 -19.65625 10.96875 -19.65625 C 5.796875 -19.65625 1.84375 -15.3125 1.84375 -9.453125 C 1.84375 -5.046875 5.15625 0.3125 10.96875 0.3125 C 13.53125 0.3125 14.59375 -0.140625 16.40625 -1.25 Z M 16.234375 -3.171875 "/>
</symbol>
<symbol overflow="visible" id="glyph9-2">
<path style="stroke:none;" d="M 5.015625 -0.03125 L 5.015625 -2.3125 L 2.703125 -2.3125 L 2.703125 0 L 3.40625 0 L 2.703125 3.484375 L 3.84375 3.484375 Z M 5.015625 -0.03125 "/>
</symbol>
<symbol overflow="visible" id="glyph9-3">
<path style="stroke:none;" d="M 11.578125 -18.359375 C 10.15625 -18.90625 9.015625 -18.90625 8.625 -18.90625 C 4.6875 -18.90625 1.171875 -14.984375 1.171875 -8.984375 C 1.171875 -1.09375 4.625 0.609375 7 0.609375 C 8.671875 0.609375 9.875 -0.03125 10.96875 -1.28125 C 12.21875 -2.703125 12.75 -3.984375 12.75 -6.1875 C 12.75 -9.765625 10.90625 -12.890625 8.234375 -12.890625 C 7.328125 -12.890625 5.21875 -12.65625 3.515625 -10.578125 C 3.875 -15.0625 6.078125 -17.296875 8.640625 -17.296875 C 9.703125 -17.296875 10.59375 -17.09375 11.578125 -16.703125 Z M 3.546875 -6.109375 C 3.546875 -6.5 3.546875 -6.546875 3.5625 -6.890625 C 3.5625 -8.953125 4.828125 -11.1875 7.140625 -11.1875 C 8.484375 -11.1875 9.265625 -10.484375 9.8125 -9.453125 C 10.40625 -8.421875 10.453125 -7.453125 10.453125 -6.1875 C 10.453125 -5.25 10.453125 -3.953125 9.796875 -2.8125 C 9.3125 -2.03125 8.59375 -1.09375 7 -1.09375 C 4.046875 -1.09375 3.625 -5.1875 3.546875 -6.109375 Z M 3.546875 -6.109375 "/>
</symbol>
<symbol overflow="visible" id="glyph9-4">
<path style="stroke:none;" d="M 6.46875 -16.3125 C 6.8125 -16.3125 7.140625 -16.34375 7.46875 -16.34375 L 10.84375 -16.34375 C 6.71875 -11.796875 4.234375 -6.21875 4.234375 0.3125 L 6.578125 0.3125 C 6.578125 -8.0625 10.578125 -14.03125 12.75 -16.484375 L 12.75 -18.296875 L 1.171875 -18.296875 L 1.171875 -16.3125 Z M 6.46875 -16.3125 "/>
</symbol>
<symbol overflow="visible" id="glyph9-5">
<path style="stroke:none;" d="M 8.34375 -18.90625 L 7.78125 -18.90625 C 6.140625 -17.203125 3.828125 -17.125 2.484375 -17.0625 L 2.484375 -15.453125 C 3.40625 -15.484375 4.734375 -15.53125 6.140625 -16.125 L 6.140625 -1.625 L 2.65625 -1.625 L 2.65625 0 L 11.828125 0 L 11.828125 -1.625 L 8.34375 -1.625 Z M 8.34375 -18.90625 "/>
</symbol>
<symbol overflow="visible" id="glyph10-0">
<path style="stroke:none;" d=""/>
</symbol>
<symbol overflow="visible" id="glyph10-1">
<path style="stroke:none;" d="M 14.3125 -9.171875 L 14.3125 -10.875 L 5.109375 -10.875 L 5.109375 -17.484375 L 8.953125 -17.484375 C 9.28125 -17.484375 9.625 -17.453125 9.953125 -17.453125 L 15.0625 -17.453125 L 15.0625 -19.265625 L 2.625 -19.265625 L 2.625 0 L 15.453125 0 L 15.453125 -1.984375 L 11.9375 -1.984375 C 11.609375 -1.984375 11.265625 -1.953125 10.9375 -1.953125 L 5.109375 -1.953125 L 5.109375 -9.171875 Z M 14.3125 -9.171875 "/>
</symbol>
<symbol overflow="visible" id="glyph10-2">
<path style="stroke:none;" d="M 5.015625 -0.03125 L 5.015625 -2.3125 L 2.703125 -2.3125 L 2.703125 0 L 3.40625 0 L 2.703125 3.484375 L 3.84375 3.484375 Z M 5.015625 -0.03125 "/>
</symbol>
<symbol overflow="visible" id="glyph10-3">
<path style="stroke:none;" d="M 10.375 -4.765625 L 13.140625 -4.765625 L 13.140625 -6.46875 L 10.375 -6.46875 L 10.375 -18.296875 L 7.84375 -18.296875 L 0.78125 -6.46875 L 0.78125 -4.765625 L 8.171875 -4.765625 L 8.171875 0 L 10.375 0 Z M 2.953125 -6.46875 C 4.40625 -8.875 8.34375 -15.484375 8.34375 -17.0625 L 8.34375 -6.46875 Z M 2.953125 -6.46875 "/>
</symbol>
<symbol overflow="visible" id="glyph10-4">
<path style="stroke:none;" d="M 8.34375 -18.90625 L 7.78125 -18.90625 C 6.140625 -17.203125 3.828125 -17.125 2.484375 -17.0625 L 2.484375 -15.453125 C 3.40625 -15.484375 4.734375 -15.53125 6.140625 -16.125 L 6.140625 -1.625 L 2.65625 -1.625 L 2.65625 0 L 11.828125 0 L 11.828125 -1.625 L 8.34375 -1.625 Z M 8.34375 -18.90625 "/>
</symbol>
<symbol overflow="visible" id="glyph10-5">
<path style="stroke:none;" d="M 6.46875 -16.3125 C 6.8125 -16.3125 7.140625 -16.34375 7.46875 -16.34375 L 10.84375 -16.34375 C 6.71875 -11.796875 4.234375 -6.21875 4.234375 0.3125 L 6.578125 0.3125 C 6.578125 -8.0625 10.578125 -14.03125 12.75 -16.484375 L 12.75 -18.296875 L 1.171875 -18.296875 L 1.171875 -16.3125 Z M 6.46875 -16.3125 "/>
</symbol>
</g>
</defs>
<g id="surface1">
<g style="fill:rgb(0%,0%,0%);fill-opacity:1;">
  <use xlink:href="#glyph0-1" x="234.256" y="20.3732"/>
  <use xlink:href="#glyph0-2" x="252.834256" y="20.3732"/>
  <use xlink:href="#glyph0-3" x="269.850376" y="20.3732"/>
  <use xlink:href="#glyph0-4" x="283.798016" y="20.3732"/>
  <use xlink:href="#glyph0-4" x="297.745656" y="20.3732"/>
</g>
<g style="fill:rgb(0%,0%,0%);fill-opacity:1;">
  <use xlink:href="#glyph1-1" x="229.608" y="53.847199"/>
</g>
<g style="fill:rgb(0%,0%,0%);fill-opacity:1;">
  <use xlink:href="#glyph2-1" x="257.501599" y="53.847199"/>
  <use xlink:href="#glyph2-2" x="274.51772" y="53.847199"/>
  <use xlink:href="#glyph2-2" x="288.465359" y="53.847199"/>
  <use xlink:href="#glyph2-3" x="302.412999" y="53.847199"/>
</g>
<g style="fill:rgb(0%,0%,0%);fill-opacity:1;">
  <use xlink:href="#glyph3-1" x="98.2564" y="116.3732"/>
  <use xlink:href="#glyph3-2" x="116.834656" y="116.3732"/>
  <use xlink:href="#glyph3-3" x="133.850776" y="116.3732"/>
  <use xlink:href="#glyph3-3" x="147.798416" y="116.3732"/>
  <use xlink:href="#glyph3-4" x="161.746056" y="116.3732"/>
</g>
<g style="fill:rgb(100%,0%,0%);fill-opacity:1;">
  <use xlink:href="#glyph4-1" x="225.4808" y="116.3732"/>
  <use xlink:href="#glyph4-2" x="245.621192" y="116.3732"/>
  <use xlink:href="#glyph4-3" x="262.637312" y="116.3732"/>
  <use xlink:href="#glyph4-4" x="276.584952" y="116.3732"/>
  <use xlink:href="#glyph4-3" x="290.532592" y="116.3732"/>
</g>
<g style="fill:rgb(100%,0%,0%);fill-opacity:1;">
  <use xlink:href="#glyph5-1" x="214.6336" y="149.847199"/>
  <use xlink:href="#glyph5-1" x="228.58124" y="149.847199"/>
  <use xlink:href="#glyph5-2" x="242.528879" y="149.847199"/>
  <use xlink:href="#glyph5-3" x="256.476519" y="149.847199"/>
  <use xlink:href="#glyph5-1" x="273.49264" y="149.847199"/>
  <use xlink:href="#glyph5-4" x="287.440279" y="149.847199"/>
  <use xlink:href="#glyph5-2" x="301.387919" y="149.847199"/>
</g>
<g style="fill:rgb(0%,0%,0%);fill-opacity:1;">
  <use xlink:href="#glyph6-1" x="359.68" y="116.3732"/>
  <use xlink:href="#glyph6-2" x="367.406992" y="116.3732"/>
  <use xlink:href="#glyph6-3" x="384.423113" y="116.3732"/>
  <use xlink:href="#glyph6-3" x="398.370752" y="116.3732"/>
  <use xlink:href="#glyph6-4" x="412.318392" y="116.3732"/>
</g>
<g style="fill:rgb(100%,0%,0%);fill-opacity:1;">
  <use xlink:href="#glyph7-1" x="161.674" y="212.3732"/>
  <use xlink:href="#glyph7-2" x="181.423858" y="212.3732"/>
  <use xlink:href="#glyph7-3" x="198.439978" y="212.3732"/>
  <use xlink:href="#glyph7-4" x="212.387618" y="212.3732"/>
  <use xlink:href="#glyph7-5" x="226.335258" y="212.3732"/>
</g>
<g style="fill:rgb(100%,0%,0%);fill-opacity:1;">
  <use xlink:href="#glyph8-1" x="180.078399" y="245.847199"/>
  <use xlink:href="#glyph8-2" x="194.026039" y="245.847199"/>
  <use xlink:href="#glyph8-3" x="207.973679" y="245.847199"/>
</g>
<g style="fill:rgb(0%,0%,0%);fill-opacity:1;">
  <use xlink:href="#glyph9-1" x="306.6428" y="212.3732"/>
  <use xlink:href="#glyph9-2" x="324.439988" y="212.3732"/>
  <use xlink:href="#glyph9-3" x="341.456109" y="212.3732"/>
  <use xlink:href="#glyph9-4" x="355.403748" y="212.3732"/>
  <use xlink:href="#glyph9-5" x="369.351388" y="212.3732"/>
</g>
<g style="fill:rgb(0%,100%,0%);fill-opacity:1;">
  <use xlink:href="#glyph10-1" x="451.2252" y="212.3732"/>
  <use xlink:href="#glyph10-2" x="467.878682" y="212.3732"/>
  <use xlink:href="#glyph10-3" x="484.894802" y="212.3732"/>
  <use xlink:href="#glyph10-4" x="498.842442" y="212.3732"/>
  <use xlink:href="#glyph10-5" x="512.790082" y="212.3732"/>
</g>
<g style="fill:rgb(0%,0%,0%);fill-opacity:1;">
  <use xlink:href="#glyph3-5" x="18.2564" y="212.3732"/>
  <use xlink:href="#glyph3-2" x="36.834656" y="212.3732"/>
  <use xlink:href="#glyph3-6" x="53.850776" y="212.3732"/>
  <use xlink:href="#glyph3-3" x="67.798416" y="212.3732"/>
  <use xlink:href="#glyph3-6" x="81.746056" y="212.3732"/>
</g>
<path style="fill:none;stroke-width:1.2;stroke-linecap:butt;stroke-linejoin:round;stroke:rgb(0%,0%,0%);stroke-opacity:1;stroke-miterlimit:10;" d="M 272 472 L 272 436 " transform="matrix(1,0,0,-1,1,529)"/>
<path style="fill-rule:evenodd;fill:rgb(0%,0%,0%);fill-opacity:1;stroke-width:1.2;stroke-linecap:butt;stroke-linejoin:round;stroke:rgb(0%,0%,0%);stroke-opacity:1;stroke-miterlimit:10;" d="M 272 436 L 276.996094 451 L 267.003906 451 Z M 272 436 " transform="matrix(1,0,0,-1,1,529)"/>
<path style="fill:none;stroke-width:1.2;stroke-linecap:butt;stroke-linejoin:round;stroke:rgb(0%,0%,0%);stroke-opacity:1;stroke-miterlimit:10;" d="M 256 472 L 144 436 " transform="matrix(1,0,0,-1,1,529)"/>
<path style="fill-rule:evenodd;fill:rgb(0%,0%,0%);fill-opacity:1;stroke-width:1.2;stroke-linecap:butt;stroke-linejoin:round;stroke:rgb(0%,0%,0%);stroke-opacity:1;stroke-miterlimit:10;" d="M 144 436 L 159.808594 435.835938 L 156.75 445.34375 Z M 144 436 " transform="matrix(1,0,0,-1,1,529)"/>
<path style="fill:none;stroke-width:1.2;stroke-linecap:butt;stroke-linejoin:round;stroke:rgb(0%,0%,0%);stroke-opacity:1;stroke-miterlimit:10;" d="M 288 472 L 392 436 " transform="matrix(1,0,0,-1,1,529)"/>
<path style="fill-rule:evenodd;fill:rgb(0%,0%,0%);fill-opacity:1;stroke-width:1.2;stroke-linecap:butt;stroke-linejoin:round;stroke:rgb(0%,0%,0%);stroke-opacity:1;stroke-miterlimit:10;" d="M 392 436 L 379.460938 445.625 L 376.191406 436.1875 Z M 392 436 " transform="matrix(1,0,0,-1,1,529)"/>
<path style="fill:none;stroke-width:1.2;stroke-linecap:butt;stroke-linejoin:round;stroke:rgb(100%,0%,0%);stroke-opacity:1;stroke-miterlimit:10;" d="M 264 372 L 208 340 " transform="matrix(1,0,0,-1,1,529)"/>
<path style="fill-rule:evenodd;fill:rgb(100%,0%,0%);fill-opacity:1;stroke-width:1.2;stroke-linecap:butt;stroke-linejoin:round;stroke:rgb(100%,0%,0%);stroke-opacity:1;stroke-miterlimit:10;" d="M 208 340 L 223.5 343.105469 L 218.546875 351.777344 Z M 208 340 " transform="matrix(1,0,0,-1,1,529)"/>
<path style="fill:none;stroke-width:1.2;stroke-linecap:butt;stroke-linejoin:round;stroke:rgb(0%,0%,0%);stroke-opacity:1;stroke-miterlimit:10;" d="M 240 372 L 64 340 " transform="matrix(1,0,0,-1,1,529)"/>
<path style="fill-rule:evenodd;fill:rgb(0%,0%,0%);fill-opacity:1;stroke-width:1.2;stroke-linecap:butt;stroke-linejoin:round;stroke:rgb(0%,0%,0%);stroke-opacity:1;stroke-miterlimit:10;" d="M 64 340 L 79.652344 337.769531 L 77.863281 347.597656 Z M 64 340 " transform="matrix(1,0,0,-1,1,529)"/>
<path style="fill:none;stroke-width:1.2;stroke-linecap:butt;stroke-linejoin:round;stroke:rgb(0%,0%,0%);stroke-opacity:1;stroke-miterlimit:10;" d="M 280 372 L 356 340 " transform="matrix(1,0,0,-1,1,529)"/>
<path style="fill-rule:evenodd;fill:rgb(0%,0%,0%);fill-opacity:1;stroke-width:1.2;stroke-linecap:butt;stroke-linejoin:round;stroke:rgb(0%,0%,0%);stroke-opacity:1;stroke-miterlimit:10;" d="M 356 340 L 344.113281 350.425781 L 340.238281 341.21875 Z M 356 340 " transform="matrix(1,0,0,-1,1,529)"/>
<path style="fill:none;stroke-width:1.2;stroke-linecap:butt;stroke-linejoin:round;stroke:rgb(0%,100%,0%);stroke-opacity:1;stroke-miterlimit:10;" d="M 304 372 L 492 340 " transform="matrix(1,0,0,-1,1,529)"/>
<path style="fill-rule:evenodd;fill:rgb(0%,100%,0%);fill-opacity:1;stroke-width:1.2;stroke-linecap:butt;stroke-linejoin:round;stroke:rgb(0%,100%,0%);stroke-opacity:1;stroke-miterlimit:10;" d="M 304 372 L 317.949219 364.558594 L 319.625 374.40625 Z M 304 372 " transform="matrix(1,0,0,-1,1,529)"/>
<g style="fill:rgb(0%,0%,0%);fill-opacity:1;">
  <use xlink:href="#glyph4-1" x="89.4808" y="312.3732"/>
  <use xlink:href="#glyph4-2" x="109.621192" y="312.3732"/>
  <use xlink:href="#glyph4-5" x="126.637312" y="312.3732"/>
  <use xlink:href="#glyph4-4" x="140.584952" y="312.3732"/>
  <use xlink:href="#glyph4-6" x="154.532592" y="312.3732"/>
</g>
<path style="fill:none;stroke-width:1.2;stroke-linecap:butt;stroke-linejoin:round;stroke:rgb(0%,0%,0%);stroke-opacity:1;stroke-miterlimit:10;" d="M 192 272 L 136 240 " transform="matrix(1,0,0,-1,1,529)"/>
<path style="fill-rule:evenodd;fill:rgb(0%,0%,0%);fill-opacity:1;stroke-width:1.2;stroke-linecap:butt;stroke-linejoin:round;stroke:rgb(0%,0%,0%);stroke-opacity:1;stroke-miterlimit:10;" d="M 136 240 L 151.5 243.105469 L 146.546875 251.777344 Z M 136 240 " transform="matrix(1,0,0,-1,1,529)"/>
<path style="fill:none;stroke-width:1.2;stroke-linecap:butt;stroke-linejoin:round;stroke:rgb(0%,0%,0%);stroke-opacity:1;stroke-miterlimit:10;" d="M 208 272 L 284 240 " transform="matrix(1,0,0,-1,1,529)"/>
<path style="fill-rule:evenodd;fill:rgb(0%,0%,0%);fill-opacity:1;stroke-width:1.2;stroke-linecap:butt;stroke-linejoin:round;stroke:rgb(0%,0%,0%);stroke-opacity:1;stroke-miterlimit:10;" d="M 284 240 L 272.113281 250.425781 L 268.238281 241.21875 Z M 284 240 " transform="matrix(1,0,0,-1,1,529)"/>
<g style="fill:rgb(0%,0%,0%);fill-opacity:1;">
  <use xlink:href="#glyph3-7" x="242.2564" y="312.3732"/>
  <use xlink:href="#glyph3-2" x="260.834656" y="312.3732"/>
  <use xlink:href="#glyph3-3" x="277.850776" y="312.3732"/>
  <use xlink:href="#glyph3-8" x="291.798416" y="312.3732"/>
  <use xlink:href="#glyph3-9" x="305.746056" y="312.3732"/>
</g>
</g>
</svg>
