<?xml version="1.0" encoding="UTF-8"?>
<svg xmlns="http://www.w3.org/2000/svg" xmlns:xlink="http://www.w3.org/1999/xlink" width="112pt" height="71pt" viewBox="0 0 112 71" version="1.1">
<defs>
<g>
<symbol overflow="visible" id="glyph0-0">
<path style="stroke:none;" d=""/>
</symbol>
<symbol overflow="visible" id="glyph0-1">
<path style="stroke:none;" d="M 6.4375 -9.796875 C 6.578125 -10.375 6.859375 -11.4375 6.859375 -11.578125 C 6.859375 -12.046875 6.53125 -12.328125 6.046875 -12.328125 C 5.96875 -12.328125 5.1875 -12.296875 4.9375 -11.328125 L 0.921875 4.828125 C 0.84375 5.15625 0.84375 5.21875 0.84375 5.265625 C 0.84375 5.6875 1.140625 6.03125 1.625 6.03125 C 2.203125 6.03125 2.53125 5.515625 2.59375 5.4375 C 2.703125 5.1875 3.0625 3.734375 4.125 -0.5625 C 5.015625 0.1875 6.28125 0.3125 6.828125 0.3125 C 8.78125 0.3125 9.875 -0.953125 10.546875 -1.734375 C 10.796875 -0.46875 11.828125 0.3125 13.046875 0.3125 C 14.03125 0.3125 14.671875 -0.328125 15.109375 -1.234375 C 15.59375 -2.234375 15.953125 -3.9375 15.953125 -3.984375 C 15.953125 -4.265625 15.703125 -4.265625 15.625 -4.265625 C 15.34375 -4.265625 15.3125 -4.15625 15.234375 -3.765625 C 14.75 -1.953125 14.25 -0.3125 13.109375 -0.3125 C 12.359375 -0.3125 12.265625 -1.03125 12.265625 -1.59375 C 12.265625 -2.203125 12.609375 -3.515625 12.828125 -4.484375 L 13.609375 -7.5 C 13.6875 -7.921875 13.96875 -8.984375 14.078125 -9.40625 C 14.21875 -10.046875 14.5 -11.09375 14.5 -11.265625 C 14.5 -11.765625 14.109375 -12.015625 13.6875 -12.015625 C 13.5625 -12.015625 12.828125 -12 12.609375 -11.046875 L 11.296875 -5.828125 C 10.96875 -4.4375 10.65625 -3.265625 10.578125 -2.984375 C 10.546875 -2.84375 9.203125 -0.3125 6.9375 -0.3125 C 5.546875 -0.3125 4.875 -1.234375 4.875 -2.734375 C 4.875 -3.546875 5.078125 -4.328125 5.265625 -5.109375 Z M 6.4375 -9.796875 "/>
</symbol>
<symbol overflow="visible" id="glyph1-0">
<path style="stroke:none;" d=""/>
</symbol>
<symbol overflow="visible" id="glyph1-1">
<path style="stroke:none;" d="M 12.6875 -13.953125 C 12.6875 -15.78125 12.1875 -19.65625 9.34375 -19.65625 C 5.46875 -19.65625 1.171875 -11.796875 1.171875 -5.40625 C 1.171875 -2.796875 1.984375 0.3125 4.515625 0.3125 C 8.453125 0.3125 12.6875 -7.703125 12.6875 -13.953125 Z M 4.125 -10.125 C 4.609375 -11.90625 5.15625 -14.140625 6.28125 -16.125 C 7.03125 -17.484375 8.0625 -19.046875 9.3125 -19.046875 C 10.6875 -19.046875 10.84375 -17.265625 10.84375 -15.671875 C 10.84375 -14.3125 10.625 -12.890625 9.953125 -10.125 Z M 9.703125 -9.234375 C 9.40625 -7.953125 8.8125 -5.578125 7.75 -3.5625 C 6.78125 -1.671875 5.71875 -0.3125 4.515625 -0.3125 C 3.59375 -0.3125 3.015625 -1.109375 3.015625 -3.703125 C 3.015625 -4.875 3.171875 -6.5 3.90625 -9.234375 Z M 9.703125 -9.234375 "/>
</symbol>
<symbol overflow="visible" id="glyph2-0">
<path style="stroke:none;" d=""/>
</symbol>
<symbol overflow="visible" id="glyph2-1">
<path style="stroke:none;" d="M 5.671875 -9.21875 C 5.828125 -9.546875 5.84375 -9.703125 5.84375 -9.84375 C 5.84375 -10.453125 5.296875 -10.921875 4.6875 -10.921875 C 3.953125 -10.921875 3.71875 -10.3125 3.609375 -10 L 1.03125 -1.546875 C 1.015625 -1.5 0.9375 -1.25 0.9375 -1.234375 C 0.9375 -1 1.546875 -0.796875 1.703125 -0.796875 C 1.84375 -0.796875 1.859375 -0.84375 2 -1.140625 Z M 5.671875 -9.21875 "/>
</symbol>
<symbol overflow="visible" id="glyph3-0">
<path style="stroke:none;" d=""/>
</symbol>
<symbol overflow="visible" id="glyph3-1">
<path style="stroke:none;" d="M 12.6875 -13.953125 C 12.6875 -15.78125 12.1875 -19.65625 9.34375 -19.65625 C 5.46875 -19.65625 1.171875 -11.796875 1.171875 -5.40625 C 1.171875 -2.796875 1.984375 0.3125 4.515625 0.3125 C 8.453125 0.3125 12.6875 -7.703125 12.6875 -13.953125 Z M 4.125 -10.125 C 4.609375 -11.90625 5.15625 -14.140625 6.28125 -16.125 C 7.03125 -17.484375 8.0625 -19.046875 9.3125 -19.046875 C 10.6875 -19.046875 10.84375 -17.265625 10.84375 -15.671875 C 10.84375 -14.3125 10.625 -12.890625 9.953125 -10.125 Z M 9.703125 -9.234375 C 9.40625 -7.953125 8.8125 -5.578125 7.75 -3.5625 C 6.78125 -1.671875 5.71875 -0.3125 4.515625 -0.3125 C 3.59375 -0.3125 3.015625 -1.109375 3.015625 -3.703125 C 3.015625 -4.875 3.171875 -6.5 3.90625 -9.234375 Z M 9.703125 -9.234375 "/>
</symbol>
</g>
</defs>
<g id="surface1">
<path style="fill:none;stroke-width:1.2;stroke-linecap:butt;stroke-linejoin:round;stroke:rgb(0%,0%,0%);stroke-opacity:1;stroke-miterlimit:10;" d="M 16.001562 496.00035 L 96.001563 496.00035 " transform="matrix(1,0,0,-1,-15.4,517.0316)"/>
<path style="fill-rule:evenodd;fill:rgb(0%,0%,0%);fill-opacity:1;stroke-width:1.2;stroke-linecap:butt;stroke-linejoin:round;stroke:rgb(0%,0%,0%);stroke-opacity:1;stroke-miterlimit:10;" d="M 96.001563 496.00035 L 81.001563 500.996444 L 81.001563 491.004256 Z M 96.001563 496.00035 " transform="matrix(1,0,0,-1,-15.4,517.0316)"/>
<path style="fill:none;stroke-width:1.2;stroke-linecap:butt;stroke-linejoin:round;stroke:rgb(0%,0%,0%);stroke-opacity:1;stroke-miterlimit:10;" d="M 96.001563 492.00035 L 96.001563 448.00035 " transform="matrix(1,0,0,-1,-15.4,517.0316)"/>
<path style="fill-rule:evenodd;fill:rgb(0%,0%,0%);fill-opacity:1;stroke-width:1.2;stroke-linecap:butt;stroke-linejoin:round;stroke:rgb(0%,0%,0%);stroke-opacity:1;stroke-miterlimit:10;" d="M 96.001563 448.00035 L 100.99375 463.00035 L 91.005469 463.00035 Z M 96.001563 448.00035 " transform="matrix(1,0,0,-1,-15.4,517.0316)"/>
<path style="fill:none;stroke-width:1.2;stroke-linecap:butt;stroke-linejoin:round;stroke:rgb(0%,0%,0%);stroke-opacity:1;stroke-miterlimit:10;" d="M 16.001562 492.00035 L 92.001563 448.00035 " transform="matrix(1,0,0,-1,-15.4,517.0316)"/>
<path style="fill-rule:evenodd;fill:rgb(0%,0%,0%);fill-opacity:1;stroke-width:1.2;stroke-linecap:butt;stroke-linejoin:round;stroke:rgb(0%,0%,0%);stroke-opacity:1;stroke-miterlimit:10;" d="M 92.001563 448.00035 L 81.521094 459.840194 L 76.517188 451.191756 Z M 92.001563 448.00035 " transform="matrix(1,0,0,-1,-15.4,517.0316)"/>
<g style="fill:rgb(0%,0%,0%);fill-opacity:1;">
  <use xlink:href="#glyph0-1" x="40.6" y="13.012"/>
</g>
<g style="fill:rgb(0%,0%,0%);fill-opacity:1;">
  <use xlink:href="#glyph1-1" x="88.6" y="53.0316"/>
</g>
<g style="fill:rgb(0%,0%,0%);fill-opacity:1;">
  <use xlink:href="#glyph2-1" x="102.4712" y="42.9096"/>
</g>
<g style="fill:rgb(0%,0%,0%);fill-opacity:1;">
  <use xlink:href="#glyph3-1" x="12.6" y="69.0316"/>
</g>
</g>
</svg>
